%!PS-Adobe-2.0 EPSF-2.0
%%Title: kuev_exp_init_sw.fig
%%Creator: fig2dev Version 3.2 Patchlevel 5a
%%CreationDate: Fri Jun  8 14:58:04 2012
%%For: holle@tore ()
%%BoundingBox: 0 0 589 316
%Magnification: 1.0000
%%EndComments
%%BeginProlog
%%BeginProlog
/$F2psDict 200 dict def
$F2psDict begin
$F2psDict /mtrx matrix put
/col-1 {0 setgray} bind def
/col0 {0.000 0.000 0.000 srgb} bind def
/col1 {0.000 0.000 1.000 srgb} bind def
/col2 {0.000 1.000 0.000 srgb} bind def
/col3 {0.000 1.000 1.000 srgb} bind def
/col4 {1.000 0.000 0.000 srgb} bind def
/col5 {1.000 0.000 1.000 srgb} bind def
/col6 {1.000 1.000 0.000 srgb} bind def
/col7 {1.000 1.000 1.000 srgb} bind def
/col8 {0.000 0.000 0.560 srgb} bind def
/col9 {0.000 0.000 0.690 srgb} bind def
/col10 {0.000 0.000 0.820 srgb} bind def
/col11 {0.530 0.810 1.000 srgb} bind def
/col12 {0.000 0.560 0.000 srgb} bind def
/col13 {0.000 0.690 0.000 srgb} bind def
/col14 {0.000 0.820 0.000 srgb} bind def
/col15 {0.000 0.560 0.560 srgb} bind def
/col16 {0.000 0.690 0.690 srgb} bind def
/col17 {0.000 0.820 0.820 srgb} bind def
/col18 {0.560 0.000 0.000 srgb} bind def
/col19 {0.690 0.000 0.000 srgb} bind def
/col20 {0.820 0.000 0.000 srgb} bind def
/col21 {0.560 0.000 0.560 srgb} bind def
/col22 {0.690 0.000 0.690 srgb} bind def
/col23 {0.820 0.000 0.820 srgb} bind def
/col24 {0.500 0.190 0.000 srgb} bind def
/col25 {0.630 0.250 0.000 srgb} bind def
/col26 {0.750 0.380 0.000 srgb} bind def
/col27 {1.000 0.500 0.500 srgb} bind def
/col28 {1.000 0.630 0.630 srgb} bind def
/col29 {1.000 0.750 0.750 srgb} bind def
/col30 {1.000 0.880 0.880 srgb} bind def
/col31 {1.000 0.840 0.000 srgb} bind def

end

/cp {closepath} bind def
/ef {eofill} bind def
/gr {grestore} bind def
/gs {gsave} bind def
/sa {save} bind def
/rs {restore} bind def
/l {lineto} bind def
/m {moveto} bind def
/rm {rmoveto} bind def
/n {newpath} bind def
/s {stroke} bind def
/sh {show} bind def
/slc {setlinecap} bind def
/slj {setlinejoin} bind def
/slw {setlinewidth} bind def
/srgb {setrgbcolor} bind def
/rot {rotate} bind def
/sc {scale} bind def
/sd {setdash} bind def
/ff {findfont} bind def
/sf {setfont} bind def
/scf {scalefont} bind def
/sw {stringwidth} bind def
/tr {translate} bind def
/tnt {dup dup currentrgbcolor
  4 -2 roll dup 1 exch sub 3 -1 roll mul add
  4 -2 roll dup 1 exch sub 3 -1 roll mul add
  4 -2 roll dup 1 exch sub 3 -1 roll mul add srgb}
  bind def
/shd {dup dup currentrgbcolor 4 -2 roll mul 4 -2 roll mul
  4 -2 roll mul srgb} bind def
 /DrawEllipse {
	/endangle exch def
	/startangle exch def
	/yrad exch def
	/xrad exch def
	/y exch def
	/x exch def
	/savematrix mtrx currentmatrix def
	x y tr xrad yrad sc 0 0 1 startangle endangle arc
	closepath
	savematrix setmatrix
	} def

/$F2psBegin {$F2psDict begin /$F2psEnteredState save def} def
/$F2psEnd {$F2psEnteredState restore end} def

/pageheader {
save
newpath 0 316 moveto 0 0 lineto 589 0 lineto 589 316 lineto closepath clip newpath
-179.3 388.3 translate
1 -1 scale
$F2psBegin
10 setmiterlimit
0 slj 0 slc
 0.06000 0.06000 sc
} bind def
/pagefooter {
$F2psEnd
restore
} bind def
%%EndProlog
pageheader
%
% Fig objects follow
%
% 
% here starts figure with depth 100
% Ellipse
15.000 slw
n 6107 5175 36 36 0 360 DrawEllipse gs col0 s gr

% Polyline
0 slj
0 slc
7.500 slw
n 3975 6150 m
 10575 6225 l gs col0 s gr 
% Polyline
n 7050 6150 m 6975 6075 l 7125 6075 l
 cp gs col0 s gr 
% Polyline
n 6975 6225 m
 7125 6225 l gs col0 s gr 
% Polyline
n 6975 6300 m
 7125 6300 l gs col0 s gr 
% Polyline
 [60] 0 sd
n 5175 2550 m
 3975 2550 l gs col0 s gr  [] 0 sd
% Polyline
 [60] 0 sd
n 8925 2700 m
 8925 2100 l gs col0 s gr  [] 0 sd
% Polyline
 [60] 0 sd
n 4500 3450 m
 4500 4575 l gs col0 s gr  [] 0 sd
% Polyline
 [60] 0 sd
n 4500 4575 m
 4500 6450 l gs col0 s gr  [] 0 sd
% Polyline
 [60] 0 sd
n 3975 3300 m
 4725 3300 l gs col0 s gr  [] 0 sd
% Polyline
n 4725 3225 m
 4725 3375 l gs col0 s gr 
/Helvetica-Bold ff 266.67 scf sf
5175 4875 m
gs 1 -1 sc (p   = 101300 Pa) col0 sh gr
/Helvetica-Bold ff 266.67 scf sf
5175 5325 m
gs 1 -1 sc (T   = 20  C) col0 sh gr
/Helvetica-Bold ff 266.67 scf sf
5175 5775 m
gs 1 -1 sc (S   = 0.11) col0 sh gr
/Helvetica-Bold ff 233.33 scf sf
5325 5850 m
gs 1 -1 sc (w) col0 sh gr
% here ends figure;
% 
% here starts figure with depth 2
% Polyline
0 slj
0 slc
0.000 slw
n 10575 3450 m 4725 3450 l 4725 4575 l 10575 4575 l
 cp gs 0.90 setgray ef gr 
% Polyline
7.500 slw
n 7725 2700 m
 6225 4200 l gs col-1 s gr 
% Polyline
n 7875 2700 m
 6375 4200 l gs col-1 s gr 
% Polyline
n 8025 2700 m
 6525 4200 l gs col-1 s gr 
% Polyline
n 8475 2700 m
 6975 4200 l gs col-1 s gr 
% Polyline
n 8775 2850 m
 7425 4200 l gs col-1 s gr 
% Polyline
n 8775 3150 m
 7725 4200 l gs col-1 s gr 
% Polyline
n 8775 3300 m
 7875 4200 l gs col-1 s gr 
% Polyline
n 8175 2700 m
 6675 4200 l gs col-1 s gr 
% Polyline
n 7575 2700 m
 6075 4200 l gs col-1 s gr 
% Polyline
n 8325 2700 m
 6825 4200 l gs col-1 s gr 
% Polyline
n 8775 3000 m
 7575 4200 l gs col-1 s gr 
% Polyline
n 5925 2700 m
 5175 3450 l gs col-1 s gr 
% Polyline
n 6075 2700 m
 5175 3600 l gs col-1 s gr 
% Polyline
n 6675 2700 m
 5175 4200 l gs col-1 s gr 
% Polyline
n 6225 2700 m
 5175 3750 l gs col-1 s gr 
% Polyline
n 8625 2700 m
 7125 4200 l gs col-1 s gr 
% Polyline
n 8775 2700 m
 7275 4200 l gs col-1 s gr 
% Polyline
n 6525 2700 m
 5175 4050 l gs col-1 s gr 
% Polyline
n 6375 2700 m
 5175 3900 l gs col-1 s gr 
% Polyline
n 6825 2700 m
 5325 4200 l gs col-1 s gr 
% Polyline
n 6975 2700 m
 5475 4200 l gs col-1 s gr 
% Polyline
n 7425 2700 m
 5925 4200 l gs col-1 s gr 
% Polyline
n 7275 2700 m
 5775 4200 l gs col-1 s gr 
% Polyline
n 7125 2700 m
 5625 4200 l gs col-1 s gr 
% Polyline
n 10650 2550 m 11250 2550 l 11250 2400 l 11550 2700 l 11250 3000 l 11250 2850 l
 10650 2850 l
 cp gs col-1 s gr 
% Polyline
n 10650 3900 m 11250 3900 l 11250 3750 l 11550 4050 l 11250 4350 l 11250 4200 l
 10650 4200 l
 cp gs col-1 s gr 
% Polyline
45.000 slw
n 10575 2100 m
 10575 3150 l gs col-1 s gr 
% Polyline
n 10575 3525 m
 10575 4575 l gs col-1 s gr 
% Polyline
n 10575 6000 m
 10575 5025 l gs col-1 s gr 
% Polyline
7.500 slw
n 10650 5400 m 11250 5400 l 11250 5250 l 11550 5550 l 11250 5850 l 11250 5700 l
 10650 5700 l
 cp gs col-1 s gr 
% Polyline
n 3975 1500 m
 10575 1500 l gs col-1 s gr 
% Polyline
n 3975 1425 m
 3975 1575 l gs col-1 s gr 
% Polyline
15.000 slw
n 3975 2100 m 10575 2100 l 10575 6450 l 3975 6450 l
 cp gs col-1 s gr 
% Polyline
7.500 slw
n 10575 1425 m
 10575 1575 l gs col-1 s gr 
% Polyline
n 11175 1500 m
 11175 1650 l gs col-1 s gr 
% Polyline
n 10575 2025 m
 10575 2100 l gs col-1 s gr 
% Polyline
n 5325 2700 m
 5175 2850 l gs col-1 s gr 
% Polyline
n 5475 2700 m
 5175 3000 l gs col-1 s gr 
% Polyline
n 5775 2700 m
 5175 3300 l gs col-1 s gr 
% Polyline
n 8775 3450 m
 8025 4200 l gs col-1 s gr 
% Polyline
n 8775 3600 m
 8175 4200 l gs col-1 s gr 
% Polyline
n 8775 3750 m
 8325 4200 l gs col-1 s gr 
% Polyline
n 8775 3900 m
 8475 4200 l gs col-1 s gr 
% Polyline
n 8775 4050 m
 8625 4200 l gs col-1 s gr 
% Polyline
 [60] 0 sd
n 5175 2550 m
 8775 2550 l gs col-1 s gr  [] 0 sd
% Polyline
n 8775 2475 m
 8775 2625 l gs col-1 s gr 
% Polyline
n 5175 2475 m
 5175 2625 l gs col-1 s gr 
% Polyline
n 8850 2700 m
 9000 2700 l gs col-1 s gr 
% Polyline
 [60] 0 sd
n 8925 2700 m
 8925 4200 l gs col-1 s gr  [] 0 sd
% Polyline
n 8850 4200 m
 9000 4200 l gs col-1 s gr 
% Polyline
 [60] 0 sd
n 10575 2100 m
 11175 1575 l gs col-1 s gr  [] 0 sd
% Polyline
45.000 slw
n 3975 2100 m
 3975 3150 l gs col-1 s gr 
% Polyline
n 3975 3525 m
 3975 4575 l gs col-1 s gr 
% Polyline
n 3975 6000 m
 3975 5025 l gs col-1 s gr 
% Polyline
7.500 slw
n 11850 2100 m
 11850 6450 l gs col-1 s gr 
% Polyline
n 11775 2100 m
 11925 2100 l gs col-1 s gr 
% Polyline
n 11775 6450 m
 11925 6450 l gs col-1 s gr 
% Polyline
n 4425 3450 m
 4575 3450 l gs col-1 s gr 
% Polyline
n 4425 4575 m
 4575 4575 l gs col-1 s gr 
% Polyline
n 5625 2700 m
 5175 3150 l gs col-1 s gr 
% Polyline
n 3000 2550 m 3600 2550 l 3600 2400 l 3900 2700 l 3600 3000 l 3600 2850 l
 3000 2850 l
 cp gs col-1 s gr 
% Polyline
n 3000 3900 m 3600 3900 l 3600 3750 l 3900 4050 l 3600 4350 l 3600 4200 l
 3000 4200 l
 cp gs col-1 s gr 
% Polyline
n 3000 5400 m 3600 5400 l 3600 5250 l 3900 5550 l 3600 5850 l 3600 5700 l
 3000 5700 l
 cp gs col-1 s gr 
% Polyline
0.000 slw
n 5370 3225 m 5265 3225 5265 3345 105 arcto 4 {pop} repeat
  5265 3450 7860 3450 105 arcto 4 {pop} repeat
  7965 3450 7965 3330 105 arcto 4 {pop} repeat
  7965 3225 5370 3225 105 arcto 4 {pop} repeat
 cp gs col7 1.00 shd ef gr 
% Polyline
n 5400 3000 m 5325 3000 5325 3075 75 arcto 4 {pop} repeat
  5325 3150 7800 3150 75 arcto 4 {pop} repeat
  7875 3150 7875 3075 75 arcto 4 {pop} repeat
  7875 3000 5400 3000 75 arcto 4 {pop} repeat
 cp gs col7 1.00 shd ef gr 
/Helvetica-Bold ff 266.67 scf sf
6750 1425 m
gs 1 -1 sc (110 cm) col-1 sh gr
/Helvetica-Bold ff 266.67 scf sf
10500 1800 m
gs 1 -1 sc (8.5) col-1 sh gr
/Helvetica-Bold ff 233.33 scf sf
6675 2475 m
gs 1 -1 sc (60) col-1 sh gr
/Helvetica-Bold ff 233.33 scf sf
9000 3450 m
gs 1 -1 sc (25) col-1 sh gr
/Helvetica-Bold ff 266.67 scf sf
12000 4275 m
gs 1 -1 sc (74 cm) col-1 sh gr
/Helvetica-Bold ff 266.67 scf sf
5250 3150 m
gs 1 -1 sc (NAPL contamination) col-1 sh gr
/Helvetica-Bold ff 233.33 scf sf
4425 2475 m
gs 1 -1 sc (20) col-1 sh gr
/Helvetica-Bold ff 233.33 scf sf
9000 2475 m
gs 1 -1 sc (9) col-1 sh gr
/Helvetica-Bold ff 233.33 scf sf
4275 5550 m
gs 1 -1 sc (32) col-1 sh gr
/Helvetica-Bold ff 233.33 scf sf
4275 4200 m
gs 1 -1 sc (25) col-1 sh gr
/Helvetica-Bold ff 233.33 scf sf
4275 3225 m
gs 1 -1 sc (13) col-1 sh gr
/Helvetica-Bold ff 266.67 scf sf
5280 3405 m
gs 1 -1 sc (in residual saturation) col-1 sh gr
/Helvetica-Bold ff 266.67 scf sf
8850 5475 m
gs 1 -1 sc (coarse sand) col-1 sh gr
/Helvetica-Bold ff 266.67 scf sf
8925 2925 m
gs 1 -1 sc (coarse sand) col-1 sh gr
/Helvetica-Bold ff 266.67 scf sf
9225 3975 m
gs 1 -1 sc (fine sand) col-1 sh gr
% here ends figure;
pagefooter
showpage
%%Trailer
%EOF
