%!PS-Adobe-2.0 EPSF-2.0
%%Creator: TECPLOT
%%Pages:1
%%BoundingBox: 71 17 721 595
%%DocumentFonts: Helvetica Helvetica-Bold Symbol Times-Roman Times-Bold Times-Italic Times-BoldItalic Courier Courier-Bold
%%EndComments
%%BeginPreview: 128 128 1 128
% ffffffffffffffffffffffffffffffff
% ffffffffffffffffffffffffffffffff
% ffffffffffffffffffffffffffffffff
% ffffffffffffffffffffffffffffffff
% ffffffffffffffffffffffffffffffff
% ffffffffffffffffffffffffffffffff
% ffffffffffffffffffffffffffffffff
% ffffffffffffffffffffffffffffffff
% ffffffffffffffffffffffffffffffff
% ffffffffffffffffffffffffffffffff
% ffffffffffffffffffffffffffffffff
% ffffffffffffffffffffffffffffffff
% ffffffffffffffffffffffffffffffff
% ffffffffffffffffffffffffffffffff
% ffffffffffffffffffffffffffffffff
% ffffffffffffffffffffffffffffffff
% ffffffffffffffffffffffffffffffff
% ffffffffffffffffffffffffffffffff
% ffffffffffffffffffffffffffffffff
% ffffffffffffffffffffffffffffffff
% ffffffffffffffffffffffffffffffff
% ffffffffffffffffffffffffffffffff
% ffffffffffffffffffffffffffffffff
% ffffffffffffffffffffffffffffffff
% ffffffffffffffffffffffffffffffff
% ffffffffffffffffffffffffffffffff
% ffffffffffffffffffffffffffffffff
% ffffffffffffffffffffffffffffffff
% ffffffffffffffffffffffffffffffff
% ffffffffffffffffffffffffffffffff
% ffffffffffffffffffffffffffffffff
% ffffffffffffffffffffffffffffffff
% ffffffffffffffffffffffffffffffff
% ffffffffffffffffffffffffffffffff
% ffffffffffffffffffffffffffffffff
% ffffffffffffffffffffffffffffffff
% ffffffffffffffffffffffffffffffff
% ffffffffffffffffffffffffffffffff
% ffffffffffffffffffffffffffffffff
% ffffffffffffffffffffffffffffffff
% ffffffffffffffffffffffffffffffff
% ffffffffffffffffffffffffffffffff
% ffffffffffffffffffffffffffffffff
% ffffffffffffffffffffffffffffffff
% ffffffffffffffffffffffffffffffff
% ffffffffffffffffffffffffffffffff
% ffffffffffffffffffffffffffffffff
% ffffffffffffffffffffffffffffffff
% ffffffffffffffffffffffffffffffff
% ffffffffffffffffffffffffffffffff
% ffffffffffffffffffffffffffffffff
% ffffffffffffffffffffffffffffffff
% ffffffffffffffffffffffffffffffff
% ffffffffffffffffffffffffffffffff
% ffffffffffffffffffffffffffffffff
% ffffffffffffffffffffffffffffffff
% ffffffffffffffffffffffffffffffff
% ffffffffffffffffffffffffffffffff
% ffffffffffffffffffffffffffffffff
% ffffffffffffffffffffffffffffffff
% ffffffffffffffffffffffffffffffff
% ffffffffffffffffffffffffffffffff
% ffffffffffffffffffffffffffffffff
% ffffffffffffffffffffffffffffffff
% ffffffffffffffffffffffffffffffff
% ffffffffffffffffffffffffffffffff
% ffffffffffffffffffffffffffffffff
% ffffffffffffffffffffffffffffffff
% ffffffffffffffffffffffffffffffff
% ffffffffffffffffffffffffffffffff
% ffffffffffffffffffffffffffffffff
% ffffffffffffffffffffffffffffffff
% ffffffffffffffffffffffffffffffff
% ffffffffffffffffffffffffffffffff
% ffffffffffffffffffffffffffffffff
% ffffffffffffffffffffffffffffffff
% ffffffffffffffffffffffffffffffff
% ffffffffffffffffffffffffffffffff
% ffffffffffffffffffffffffffffffff
% ffffffffffffffffffffffffffffffff
% ffffffffffffffffffffffffffffffff
% ffffffffffffffffffffffffffffffff
% ffffffffffffffffffffffffffffffff
% ffffffffffffffffffffffffffffffff
% ffffffffffffffffffffffffffffffff
% ffffffffffffffffffffffffffffffff
% ffffffffffffffffffffffffffffffff
% ffffffffffffffffffffffffffffffff
% ffffffffffffffffffffffffffffffff
% ffffffffffffffffffffffffffffffff
% ffffffffffffffffffffffffffffffff
% ffffffffffffffffffffffffffffffff
% ffffffffffffffffffffffffffffffff
% ffffffffffffffffffffffffffffffff
% ffffffffffffffffffffffffffffffff
% ffffffffffffffffffffffffffffffff
% ffffffffffffffffffffffffffffffff
% ffffffffffffffffffffffffffffffff
% ffffffffffffffffffffffffffffffff
% ffffffffffffffffffffffffffffffff
% ffffffffffffffffffffffffffffffff
% ffffffffffffffffffffffffffffffff
% ffffffffffffffffffffffffffffffff
% ffffffffffffffffffffffffffffffff
% ffffffffffffffffffffffffffffffff
% ffffffffffffffffffffffffffffffff
% ffffffffffffffffffffffffffffffff
% ffffffffffffffffffffffffffffffff
% ffffffffffffffffffffffffffffffff
% ffffffffffffffffffffffffffffffff
% ffffffffffffffffffffffffffffffff
% ffffffffffffffffffffffffffffffff
% ffffffffffffffffffffffffffffffff
% ffffffffffffffffffffffffffffffff
% ffffffffffffffffffffffffffffffff
% ffffffffffffffffffffffffffffffff
% ffffffffffffffffffffffffffffffff
% ffffffffffffffffffffffffffffffff
% ffffffffffffffffffffffffffffffff
% ffffffffffffffffffffffffffffffff
% ffffffffffffffffffffffffffffffff
% ffffffffffffffffffffffffffffffff
% ffffffffffffffffffffffffffffffff
% ffffffffffffffffffffffffffffffff
% ffffffffffffffffffffffffffffffff
% ffffffffffffffffffffffffffffffff
% ffffffffffffffffffffffffffffffff
% ffffffffffffffffffffffffffffffff
%%EndPreview
/tecplotdict 120 dict def
tecplotdict begin
/ed  {exch def} def
/ftl {findfont exch scalefont setfont} def
/ftr {/ISOLatin1-Times-Roman ftl} def
/ftb {/ISOLatin1-Times-Bold ftl} def
/fti {/ISOLatin1-Times-Italic ftl} def
/ftib {/ISOLatin1-Times-BoldItalic ftl} def
/fcr {/ISOLatin1-Courier ftl} def
/fcb {/ISOLatin1-Courier-Bold ftl} def
/fhn {/ISOLatin1-Helvetica ftl} def
/fhb {/ISOLatin1-Helvetica-Bold ftl} def
/fsy {/Symbol ftl} def
/gs /gsave load def
/gr /grestore load def
/np /newpath load def
/cp /closepath load def
/g /setgray load def
/lc {setlinecap} def
/lj /setlinejoin load def
/x /setrgbcolor load def
/sd /setdash load def
/sw {setlinewidth} def
/cpt /currentpoint load def
/m {moveto} def
/rm /rmoveto load def
/l /lineto load def
/r /rlineto load def
/sf /setflat load def
/s /stroke load def
/q {cpt s m} def
/ro /rotate load def
/sh /show load def
/clp {cp gr gs np m l l l cp clip np cp} def
/dorect
{
/height ed
/width  ed
m
0 height r
width 0 r
0 height neg r
cp
} def
/er {cp np dorect g fill 0 g cp} def
/erc {cp np dorect x fill 0 g cp} def
/br {cp np dorect g cp s} def
/brc {cp np dorect x cp s} def
/ii 0 def
/n 0 def
/CurA 0 def
/Ry 0 def
/Rx 0 def
/CA 0 def
/SA 0 def
/SJ 0 def
/SI 0 def
/bi 0 def
/i 0 def
/ib 0 def
/ig 0 def
/ir 0 def
/ishade 0 def
/bshade 0 def
/dcs
{
m
dup dup dup
-2 div dup
rm
0 r
0 exch r
neg 0 r
cp
} bind def
/pg
{
/size ed
/Ny ed
/Nx ed
/Y2 ed
/X2 ed
/Y1 ed
/X1 ed
Ny 1 gt
{/Dy Y2 Y1 sub Ny 1 sub div def}
{/Dy 0.0 def}
ifelse
Nx 1 gt
{/Dx X2 X1 sub Nx 1 sub div def}
{/Dx 0.0 def}
ifelse
Y1 Dy Y2 Dy 2 div add
{
X1 Dx X2 Dx 2 div add
{
1 index
size 3 1 roll
dcs fill
Dx 0.0 eq
{exit}
if
} for
pop
Dy 0.0 eq
{exit}
if
} for
} bind def
/z
{
/ii ed
rea ii get
gra ii get
bla ii get
} def
/lrgb
{
/ii ed
/blue ed
/green ed
/red ed
bla ii blue put
gra ii green put
rea ii red put
} def
/trace
{
cp np
m
1 1 n 
{
pop
r
} for
cp
} def
/f
{
/ishade ed
/n ed 
s
trace
ishade g fill
} def
/b
{
/bshade ed
/n ed 
m
1 1 n 
{
pop
r
} for
bshade g s
} def
/fb
{
/bshade ed
/ishade ed
/n ed 
s 
n 2 mul 2 add copy
trace
ishade g fill
trace
bshade g s
} def
/c
{
/n ed 
s 
trace
s
} def
/fc
{
/i ed
/n ed 
s 
trace
i z x fill
} def
/fd
{
/ib ed
/ig ed
/ir ed
/n ed 
s 
trace
ir ig ib x fill
} def
/bc
{
/i ed
/n ed 
m
1 1 n 
{
pop
r
} for
i z x s
} def
/fbc
{
/ii ed
/bi ed
/n ed 
s 
n 2 mul 2 add copy
trace
ii z x fill
trace
bi z x s
} def
/fbd
{
/ib ed
/ig ed
/ir ed
/bi ed
/n ed 
s
n 2 mul 2 add copy
trace
ir ig ib x fill
trace
bi z x s
} def
/e
{
/Ry ed
/Rx ed
/CA ed
/SA ed
/SJ ed
/SI ed
/DelX SA cos Rx mul def
/DelY SA sin Ry mul def
/XI SI DelX add def
/YI SJ DelY add def
/OCX DelX def
/OCY DelY def
/N 0 def
SA CA add
CA
SA 360 add
{
/CurA ed
/CX CurA cos Rx mul def
/CY CurA sin Ry mul def
OCX CX sub 
OCY CY sub 
/OCX CX def
/OCY CY def
/N N 1 add def
}
for
XI YI N
} def
%%EndProlog
%%Page:? 1
/getisofont
{
findfont
dup length dict begin
{
1 index /FID ne {def}{pop pop} ifelse
} forall
/Encoding ISOLatin1Encoding def
currentdict
end
} def
/Helvetica             getisofont /ISOLatin1-Helvetica             exch definefont pop
/Helvetica-Bold        getisofont /ISOLatin1-Helvetica-Bold        exch definefont pop
/Helvetica-Oblique     getisofont /ISOLatin1-Helvetica-Oblique     exch definefont pop
/Helvetica-BoldOblique getisofont /ISOLatin1-Helvetica-BoldOblique exch definefont pop
/Times-Roman           getisofont /ISOLatin1-Times-Roman           exch definefont pop
/Times-Bold            getisofont /ISOLatin1-Times-Bold            exch definefont pop
/Times-BoldItalic      getisofont /ISOLatin1-Times-BoldItalic      exch definefont pop
/Times-Italic          getisofont /ISOLatin1-Times-Italic          exch definefont pop
/Courier               getisofont /ISOLatin1-Courier               exch definefont pop
/Courier-Bold          getisofont /ISOLatin1-Courier-Bold          exch definefont pop
/Courier-Oblique       getisofont /ISOLatin1-Courier-Oblique       exch definefont pop
/Courier-BoldOblique   getisofont /ISOLatin1-Courier-BoldOblique   exch definefont pop
5 setmiterlimit
0.025 0.025 scale np
gs
2833 676 2833 23804 28847 23804 28847 676 clp
1 2880 720 25920 23040 er
2879 719 2879 23761 28801 23761 28801 719 clp
6249 3253 6249 20996 25691 20996 25691 3253 clp
0 g
23 sw
0 lc
0 lj
[1 114] 0 sd
6250 3254 m
6250 20995 l
s
8146 3254 m
8146 20995 l
s
10043 3254 m
10043 20995 l
s
11939 3254 m
11939 20995 l
s
13836 3254 m
13836 20995 l
s
15733 3254 m
15733 20995 l
s
17629 3254 m
17629 20995 l
s
19526 3254 m
19526 20995 l
s
21422 3254 m
21422 20995 l
s
23319 3254 m
23319 20995 l
s
25215 3254 m
25215 20995 l
s
2879 719 2879 23761 28801 23761 28801 719 clp
6249 3253 6249 20996 25691 20996 25691 3253 clp
0 g
23 sw
0 lc
0 lj
[1 114] 0 sd
6250 3254 m
25690 3254 l
s
6250 5028 m
25690 5028 l
s
6250 6803 m
25690 6803 l
s
6250 8577 m
25690 8577 l
s
6250 10351 m
25690 10351 l
s
6250 12125 m
25690 12125 l
s
6250 13899 m
25690 13899 l
s
6250 15673 m
25690 15673 l
s
6250 17447 m
25690 17447 l
s
6250 19221 m
25690 19221 l
s
6250 20995 m
25690 20995 l
s
88.990 -147.156 209.636 -728.305 209.635 -475.099 209.636 -263.073 209.635 -191.247 209.635 -158.724 209.635 -138.527 209.636 -124.369 209.635 -113.939 209.635 -105.988
209.636 -99.773 209.635 -94.784 209.635 -90.705 209.635 -87.060 209.636 -84.485 209.635 -82.319 209.635 -80.520 209.635 -79.038 209.636 -77.814 209.635 -76.816
209.635 -76.054 209.635 -75.425 209.636 -75.014 209.635 -74.784 209.635 -74.725 209.635 -74.780 209.636 -74.959 209.635 -75.281 209.635 -75.725 209.636 -76.274
209.635 -77.042 209.635 -77.922 209.635 -78.876 209.636 -79.972 209.635 -81.195 209.635 -82.552 209.635 -84.059 209.636 -85.717 209.635 -87.584 209.635 -89.830
209.635 -92.073 209.636 -94.491 209.635 -97.127 209.635 -100.002 209.635 -103.126 209.636 -106.516 209.635 -110.208 209.635 -114.582 209.635 -119.339 209.635 -124.246
209.635 -129.582 209.635 -135.405 209.635 -141.750 209.635 -148.661 209.635 -156.204 209.635 -164.395 209.635 -174.712 209.635 -184.819 209.635 -195.646 209.635 -207.346
209.635 -219.940 209.635 -233.443 209.635 -247.869 209.635 -263.237 209.635 -280.305 209.635 -299.919 209.635 -319.066 209.635 -339.962 209.635 -363.114 209.635 -389.112
209.635 -418.135 209.635 -448.770 209.635 -476.101 209.635 -483.600 209.635 -447.021 209.635 -388.427 209.635 -330.716 209.635 -283.357 209.635 -247.960 209.635 -222.395
209.635 -204.045 209.635 -190.973 209.635 -181.065 209.635 -175.962 209.635 -173.529 209.635 -173.826 209.635 -177.250 209.635 -184.688 209.635 -197.960 209.635 -220.730
209.635 -264.994 209.635 -376.087 209.635 -555.263 6314.200 20810.462 93 92 sw
[461] 0 sd
0 b
0.000 -177.408 0.000 -177.408 9.485 -177.408 18.964 -177.408 37.933 -177.408 56.896 -177.408 75.865 -177.408 104.311 -177.408 142.244 -177.408 189.659 -177.408
218.107 -177.408 265.522 -177.408 303.453 -177.408 350.869 -177.408 379.317 -177.408 417.249 -177.408 445.697 -177.408 474.147 -177.408 483.629 -177.408 493.111 -177.408
493.113 -177.408 493.111 -177.408 493.113 -177.408 474.146 -177.408 464.664 -177.408 455.180 -177.408 426.732 -177.408 417.249 -177.408 388.800 -177.408 369.833 -177.408
350.869 -177.408 331.902 -177.408 312.937 -177.408 303.454 -177.408 275.005 -177.408 265.522 -177.408 246.556 -177.408 227.590 -177.408 218.107 -177.408 208.625 -177.408
199.141 -177.408 189.659 -177.408 170.693 -177.408 170.693 -177.408 161.209 -177.408 151.727 -177.408 151.727 -177.408 142.244 -177.408 132.761 -177.230 132.761 -177.408
123.278 -177.409 123.278 -177.408 113.795 -177.408 113.795 -177.408 104.313 -177.408 104.312 -177.408 104.312 -177.409 94.829 -177.408 94.830 -177.408 94.829 -177.408
94.829 -177.408 85.346 -177.408 75.863 -177.408 85.346 -177.409 75.864 -177.408 75.863 -177.408 75.863 -177.408 75.864 -177.408 75.863 -177.408 75.864 -177.409
75.863 -177.408 85.346 -177.408 85.346 -177.408 85.346 -177.408 104.312 -177.408 113.795 -177.409 113.795 -177.408 132.761 -177.408 151.727 -177.408 161.210 -177.408
170.693 -177.408 189.659 -177.409 199.141 -177.408 208.624 -177.408 218.107 -177.408 218.107 -177.408 227.590 -177.408 218.107 -177.408 208.624 -177.409 199.142 -177.408
180.176 -177.408 161.210 -177.408 132.761 -177.408 104.312 -177.408 85.346 -177.409 47.415 -177.408 37.932 -177.408 18.966 -177.408 18.966 -177.408 6249.600 20995.022 99 23 sw
[] 0 sd
0 b
88.990 -0.000 209.636 -0.000 209.635 -0.000 209.636 -0.000 209.635 -0.000 209.635 -0.000 209.635 -0.000 209.636 -0.000 209.635 -0.000 209.635 -0.000
209.636 -0.000 209.635 -0.000 209.635 -0.000 209.635 -0.000 209.636 -0.000 209.635 -0.000 209.635 -0.000 209.635 -0.000 209.636 -0.000 209.635 -0.000
209.635 -0.000 209.635 -0.000 209.636 -0.000 209.635 -0.000 209.635 -0.000 209.635 -0.000 209.636 -0.000 209.635 -0.000 209.635 -0.000 209.636 -0.000
209.635 -0.000 209.635 -0.000 209.635 -0.000 209.636 -0.000 209.635 -0.000 209.635 -0.000 209.635 -0.000 209.636 -0.000 209.635 -0.000 209.635 -0.000
209.635 -0.000 209.636 -0.000 209.635 -0.000 209.635 -0.000 209.635 -0.000 209.636 -0.000 209.635 -0.000 209.635 -0.000 209.635 -0.000 209.635 -0.000
209.635 -0.000 209.635 -0.000 209.635 -0.000 209.635 -0.000 209.635 -0.000 209.635 -0.000 209.635 -0.000 209.635 -0.000 209.635 -0.000 209.635 -0.010
209.635 -0.008 209.635 -0.011 209.635 -0.038 209.635 -0.068 209.635 -0.110 209.635 -0.276 209.635 -0.584 209.635 -1.326 209.635 -3.086 209.635 -7.332
209.635 -17.712 209.635 -42.250 209.635 -95.941 209.635 -223.076 209.635 -413.738 209.635 -585.531 209.635 -707.852 209.635 -779.385 209.635 -811.540 209.635 -817.575
209.635 -807.258 209.635 -786.801 209.635 -755.385 209.635 -724.083 209.635 -690.998 209.635 -656.878 209.635 -622.235 209.635 -587.386 209.635 -552.425 209.635 -517.103
209.635 -478.469 209.635 -430.972 209.635 -377.061 6314.200 15748.903 93 46 sw
[461 184 92 184] 0 sd
0 b
9.485 -0.000 18.964 -0.000 37.933 -0.000 56.896 -0.000 75.865 -0.000 104.311 -0.000 142.244 -0.000 189.659 -0.000 218.107 -0.000 265.522 -0.000
303.453 -0.000 350.869 -0.000 379.317 -0.000 417.249 -0.000 445.697 -0.000 474.147 -0.000 483.629 -0.000 493.111 -0.000 493.113 -0.000 493.111 -0.000
493.113 -0.000 474.146 -0.000 464.664 -0.000 455.180 -0.000 426.732 -0.000 417.249 -0.000 388.800 -0.000 369.833 -0.000 350.869 -0.000 331.902 -0.000
312.937 -0.000 303.454 -0.000 275.005 -0.000 265.522 -0.000 246.556 -0.000 227.590 -0.000 218.107 -0.000 208.625 -0.000 199.141 -0.000 189.659 -0.000
170.693 -0.000 170.693 -0.000 161.209 -0.000 151.727 -0.000 151.727 -0.177 142.244 -0.000 132.761 -0.000 132.761 -0.177 123.278 -0.177 123.278 -0.177
113.795 -0.355 113.795 -0.532 104.313 -0.710 104.312 -1.242 104.312 -1.597 94.829 -2.306 94.830 -3.193 94.829 -4.613 94.829 -6.742 85.346 -9.225
75.863 -12.951 85.346 -18.096 75.864 -24.837 75.863 -33.885 75.863 -46.126 75.864 -61.915 75.863 -82.317 75.864 -107.864 75.863 -139.797 85.346 -178.650
85.346 -224.599 85.346 -277.821 104.312 -337.430 113.795 -402.184 113.795 -469.599 132.761 -537.014 151.727 -600.881 161.210 -658.184 170.693 -705.197 189.659 -739.437
199.141 -758.952 208.624 -762.499 218.107 -750.081 218.107 -722.583 227.590 -680.892 218.107 -627.670 208.624 -565.044 199.142 -495.501 180.176 -422.230 161.210 -347.543
132.761 -274.627 104.312 -205.971 85.346 -143.878 47.415 -90.656 37.932 -48.077 18.966 -18.450 18.966 -2.662 6249.600 15861.722 97 92 sw
2 lc
[1 114] 0 sd
0 b
2879 719 2879 23761 28801 23761 28801 719 clp
0 g
92 sw
0 lc
0 lj
[] 0 sd
6250 3254 m
6250 3715 l
s
23 sw
8146 3254 m
8146 3531 l
s
10043 3254 m
10043 3531 l
s
11939 3254 m
11939 3531 l
s
13836 3254 m
13836 3531 l
s
92 sw
15733 3254 m
15733 3715 l
s
23 sw
17629 3254 m
17629 3531 l
s
19526 3254 m
19526 3531 l
s
21422 3254 m
21422 3531 l
s
23319 3254 m
23319 3531 l
s
92 sw
25215 3254 m
25215 3715 l
s
2 lc
6250 3254 m
25690 3254 l
s
-2071 -0 0 627 2071 -0 14934 1706 3 5 sw
1 1 fb
921.6 fhb
0 g
14934 1706 m
(x) sh
15665 1706 m
([) sh
15929 1706 m
(m) sh
16741 1706 m
(]) sh
92 sw
0 lc
6250 3254 m
6741 3254 l
s
23 sw
6250 5028 m
6544 5028 l
s
6250 6803 m
6544 6803 l
s
6250 8577 m
6544 8577 l
s
6250 10351 m
6544 10351 l
s
92 sw
6250 12125 m
6741 12125 l
s
23 sw
6250 13899 m
6544 13899 l
s
6250 15673 m
6544 15673 l
s
6250 17447 m
6544 17447 l
s
6250 19221 m
6544 19221 l
s
92 sw
6250 20995 m
6741 20995 l
s
2 lc
6250 3254 m
6250 20995 l
s
-0 -4373 -627 -0 0 4373 4694 9938 3 5 sw
1 1 fb
921.6 fhb
0 g
4694 9938 m
gs 90.0 ro
(S) sh
gr
552.96 fhb
4971 10588 m
gs 90.0 ro
(w) sh
gr
4971 11014 m
gs 90.0 ro
(e) sh
gr
921.6 fhb
4694 11331 m
gs 90.0 ro
(,) sh
gr
4694 11839 m
gs 90.0 ro
(x) sh
gr
552.96 fhb
4234 12326 m
gs 90.0 ro
(a) sh
gr
4971 12326 m
gs 90.0 ro
(g) sh
gr
921.6 fhb
4694 13142 m
gs 90.0 ro
([) sh
gr
4694 13406 m
gs 90.0 ro
(\255) sh
gr
4694 13731 m
gs 90.0 ro
(]) sh
gr
-389 -0 0 470 389 -0 6055 2554 3 1 1 fb
691.2 fhn
0 g
6055 2554 m
(0) sh
-389 -0 0 470 389 -0 15538 2554 3 1 1 fb
691.2 fhn
0 g
15538 2554 m
(1) sh
-389 -0 0 470 389 -0 25021 2554 3 1 1 fb
691.2 fhn
0 g
25021 2554 m
(2) sh
-389 -0 0 470 389 -0 5602 3019 3 1 1 fb
691.2 fhn
0 g
5602 3019 m
(0) sh
-965 -0 0 470 965 -0 5026 11890 3 1 1 fb
691.2 fhn
0 g
5026 11890 m
(0) sh
5414 11890 m
(.) sh
5602 11890 m
(5) sh
-389 -0 0 470 389 -0 5602 20760 3 1 1 fb
691.2 fhn
0 g
5602 20760 m
(1) sh
0 7678 9339 -0 0 -7678 15761 19240 3 23 sw
1 0 fb
15714 11518 15714 19283 25146 19283 25146 11518 clp
2879 719 2879 23761 28801 23761 28801 719 clp
829.44 fhb
0 g
20893 16968 m
(S) sh
497.664 fhb
21478 16719 m
(w) sh
21862 16719 m
(e) sh
829.44 fhb
22366 16968 m
(n) sh
22860 16968 m
(u) sh
23353 16968 m
(m) sh
24084 16968 m
(.) sh
829.44 fhb
20893 15475 m
(S) sh
497.664 fhb
21478 15226 m
(w) sh
21862 15226 m
(e) sh
829.44 fhb
22366 15475 m
(a) sh
22841 15475 m
(n) sh
23335 15475 m
(a) sh
23810 15475 m
(l) sh
24011 15475 m
(.) sh
829.44 fhb
20893 13982 m
(x) sh
497.664 fhb
21332 14397 m
(a) sh
21332 13733 m
(g) sh
829.44 fhb
21847 13982 m
(n) sh
22341 13982 m
(u) sh
22834 13982 m
(m) sh
23565 13982 m
(.) sh
829.44 fhb
20893 12489 m
(x) sh
497.664 fhb
21332 12904 m
(a) sh
21332 12240 m
(g) sh
829.44 fhb
21847 12489 m
(a) sh
22322 12489 m
(n) sh
22816 12489 m
(a) sh
23291 12489 m
(l) sh
23492 12489 m
(.) sh
92 sw
0 lc
0 lj
[461] 0 sd
16539 17217 m
20271 17217 l
s
23 sw
[] 0 sd
16539 15724 m
20271 15724 l
s
46 sw
[461 184 92 184] 0 sd
16539 14231 m
20271 14231 l
s
92 sw
2 lc
[1 114] 0 sd
16539 12738 m
20271 12738 l
s
gr end
showpage
