%!PS-Adobe-2.0 EPSF-2.0
%%Creator: TECPLOT
%%Pages:1
%%BoundingBox: 71 17 721 595
%%DocumentFonts: Helvetica Helvetica-Bold Symbol Times-Roman Times-Bold Times-Italic Times-BoldItalic Courier Courier-Bold
%%EndComments
%%BeginPreview: 128 128 1 128
% ffffffffffffffffffffffffffffffff
% ffffffffffffffffffffffffffffffff
% ffffffffffffffffffffffffffffffff
% ffffffffffffffffffffffffffffffff
% ffffffffffffffffffffffffffffffff
% ffffffffffffffffffffffffffffffff
% ffffffffffffffffffffffffffffffff
% ffffffffffffffffffffffffffffffff
% ffffffffffffffffffffffffffffffff
% ffffffffffffffffffffffffffffffff
% ffffffffffffffffffffffffffffffff
% ffffffffffffffffffffffffffffffff
% ffffffffffffffffffffffffffffffff
% ffffffffffffffffffffffffffffffff
% ffffffffffffffffffffffffffffffff
% ffffffffffffffffffffffffffffffff
% ffffffffffffffffffffffffffffffff
% ffffffffffffffffffffffffffffffff
% ffffffffffffffffffffffffffffffff
% ffffffffffffffffffffffffffffffff
% ffffffffffffffffffffffffffffffff
% ffffffffffffffffffffffffffffffff
% ffffffffffffffffffffffffffffffff
% ffffffffffffffffffffffffffffffff
% ffffffffffffffffffffffffffffffff
% ffffffffffffffffffffffffffffffff
% ffffffffffffffffffffffffffffffff
% ffffffffffffffffffffffffffffffff
% ffffffffffffffffffffffffffffffff
% ffffffffffffffffffffffffffffffff
% ffffffffffffffffffffffffffffffff
% ffffffffffffffffffffffffffffffff
% ffffffffffffffffffffffffffffffff
% ffffffffffffffffffffffffffffffff
% ffffffffffffffffffffffffffffffff
% ffffffffffffffffffffffffffffffff
% ffffffffffffffffffffffffffffffff
% ffffffffffffffffffffffffffffffff
% ffffffffffffffffffffffffffffffff
% ffffffffffffffffffffffffffffffff
% ffffffffffffffffffffffffffffffff
% ffffffffffffffffffffffffffffffff
% ffffffffffffffffffffffffffffffff
% ffffffffffffffffffffffffffffffff
% ffffffffffffffffffffffffffffffff
% ffffffffffffffffffffffffffffffff
% ffffffffffffffffffffffffffffffff
% ffffffffffffffffffffffffffffffff
% ffffffffffffffffffffffffffffffff
% ffffffffffffffffffffffffffffffff
% ffffffffffffffffffffffffffffffff
% ffffffffffffffffffffffffffffffff
% ffffffffffffffffffffffffffffffff
% ffffffffffffffffffffffffffffffff
% ffffffffffffffffffffffffffffffff
% ffffffffffffffffffffffffffffffff
% ffffffffffffffffffffffffffffffff
% ffffffffffffffffffffffffffffffff
% ffffffffffffffffffffffffffffffff
% ffffffffffffffffffffffffffffffff
% ffffffffffffffffffffffffffffffff
% ffffffffffffffffffffffffffffffff
% ffffffffffffffffffffffffffffffff
% ffffffffffffffffffffffffffffffff
% ffffffffffffffffffffffffffffffff
% ffffffffffffffffffffffffffffffff
% ffffffffffffffffffffffffffffffff
% ffffffffffffffffffffffffffffffff
% ffffffffffffffffffffffffffffffff
% ffffffffffffffffffffffffffffffff
% ffffffffffffffffffffffffffffffff
% ffffffffffffffffffffffffffffffff
% ffffffffffffffffffffffffffffffff
% ffffffffffffffffffffffffffffffff
% ffffffffffffffffffffffffffffffff
% ffffffffffffffffffffffffffffffff
% ffffffffffffffffffffffffffffffff
% ffffffffffffffffffffffffffffffff
% ffffffffffffffffffffffffffffffff
% ffffffffffffffffffffffffffffffff
% ffffffffffffffffffffffffffffffff
% ffffffffffffffffffffffffffffffff
% ffffffffffffffffffffffffffffffff
% ffffffffffffffffffffffffffffffff
% ffffffffffffffffffffffffffffffff
% ffffffffffffffffffffffffffffffff
% ffffffffffffffffffffffffffffffff
% ffffffffffffffffffffffffffffffff
% ffffffffffffffffffffffffffffffff
% ffffffffffffffffffffffffffffffff
% ffffffffffffffffffffffffffffffff
% ffffffffffffffffffffffffffffffff
% ffffffffffffffffffffffffffffffff
% ffffffffffffffffffffffffffffffff
% ffffffffffffffffffffffffffffffff
% ffffffffffffffffffffffffffffffff
% ffffffffffffffffffffffffffffffff
% ffffffffffffffffffffffffffffffff
% ffffffffffffffffffffffffffffffff
% ffffffffffffffffffffffffffffffff
% ffffffffffffffffffffffffffffffff
% ffffffffffffffffffffffffffffffff
% ffffffffffffffffffffffffffffffff
% ffffffffffffffffffffffffffffffff
% ffffffffffffffffffffffffffffffff
% ffffffffffffffffffffffffffffffff
% ffffffffffffffffffffffffffffffff
% ffffffffffffffffffffffffffffffff
% ffffffffffffffffffffffffffffffff
% ffffffffffffffffffffffffffffffff
% ffffffffffffffffffffffffffffffff
% ffffffffffffffffffffffffffffffff
% ffffffffffffffffffffffffffffffff
% ffffffffffffffffffffffffffffffff
% ffffffffffffffffffffffffffffffff
% ffffffffffffffffffffffffffffffff
% ffffffffffffffffffffffffffffffff
% ffffffffffffffffffffffffffffffff
% ffffffffffffffffffffffffffffffff
% ffffffffffffffffffffffffffffffff
% ffffffffffffffffffffffffffffffff
% ffffffffffffffffffffffffffffffff
% ffffffffffffffffffffffffffffffff
% ffffffffffffffffffffffffffffffff
% ffffffffffffffffffffffffffffffff
% ffffffffffffffffffffffffffffffff
% ffffffffffffffffffffffffffffffff
% ffffffffffffffffffffffffffffffff
%%EndPreview
/tecplotdict 120 dict def
tecplotdict begin
/ed  {exch def} def
/ftl {findfont exch scalefont setfont} def
/ftr {/ISOLatin1-Times-Roman ftl} def
/ftb {/ISOLatin1-Times-Bold ftl} def
/fti {/ISOLatin1-Times-Italic ftl} def
/ftib {/ISOLatin1-Times-BoldItalic ftl} def
/fcr {/ISOLatin1-Courier ftl} def
/fcb {/ISOLatin1-Courier-Bold ftl} def
/fhn {/ISOLatin1-Helvetica ftl} def
/fhb {/ISOLatin1-Helvetica-Bold ftl} def
/fsy {/Symbol ftl} def
/gs /gsave load def
/gr /grestore load def
/np /newpath load def
/cp /closepath load def
/g /setgray load def
/lc {setlinecap} def
/lj /setlinejoin load def
/x /setrgbcolor load def
/sd /setdash load def
/sw {setlinewidth} def
/cpt /currentpoint load def
/m {moveto} def
/rm /rmoveto load def
/l /lineto load def
/r /rlineto load def
/sf /setflat load def
/s /stroke load def
/q {cpt s m} def
/ro /rotate load def
/sh /show load def
/clp {cp gr gs np m l l l cp clip np cp} def
/dorect
{
/height ed
/width  ed
m
0 height r
width 0 r
0 height neg r
cp
} def
/er {cp np dorect g fill 0 g cp} def
/erc {cp np dorect x fill 0 g cp} def
/br {cp np dorect g cp s} def
/brc {cp np dorect x cp s} def
/ii 0 def
/n 0 def
/CurA 0 def
/Ry 0 def
/Rx 0 def
/CA 0 def
/SA 0 def
/SJ 0 def
/SI 0 def
/bi 0 def
/i 0 def
/ib 0 def
/ig 0 def
/ir 0 def
/ishade 0 def
/bshade 0 def
/dcs
{
m
dup dup dup
-2 div dup
rm
0 r
0 exch r
neg 0 r
cp
} bind def
/pg
{
/size ed
/Ny ed
/Nx ed
/Y2 ed
/X2 ed
/Y1 ed
/X1 ed
Ny 1 gt
{/Dy Y2 Y1 sub Ny 1 sub div def}
{/Dy 0.0 def}
ifelse
Nx 1 gt
{/Dx X2 X1 sub Nx 1 sub div def}
{/Dx 0.0 def}
ifelse
Y1 Dy Y2 Dy 2 div add
{
X1 Dx X2 Dx 2 div add
{
1 index
size 3 1 roll
dcs fill
Dx 0.0 eq
{exit}
if
} for
pop
Dy 0.0 eq
{exit}
if
} for
} bind def
/z
{
/ii ed
rea ii get
gra ii get
bla ii get
} def
/lrgb
{
/ii ed
/blue ed
/green ed
/red ed
bla ii blue put
gra ii green put
rea ii red put
} def
/trace
{
cp np
m
1 1 n 
{
pop
r
} for
cp
} def
/f
{
/ishade ed
/n ed 
s
trace
ishade g fill
} def
/b
{
/bshade ed
/n ed 
m
1 1 n 
{
pop
r
} for
bshade g s
} def
/fb
{
/bshade ed
/ishade ed
/n ed 
s 
n 2 mul 2 add copy
trace
ishade g fill
trace
bshade g s
} def
/c
{
/n ed 
s 
trace
s
} def
/fc
{
/i ed
/n ed 
s 
trace
i z x fill
} def
/fd
{
/ib ed
/ig ed
/ir ed
/n ed 
s 
trace
ir ig ib x fill
} def
/bc
{
/i ed
/n ed 
m
1 1 n 
{
pop
r
} for
i z x s
} def
/fbc
{
/ii ed
/bi ed
/n ed 
s 
n 2 mul 2 add copy
trace
ii z x fill
trace
bi z x s
} def
/fbd
{
/ib ed
/ig ed
/ir ed
/bi ed
/n ed 
s
n 2 mul 2 add copy
trace
ir ig ib x fill
trace
bi z x s
} def
/e
{
/Ry ed
/Rx ed
/CA ed
/SA ed
/SJ ed
/SI ed
/DelX SA cos Rx mul def
/DelY SA sin Ry mul def
/XI SI DelX add def
/YI SJ DelY add def
/OCX DelX def
/OCY DelY def
/N 0 def
SA CA add
CA
SA 360 add
{
/CurA ed
/CX CurA cos Rx mul def
/CY CurA sin Ry mul def
OCX CX sub 
OCY CY sub 
/OCX CX def
/OCY CY def
/N N 1 add def
}
for
XI YI N
} def
%%EndProlog
%%Page:? 1
/getisofont
{
findfont
dup length dict begin
{
1 index /FID ne {def}{pop pop} ifelse
} forall
/Encoding ISOLatin1Encoding def
currentdict
end
} def
/Helvetica             getisofont /ISOLatin1-Helvetica             exch definefont pop
/Helvetica-Bold        getisofont /ISOLatin1-Helvetica-Bold        exch definefont pop
/Helvetica-Oblique     getisofont /ISOLatin1-Helvetica-Oblique     exch definefont pop
/Helvetica-BoldOblique getisofont /ISOLatin1-Helvetica-BoldOblique exch definefont pop
/Times-Roman           getisofont /ISOLatin1-Times-Roman           exch definefont pop
/Times-Bold            getisofont /ISOLatin1-Times-Bold            exch definefont pop
/Times-BoldItalic      getisofont /ISOLatin1-Times-BoldItalic      exch definefont pop
/Times-Italic          getisofont /ISOLatin1-Times-Italic          exch definefont pop
/Courier               getisofont /ISOLatin1-Courier               exch definefont pop
/Courier-Bold          getisofont /ISOLatin1-Courier-Bold          exch definefont pop
/Courier-Oblique       getisofont /ISOLatin1-Courier-Oblique       exch definefont pop
/Courier-BoldOblique   getisofont /ISOLatin1-Courier-BoldOblique   exch definefont pop
5 setmiterlimit
0.025 0.025 scale np
gs
2834 674 2834 23806 28846 23806 28846 674 clp
1 2880 720 25920 23040 er
2879 719 2879 23761 28801 23761 28801 719 clp
6249 3253 6249 20996 25691 20996 25691 3253 clp
0 g
23 sw
0 lc
0 lj
[1 114] 0 sd
6250 3254 m
6250 20995 l
s
8146 3254 m
8146 20995 l
s
10043 3254 m
10043 20995 l
s
11939 3254 m
11939 20995 l
s
13836 3254 m
13836 20995 l
s
15733 3254 m
15733 20995 l
s
17629 3254 m
17629 20995 l
s
19526 3254 m
19526 20995 l
s
21422 3254 m
21422 20995 l
s
23319 3254 m
23319 20995 l
s
25215 3254 m
25215 20995 l
s
2879 719 2879 23761 28801 23761 28801 719 clp
6249 3253 6249 20996 25691 20996 25691 3253 clp
0 g
23 sw
0 lc
0 lj
[1 114] 0 sd
6250 4585 m
25690 4585 l
s
6250 6359 m
25690 6359 l
s
6250 8133 m
25690 8133 l
s
6250 9907 m
25690 9907 l
s
6250 11681 m
25690 11681 l
s
6250 13455 m
25690 13455 l
s
6250 15229 m
25690 15229 l
s
6250 17004 m
25690 17004 l
s
6250 18778 m
25690 18778 l
s
6250 20552 m
25690 20552 l
s
130.618 409.171 209.635 2.423 209.636 2.734 209.635 2.748 209.635 2.748 209.635 2.748 209.636 2.991 209.635 2.937 209.635 2.897 209.636 3.140
209.635 3.181 209.635 3.533 209.635 3.140 209.636 3.479 209.635 3.533 209.635 3.289 209.635 3.506 209.636 3.790 209.635 3.533 209.635 3.560
209.635 3.912 209.636 3.925 209.635 3.925 209.635 3.912 209.635 4.142 209.636 4.155 209.635 4.020 209.635 4.318 209.636 4.318 209.635 4.318
209.635 4.656 209.635 4.710 209.636 4.467 209.635 4.710 209.635 4.954 209.635 4.791 209.636 5.103 209.635 5.089 209.635 5.482 209.635 5.170
209.636 5.373 209.635 5.712 209.635 5.888 209.635 5.874 209.636 5.969 209.635 6.294 209.635 6.659 209.635 6.673 209.635 6.659 209.635 6.930
209.635 7.282 209.635 7.607 209.635 7.945 209.635 8.297 209.635 8.622 209.635 9.028 209.635 9.705 209.635 10.111 209.635 10.666 209.635 11.559
209.635 12.439 209.635 13.210 209.635 14.266 209.635 15.687 209.635 17.961 209.635 19.991 209.635 22.874 209.635 27.517 209.635 34.515 209.635 46.805
209.635 70.789 209.635 116.348 209.635 215.317 209.635 359.507 209.635 493.424 209.635 598.267 209.635 672.724 209.635 723.522 209.635 758.578 209.635 783.631
209.635 802.039 209.635 817.699 209.635 828.297 209.635 836.527 209.635 843.186 209.635 848.939 209.635 853.852 209.635 857.777 209.635 861.120 209.635 863.990
209.635 866.236 209.635 867.631 6314.200 5118.526 92 92 sw
[461] 0 sd
0 b
9.485 -0.000 18.964 0.443 37.933 0.443 56.896 0.443 75.865 0.887 104.311 1.330 142.244 1.776 189.659 2.216 218.107 3.103 265.522 3.550
303.453 4.436 350.869 5.323 379.317 5.766 417.249 6.653 445.697 7.539 474.147 7.982 483.629 8.426 493.111 8.872 493.113 9.759 493.111 9.755
493.113 10.202 474.146 10.642 464.664 10.202 455.180 10.645 426.732 10.645 417.249 10.642 388.800 10.202 369.833 10.645 350.869 10.199 331.902 10.202
312.937 9.759 303.454 10.199 275.005 9.759 265.522 9.312 246.556 9.759 227.590 9.312 218.107 9.316 208.625 9.759 199.141 9.312 189.659 8.872
170.693 9.755 170.693 9.316 161.209 9.312 151.727 9.316 151.727 9.755 142.244 9.759 132.761 10.199 132.761 10.202 123.278 10.645 123.278 11.089
113.795 11.085 113.795 11.975 104.313 11.975 104.312 13.305 104.312 13.308 94.829 15.078 94.830 15.525 94.829 17.738 94.829 19.518 85.346 21.731
75.863 25.280 85.346 29.716 75.864 35.039 75.863 42.578 75.863 52.334 75.864 64.756 75.863 80.277 75.864 100.678 75.863 125.515 85.346 156.121
85.346 192.930 85.346 236.398 104.312 286.955 113.795 344.172 113.795 406.708 132.761 474.123 151.727 545.084 161.210 616.496 170.693 686.567 189.659 753.096
199.141 812.972 208.624 863.533 218.107 901.678 218.107 926.069 227.590 933.168 218.107 920.303 208.624 886.597 199.142 831.600 180.176 755.759 161.210 662.617
132.761 555.730 104.312 443.520 85.346 332.197 47.415 231.519 37.932 148.579 18.966 89.593 18.966 59.429 6249.600 4466.541 97 23 sw
[] 0 sd
0 b
2879 719 2879 23761 28801 23761 28801 719 clp
0 g
92 sw
0 lc
0 lj
[] 0 sd
6250 3254 m
6250 3715 l
s
23 sw
8146 3254 m
8146 3531 l
s
10043 3254 m
10043 3531 l
s
11939 3254 m
11939 3531 l
s
13836 3254 m
13836 3531 l
s
92 sw
15733 3254 m
15733 3715 l
s
23 sw
17629 3254 m
17629 3531 l
s
19526 3254 m
19526 3531 l
s
21422 3254 m
21422 3531 l
s
23319 3254 m
23319 3531 l
s
92 sw
25215 3254 m
25215 3715 l
s
2 lc
6250 3254 m
25690 3254 l
s
-2071 -0 0 627 2071 -0 14934 1706 3 5 sw
1 1 fb
921.6 fhb
0 g
14934 1706 m
(x) sh
15665 1706 m
([) sh
15929 1706 m
(m) sh
16741 1706 m
(]) sh
23 sw
0 lc
6250 4585 m
6526 4585 l
s
6250 6359 m
6526 6359 l
s
6250 8133 m
6526 8133 l
s
92 sw
6250 9907 m
6710 9907 l
s
23 sw
6250 11681 m
6526 11681 l
s
6250 13455 m
6526 13455 l
s
6250 15229 m
6526 15229 l
s
6250 17004 m
6526 17004 l
s
92 sw
6250 18778 m
6710 18778 l
s
23 sw
6250 20552 m
6526 20552 l
s
92 sw
2 lc
6250 3254 m
6250 20995 l
s
0 -2436 -627 -0 0 2436 4694 10907 3 5 sw
1 1 fb
921.6 fhb
0 g
4694 10907 m
gs 90.0 ro
(T) sh
gr
4694 11739 m
gs 90.0 ro
([) sh
gr
4694 12003 m
gs 90.0 ro
(\260) sh
gr
4694 12389 m
gs 90.0 ro
(C) sh
gr
4694 13079 m
gs 90.0 ro
(]) sh
gr
-389 -0 0 470 389 -0 6055 2554 3 1 1 fb
691.2 fhn
0 g
6055 2554 m
(0) sh
-389 -0 0 470 389 -0 15538 2554 3 1 1 fb
691.2 fhn
0 g
15538 2554 m
(1) sh
-389 -0 0 470 389 -0 25021 2554 3 1 1 fb
691.2 fhn
0 g
25021 2554 m
(2) sh
-778 -0 0 470 778 -0 5213 9672 3 1 1 fb
691.2 fhn
0 g
5213 9672 m
(8) sh
5602 9672 m
(0) sh
-1166 -0 0 470 1166 -0 4824 18543 3 1 1 fb
691.2 fhn
0 g
4824 18543 m
(1) sh
5213 18543 m
(0) sh
5602 18543 m
(0) sh
0 4547 8471 -0 0 -4547 15788 16993 3 23 sw
1 0 fb
15742 12400 15742 17039 24305 17039 24305 12400 clp
2879 719 2879 23761 28801 23761 28801 719 clp
829.44 fhb
0 g
20848 14794 m
(T) sh
21597 14794 m
(n) sh
22091 14794 m
(u) sh
22584 14794 m
(m) sh
23315 14794 m
(.) sh
829.44 fhb
20848 13301 m
(T) sh
21597 13301 m
(a) sh
22073 13301 m
(n) sh
22566 13301 m
(a) sh
23041 13301 m
(l) sh
23242 13301 m
(.) sh
92 sw
0 lc
0 lj
[461] 0 sd
16494 15043 m
20226 15043 l
s
23 sw
[] 0 sd
16494 13550 m
20226 13550 l
s
gr end
showpage
