%!PS-Adobe-2.0 EPSF-2.0
%%Creator: TECPLOT
%%Pages:1
%%BoundingBox: 71 17 721 595
%%DocumentFonts: Helvetica Helvetica-Bold Symbol Times-Roman Times-Bold Times-Italic Times-BoldItalic Courier Courier-Bold
%%EndComments
%%BeginPreview: 128 128 1 128
% f8fc7e3f1f8fc7e3f1f0f87c3e1f0f87
% 00000000000000000000000000000001
% 00000000000000000000000000000001
% 81020408102040810102040810204081
% 83870e1c3870e0c383070e1c3870e1c3
% 81020408102040810102040810204081
% 80000000000000000000000000000000
% 80000000000000000000000000000001
% 80000000000000000000000000000001
% 00000000000000000000000000000001
% 00000000000000000000000000000001
% 81020408102040810102040810204081
% 83870e1c3870e0c383070e1c3870e1c3
% 81020408102040810102040810204081
% 80000000000000000000000000000000
% 80000000000000000000000000000000
% 80000000000008600600000000000000
% 8000000001dfffeff600000000000001
% 800000fff1ddefeff600000000000001
% 8102040811fdefeff702040810204081
% 83870e1c3870e0c383070e1c3870e1c3
% 81020408102040810102040810204081
% 00000000000210400800000000000001
% 0000000001ff7fdfdc00000000000000
% 8000000001ffffdfdc00000000000000
% 8000007739dfffdffc00000000000000
% 8000000001deffd7fc00000000000000
% 810204081021c0810102040810204081
% 83870e1c3870e0c383070e1c3870e1c3
% 81020408102040810102040810204081
% 00000000000000000000000000000001
% 00004800000000000000000000000001
% 008cdc00000000000000000000000001
% 0efc55fffffffffffffffffffffffc00
% 84fc7dfffffffffffffffffffffffc00
% 8ffe7dfffffffffffffffffffffffc81
% 8fff0ffffffffffffffffffffffffdc3
% 818205fffffffffffffffffffffffc81
% 800001fffffffffffffffffffffffc01
% 800001fffffffffffffffffffffffc01
% 000001fffffffffffffffffffffffc01
% 000001fffffffffffffffffffffffc01
% 000001fffffffffffffffffffffffc01
% 810205fffffffffffffffffffffffc81
% 83870ffffffffffffffffffffffffdc3
% 810205fffffffffffffffffffffffc81
% 800001fffffffffffffffffffffffc00
% 800001fffffffffffffffffffffffc00
% 800001fffffffffffffffffffffffc01
% 800001fffffffffffffffffffffffc01
% 000001fffffffffffffffffffffffc01
% 810205fffffffffffffffffffffffc81
% 83870ffffffffffffffffffffffffdc3
% 810205fffffffffffffffffffffffc81
% 800001fffffffffffffffffffffffc00
% 800001fffffffffffffffffffffffc00
% 800001fffffffffffffffffffffffc00
% 800001fffffffffffffffffffffffc00
% 800001fffffffffffffffffffffffc01
% 810205fffffffffffffffffffffffc81
% 8387dffffffffffffffffffffffffdc3
% 8103ddfffffffffffffffffffffffc81
% 0001fdfffffffffffffffffffffffc01
% 0000fdfffffffffffffffffffffffc00
% 800001fffffffffffffffffffffffc00
% 800001fffffffffffffffffffffffc00
% 800001fffffffffffffffffffffffc00
% 810205fffffffffffffffffffffffc81
% 83870ffffffffffffffffffffffffdc3
% 810205fffffffffffffffffffffffc81
% 000001fffffffffffffffffffffffc01
% 000001fffffffffffffffffffffffc01
% 000001fffffffffffffffffffffffc01
% 000001fffffffffffffffffff9fffc01
% 800001fffffffffffffffffffffffc00
% 810205fffffffffffffffffffffffc81
% 83870ffffffffffffffffffffffffdc3
% 810205fffffffffffffffffffffffc81
% 800001fffffffffffffffffffffffc01
% 800001fffffffffffffffffffffffc01
% 000001fffffffffffffffffffffffc01
% 000001fffffffffffffffffffffffc01
% 000001fffffffffffffffffffffffc01
% 810205fffffffffffffffffffffffc81
% 83870ffffffffffffffffffffffffdc3
% 810205fffffffffffffffffffffffc81
% 800001fffffffffffffffffffffffc00
% 800001fffffffffffffffffffffffc00
% 8000ddfffffffffffffffffffffffc01
% 8001d5fffffffffffffffffffffffc01
% 8103fc08102040810102040810204081
% 8387fe1c3870e0c383070e1c3870e1c3
% 810206e8102dc0810d82041b90207b81
% 00000ea0000dc0000d80001b80003f01
% 80000fe0000fc0000f80000f80003700
% 800007e0000fc0000f80000f80003f00
% 80000000000000000000000000000000
% 80000000000000000000000000000000
% 80000000000000000000000000000001
% 8102040810204081010204081021cc81
% 83870e1c3870e0c383070e1c387df5c3
% 810204081020408101020408102df481
% 000000000000000000000000000df401
% 000000000000000000000000000dfc01
% 80000000000000000000000000018000
% 80000000000000000000000000000000
% 80000000000000000000000000000000
% 81020408102040810102040810204081
% 83870e1c3870e0c383070e1c3870e1c3
% 81020408102040810102040810204081
% 00000000000000000000000000000001
% 00000000000000000000000000000001
% 00000000000000000000000000000001
% 00000000000000000000000000000001
% 81020408102040810102040810204081
% 83870e1c3870e0c383070e1c3870e1c3
% 81020408102040810102040810204081
% 80000000000000000000000000000000
% 80000000000000000000000000000001
% 80000000000000000000000000000001
% 00000000000000000000000000000001
% 00000000000000000000000000000001
% 81020408102040810102040810204081
% 83870e1c3870e0c383070e1c3870e1c3
% 81020408102040810102040810204081
% 80000000000000000000000000000000
% 80000000000000000000000000000000
% 80000000000000000000000000000000
%%EndPreview
/tecplotdict 120 dict def
tecplotdict begin
/ed  {exch def} def
/ftl {findfont exch scalefont setfont} def
/ftr {/Times-Roman ftl} def
/ftb {/Times-Bold ftl} def
/fti {/Times-Italic ftl} def
/ftib {/Times-BoldItalic ftl} def
/fcr {/Courier ftl} def
/fcb {/Courier-Bold ftl} def
/fhn {/Helvetica ftl} def
/fhb {/Helvetica-Bold ftl} def
/fsy {/Symbol ftl} def
/gs /gsave load def
/gr /grestore load def
/np /newpath load def
/cp /closepath load def
/sg /setgray load def
/lc {stroke setlinecap} def
/lj /setlinejoin load def
/x /setrgbcolor load def
/y {x moveto} def
/g /get load def
/sd /setdash load def
/s {stroke setlinewidth} def
/cpt /currentpoint load def
/m {stroke moveto} def
/rm /rmoveto load def
/l /lineto load def
/r /rlineto load def
/sf /setflat load def
/st /stroke load def
/ct  {cpt st} def
/stg {st sg} def
/scg {cpt m sg} def
/ro /rotate load def
/sh /show load def
/clp {st cp gr gs np moveto l l l cp clip np cp} def
/dorect
{
/height ed
/width  ed
moveto
0 height r
width 0 r
0 height neg r
cp
} def
/er {st cp np dorect sg fill 0 sg cp} def
/erc {st cp np dorect x fill 0 sg cp} def
/br {st cp np dorect sg cp st} def
/brc {st cp np dorect x cp st} def
/ii 0 def
/n 0 def
/CurA 0 def
/Ry 0 def
/Rx 0 def
/CA 0 def
/SA 0 def
/SJ 0 def
/SI 0 def
/bi 0 def
/i 0 def
/ib 0 def
/ig 0 def
/ir 0 def
/ishade 0 def
/bshade 0 def

/z
{
/ii ed
rea ii get
gra ii get
bla ii get
} def

/lrgb
{
/ii ed
/blue ed
/green ed
/red ed
bla ii blue put
gra ii green put
rea ii red put
} def

/trace
{
cp np
m
1 1 n 
{
pop
r
} for
cp
} def

/f
{
/ishade ed
/n ed 
st
trace
ishade sg fill
} def

/b
{
/bshade ed
/n ed 
m
1 1 n 
{
pop
r
} for
bshade sg stroke
} def

/fb
{
/bshade ed
/ishade ed
/n ed 
st 
n 2 mul 2 add copy
trace
ishade sg fill
trace
bshade sg stroke
} def

/c
{
/n ed 
st 
trace
stroke
} def

/fc
{
/i ed
/n ed 
st 
trace
i z x fill
} def

/fd
{
/ib ed
/ig ed
/ir ed
/n ed 
st 
trace
ir ig ib x fill
} def

/bc
{
/i ed
/n ed 
m
1 1 n 
{
pop
r
} for
i z x stroke
} def

/fbc
{
/ii ed
/bi ed
/n ed 
st 
n 2 mul 2 add copy
trace
ii z x fill
trace
bi z x stroke
} def
/fbd
{
/ib ed
/ig ed
/ir ed
/bi ed
/n ed 
st 
n 2 mul 2 add copy
trace
ir ig ib x fill
trace
bi z x stroke
} def
/e
{
/Ry ed
/Rx ed
/CA ed
/SA ed
/SJ ed
/SI ed

/DelX SA cos Rx mul def
/DelY SA sin Ry mul def
/XI SI DelX add def
/YI SJ DelY add def
/OCX DelX def
/OCY DelY def
/N 0 def
SA CA add
CA
SA 360 add
{
/CurA ed
/CX CurA cos Rx mul def
/CY CurA sin Ry mul def
OCX CX sub 
OCY CY sub 
/OCX CX def
/OCY CY def
/N N 1 add def
}
for
XI YI N
} def
%%EndProlog
%%Page:? 1
/rea 254 array def
/gra 254 array def
/bla 254 array def
0 0 1 0 lrgb
0 0.0196 1 1 lrgb
0 0.0431 1 2 lrgb
0 0.0667 1 3 lrgb
0 0.0902 1 4 lrgb
0 0.11 1 5 lrgb
0 0.133 1 6 lrgb
0 0.157 1 7 lrgb
0 0.18 1 8 lrgb
0 0.204 1 9 lrgb
0 0.224 1 10 lrgb
0 0.247 1 11 lrgb
0 0.271 1 12 lrgb
0 0.294 1 13 lrgb
0 0.318 1 14 lrgb
0 0.337 1 15 lrgb
0 0.361 1 16 lrgb
0 0.384 1 17 lrgb
0 0.408 1 18 lrgb
0 0.431 1 19 lrgb
0 0.451 1 20 lrgb
0 0.475 1 21 lrgb
0 0.498 1 22 lrgb
0 0.522 1 23 lrgb
0 0.545 1 24 lrgb
0 0.565 1 25 lrgb
0 0.588 1 26 lrgb
0 0.612 1 27 lrgb
0 0.635 1 28 lrgb
0 0.659 1 29 lrgb
0 0.678 1 30 lrgb
0 0.702 1 31 lrgb
0 0.725 1 32 lrgb
0 0.749 1 33 lrgb
0 0.773 1 34 lrgb
0 0.792 1 35 lrgb
0 0.816 1 36 lrgb
0 0.839 1 37 lrgb
0 0.863 1 38 lrgb
0 0.886 1 39 lrgb
0 0.906 1 40 lrgb
0 0.929 1 41 lrgb
0 0.953 1 42 lrgb
0 0.976 1 43 lrgb
0 1 1 44 lrgb
0 1 0.976 45 lrgb
0 1 0.953 46 lrgb
0 1 0.929 47 lrgb
0 1 0.906 48 lrgb
0 1 0.886 49 lrgb
0 1 0.863 50 lrgb
0 1 0.839 51 lrgb
0 1 0.816 52 lrgb
0 1 0.792 53 lrgb
0 1 0.773 54 lrgb
0 1 0.749 55 lrgb
0 1 0.725 56 lrgb
0 1 0.702 57 lrgb
0 1 0.678 58 lrgb
0 1 0.659 59 lrgb
0 1 0.635 60 lrgb
0 1 0.612 61 lrgb
0 1 0.588 62 lrgb
0 1 0.565 63 lrgb
0 1 0.545 64 lrgb
0 1 0.522 65 lrgb
0 1 0.498 66 lrgb
0 1 0.475 67 lrgb
0 1 0.451 68 lrgb
0 1 0.431 69 lrgb
0 1 0.408 70 lrgb
0 1 0.384 71 lrgb
0 1 0.361 72 lrgb
0 1 0.337 73 lrgb
0 1 0.318 74 lrgb
0 1 0.294 75 lrgb
0 1 0.271 76 lrgb
0 1 0.247 77 lrgb
0 1 0.224 78 lrgb
0 1 0.204 79 lrgb
0 1 0.18 80 lrgb
0 1 0.157 81 lrgb
0 1 0.133 82 lrgb
0 1 0.11 83 lrgb
0 1 0.0902 84 lrgb
0 1 0.0667 85 lrgb
0 1 0.0431 86 lrgb
0 1 0.0196 87 lrgb
0 1 0 88 lrgb
0.0196 1 0 89 lrgb
0.0431 1 0 90 lrgb
0.0667 1 0 91 lrgb
0.0863 1 0 92 lrgb
0.11 1 0 93 lrgb
0.133 1 0 94 lrgb
0.153 1 0 95 lrgb
0.176 1 0 96 lrgb
0.2 1 0 97 lrgb
0.22 1 0 98 lrgb
0.243 1 0 99 lrgb
0.267 1 0 100 lrgb
0.286 1 0 101 lrgb
0.31 1 0 102 lrgb
0.333 1 0 103 lrgb
0.353 1 0 104 lrgb
0.376 1 0 105 lrgb
0.396 1 0 106 lrgb
0.42 1 0 107 lrgb
0.443 1 0 108 lrgb
0.463 1 0 109 lrgb
0.486 1 0 110 lrgb
0.51 1 0 111 lrgb
0.529 1 0 112 lrgb
0.553 1 0 113 lrgb
0.576 1 0 114 lrgb
0.6 1 0 115 lrgb
0.62 1 0 116 lrgb
0.643 1 0 117 lrgb
0.667 1 0 118 lrgb
0.686 1 0 119 lrgb
0.71 1 0 120 lrgb
0.733 1 0 121 lrgb
0.753 1 0 122 lrgb
0.776 1 0 123 lrgb
0.8 1 0 124 lrgb
0.82 1 0 125 lrgb
0.843 1 0 126 lrgb
0.867 1 0 127 lrgb
0.886 1 0 128 lrgb
0.91 1 0 129 lrgb
0.933 1 0 130 lrgb
0.953 1 0 131 lrgb
0.976 1 0 132 lrgb
1 1 0 133 lrgb
1 0.976 0 134 lrgb
1 0.953 0 135 lrgb
1 0.929 0 136 lrgb
1 0.906 0 137 lrgb
1 0.886 0 138 lrgb
1 0.863 0 139 lrgb
1 0.839 0 140 lrgb
1 0.816 0 141 lrgb
1 0.792 0 142 lrgb
1 0.773 0 143 lrgb
1 0.749 0 144 lrgb
1 0.725 0 145 lrgb
1 0.702 0 146 lrgb
1 0.678 0 147 lrgb
1 0.659 0 148 lrgb
1 0.635 0 149 lrgb
1 0.612 0 150 lrgb
1 0.588 0 151 lrgb
1 0.565 0 152 lrgb
1 0.545 0 153 lrgb
1 0.522 0 154 lrgb
1 0.498 0 155 lrgb
1 0.475 0 156 lrgb
1 0.451 0 157 lrgb
1 0.431 0 158 lrgb
1 0.408 0 159 lrgb
1 0.384 0 160 lrgb
1 0.361 0 161 lrgb
1 0.337 0 162 lrgb
1 0.318 0 163 lrgb
1 0.294 0 164 lrgb
1 0.271 0 165 lrgb
1 0.247 0 166 lrgb
1 0.224 0 167 lrgb
1 0.204 0 168 lrgb
1 0.18 0 169 lrgb
1 0.157 0 170 lrgb
1 0.133 0 171 lrgb
1 0.11 0 172 lrgb
1 0.0902 0 173 lrgb
1 0.0667 0 174 lrgb
1 0.0431 0 175 lrgb
1 0.0196 0 176 lrgb
1 0 0 177 lrgb
0 0 0 178 lrgb
0.0157 0.0157 0.0157 179 lrgb
0.0353 0.0353 0.0353 180 lrgb
0.051 0.051 0.051 181 lrgb
0.0706 0.0706 0.0706 182 lrgb
0.0863 0.0863 0.0863 183 lrgb
0.106 0.106 0.106 184 lrgb
0.122 0.122 0.122 185 lrgb
0.141 0.141 0.141 186 lrgb
0.157 0.157 0.157 187 lrgb
0.176 0.176 0.176 188 lrgb
0.196 0.196 0.196 189 lrgb
0.212 0.212 0.212 190 lrgb
0.231 0.231 0.231 191 lrgb
0.247 0.247 0.247 192 lrgb
0.267 0.267 0.267 193 lrgb
0.282 0.282 0.282 194 lrgb
0.302 0.302 0.302 195 lrgb
0.318 0.318 0.318 196 lrgb
0.337 0.337 0.337 197 lrgb
0.357 0.357 0.357 198 lrgb
0.373 0.373 0.373 199 lrgb
0.392 0.392 0.392 200 lrgb
0.408 0.408 0.408 201 lrgb
0.427 0.427 0.427 202 lrgb
0.443 0.443 0.443 203 lrgb
0.463 0.463 0.463 204 lrgb
0.478 0.478 0.478 205 lrgb
0.498 0.498 0.498 206 lrgb
0.518 0.518 0.518 207 lrgb
0.533 0.533 0.533 208 lrgb
0.553 0.553 0.553 209 lrgb
0.569 0.569 0.569 210 lrgb
0.588 0.588 0.588 211 lrgb
0.604 0.604 0.604 212 lrgb
0.624 0.624 0.624 213 lrgb
0.639 0.639 0.639 214 lrgb
0.659 0.659 0.659 215 lrgb
0.678 0.678 0.678 216 lrgb
0.694 0.694 0.694 217 lrgb
0.714 0.714 0.714 218 lrgb
0.729 0.729 0.729 219 lrgb
0.749 0.749 0.749 220 lrgb
0.765 0.765 0.765 221 lrgb
0.784 0.784 0.784 222 lrgb
0.8 0.8 0.8 223 lrgb
0.82 0.82 0.82 224 lrgb
0.839 0.839 0.839 225 lrgb
0.855 0.855 0.855 226 lrgb
0.875 0.875 0.875 227 lrgb
0.89 0.89 0.89 228 lrgb
0.91 0.91 0.91 229 lrgb
0.925 0.925 0.925 230 lrgb
0.945 0.945 0.945 231 lrgb
0.961 0.961 0.961 232 lrgb
0.98 0.98 0.98 233 lrgb
0.996 0.996 0.996 234 lrgb
0 0 0 235 lrgb
0.824 0 0 236 lrgb
0 0.824 0 237 lrgb
0.176 0.176 1 238 lrgb
0 1 1 239 lrgb
1 1 0.176 240 lrgb
1 0 1 241 lrgb
1 1 1 242 lrgb
0.333 0.333 0.333 243 lrgb
0.831 0.831 0.831 244 lrgb
1 0.498 0 245 lrgb
0.498 1 0 246 lrgb
0 1 0.498 247 lrgb
0 0.498 1 248 lrgb
0.498 0 1 249 lrgb
1 0 0.498 250 lrgb
0.549 0.549 0.549 251 lrgb
0.784 0.784 0.784 252 lrgb
0.706 0.0588 0.0588 253 lrgb
5 setmiterlimit
0.025 0.025 scale np
gs
0 s
2 lc
0 lj
st [] 0 sd
st
242 z x 2879 719 2879 23761 28801 23761 28801 719 clp
92.16 s
2 lc
0 lj
st [] 0 sd
235 z 7659 7620 18985 10101 brc
st
235 z x 0 lc
st
235 z x 7659 7618 m
7659 8079 l
23.04 s
st
235 z x 8609 7618 m
8609 7895 l
st
235 z x 9558 7618 m
9558 7895 l
st
235 z x 10507 7618 m
10507 7895 l
st
235 z x 11456 7618 m
11456 7895 l
92.16 s
st
235 z x 12406 7618 m
12406 8079 l
23.04 s
st
235 z x 13355 7618 m
13355 7895 l
st
235 z x 14304 7618 m
14304 7895 l
st
235 z x 15253 7618 m
15253 7895 l
st
235 z x 16203 7618 m
16203 7895 l
92.16 s
st
235 z x 17152 7618 m
17152 8079 l
23.04 s
st
235 z x 18101 7618 m
18101 7895 l
st
235 z x 19050 7618 m
19050 7895 l
st
235 z x 20000 7618 m
20000 7895 l
st
235 z x 20949 7618 m
20949 7895 l
92.16 s
st
235 z x 21898 7618 m
21898 8079 l
23.04 s
st
235 z x 22847 7618 m
22847 7895 l
st
235 z x 23797 7618 m
23797 7895 l
st
235 z x 24746 7618 m
24746 7895 l
st
235 z x 25695 7618 m
25695 7895 l
92.16 s
st
235 z x 26644 7618 m
26644 8079 l
11.52 s
2 lc
7064 6609 m
806.4 fhb
235 z x (0) sh
7544 6609 m
(.) sh
7775 6609 m
(0) sh
11811 6609 m
806.4 fhb
235 z x (0) sh
12290 6609 m
(.) sh
12521 6609 m
(5) sh
16557 6609 m
806.4 fhb
235 z x (1) sh
17036 6609 m
(.) sh
17267 6609 m
(0) sh
21303 6609 m
806.4 fhb
235 z x (1) sh
21783 6609 m
(.) sh
22014 6609 m
(5) sh
26049 6609 m
806.4 fhb
235 z x (2) sh
26529 6609 m
(.) sh
26760 6609 m
(0) sh
92.16 s
st
235 z x 7659 7618 m
26644 7618 l
st
235 z x 0 lc
st
235 z x 7660 7620 m
8120 7620 l
23.04 s
st
235 z x 7660 8630 m
7936 8630 l
st
235 z x 7660 9640 m
7936 9640 l
st
235 z x 7660 10650 m
7936 10650 l
st
235 z x 7660 11660 m
7936 11660 l
92.16 s
st
235 z x 7660 12671 m
8120 12671 l
23.04 s
st
235 z x 7660 13681 m
7936 13681 l
st
235 z x 7660 14691 m
7936 14691 l
st
235 z x 7660 15701 m
7936 15701 l
st
235 z x 7660 16711 m
7936 16711 l
92.16 s
st
235 z x 7660 17721 m
8120 17721 l
11.52 s
2 lc
6081 7346 m
806.4 fhb
235 z x (0) sh
6560 7346 m
(.) sh
6791 7346 m
(0) sh
6081 12396 m
806.4 fhb
235 z x (0) sh
6560 12396 m
(.) sh
6791 12396 m
(5) sh
6081 17447 m
806.4 fhb
235 z x (1) sh
6560 17447 m
(.) sh
6791 17447 m
(0) sh
92.16 s
st
235 z x 7660 7620 m
7660 17721 l
7658 7619 7658 17722 26645 17722 26645 7619 clp
-475 -0 0 505 475 -0 7659 7620 3 22 fc
-475 -0 0 505 475 -0 8134 7620 3 22 fc
-475 -0 0 505 475 -0 8134 8125 3 22 fc
-475 -0 0 505 475 -0 7659 8125 3 22 fc
-475 -0 0 505 475 -0 8609 7620 3 22 fc
-475 -0 0 505 475 -0 9083 7620 3 22 fc
-475 -0 0 505 475 -0 9083 8125 3 22 fc
-475 -0 0 505 475 -0 8609 8125 3 22 fc
-475 -0 0 505 475 -0 9558 7620 3 22 fc
-475 -0 0 505 475 -0 10033 7620 3 22 fc
-475 -0 0 505 475 -0 10033 8125 3 22 fc
-475 -0 0 505 475 -0 9558 8125 3 22 fc
-475 -0 0 505 475 -0 10507 7620 3 22 fc
-475 -0 0 505 475 -0 10982 7620 3 22 fc
-475 -0 0 505 475 -0 10982 8125 3 22 fc
-475 -0 0 505 475 -0 10507 8125 3 22 fc
-475 -0 0 505 475 -0 11456 7620 3 22 fc
-475 -0 0 505 475 -0 11931 7620 3 22 fc
-475 -0 0 505 475 -0 11931 8125 3 22 fc
-475 -0 0 505 475 -0 11456 8125 3 22 fc
-475 -0 0 505 475 -0 12406 7620 3 22 fc
-475 -0 0 505 475 -0 12880 7620 3 22 fc
-475 -0 0 505 475 -0 12880 8125 3 22 fc
-475 -0 0 505 475 -0 12406 8125 3 22 fc
-475 -0 0 505 475 -0 13355 7620 3 22 fc
-475 -0 0 505 475 -0 13830 7620 3 22 fc
-475 -0 0 505 475 -0 13830 8125 3 22 fc
-475 -0 0 505 475 -0 13355 8125 3 22 fc
-475 -0 0 505 475 -0 14304 7620 3 22 fc
-475 -0 0 505 475 -0 14779 7620 3 22 fc
-475 -0 0 505 475 -0 14779 8125 3 22 fc
-475 -0 0 505 475 -0 14304 8125 3 22 fc
-475 -0 0 505 475 -0 15253 7620 3 22 fc
-475 -0 0 505 475 -0 15728 7620 3 22 fc
-475 -0 0 505 475 -0 15728 8125 3 22 fc
-475 -0 0 505 475 -0 15253 8125 3 22 fc
-475 -0 0 505 475 -0 16203 7620 3 22 fc
-475 -0 0 505 475 -0 16677 7620 3 22 fc
-475 -0 0 505 475 -0 16677 8125 3 22 fc
-475 -0 0 505 475 -0 16203 8125 3 22 fc
429 -0 0 -505 -475 -0 0 341 17627 7784 4 22 fc
0 164 46 -0 17581 7620 2 66 fc
0 -341 -91 -0 17718 8125 2 22 fc
-383 -0 0 505 475 -0 0 -164 17627 7784 4 66 fc
91 -0 0 -505 -376 -0 18003 8630 3 22 fc
-99 -0 0 505 383 -0 17718 8125 3 66 fc
-475 -0 0 505 475 -0 17152 8125 3 22 fc
-475 -0 0 505 475 -0 18101 7620 3 66 fc
320 -0 0 -505 -475 -0 0 6 19050 8119 4 66 fc
0 499 155 -0 18896 7620 2 110 fc
-475 -0 0 505 475 -0 18576 8125 3 66 fc
-475 -0 0 505 475 -0 18101 8125 3 66 fc
0 -6 -2 -0 19052 8125 2 66 fc
-473 -0 0 505 475 -0 0 -499 19050 8119 4 110 fc
-475 -0 0 505 475 -0 19525 7620 3 110 fc
-475 -0 0 505 475 -0 19525 8125 3 110 fc
2 -0 0 -505 -381 -0 19431 8630 3 66 fc
-94 -0 0 505 473 -0 19052 8125 3 110 fc
-475 -0 0 505 475 -0 20000 7620 3 110 fc
209 -0 0 -505 -376 -0 20850 8125 3 110 fc
-98 -0 0 505 266 -0 20683 7620 3 154 fc
376 -0 0 -505 -475 -0 0 384 20949 8246 4 110 fc
0 121 98 -0 20850 8125 2 154 fc
-475 -0 0 505 475 -0 20000 8125 3 110 fc
-475 -0 0 505 475 -0 20949 7620 3 154 fc
-475 -0 0 505 475 -0 21424 7620 3 154 fc
-475 -0 0 505 475 -0 21424 8125 3 154 fc
0 -384 -317 -0 21266 8630 2 110 fc
-157 -0 0 505 475 -0 0 -121 20949 8246 4 154 fc
-475 -0 0 505 475 -0 21898 7620 3 154 fc
-475 -0 0 505 475 -0 22373 7620 3 154 fc
-475 -0 0 505 475 -0 22373 8125 3 154 fc
-475 -0 0 505 475 -0 21898 8125 3 154 fc
-475 -0 0 505 475 -0 22847 7620 3 154 fc
-475 -0 0 505 475 -0 23322 7620 3 154 fc
-475 -0 0 505 475 -0 23322 8125 3 154 fc
-475 -0 0 505 475 -0 22847 8125 3 154 fc
-475 -0 0 505 475 -0 23797 7620 3 154 fc
-475 -0 0 505 475 -0 24271 7620 3 154 fc
-475 -0 0 505 475 -0 24271 8125 3 154 fc
-475 -0 0 505 475 -0 23797 8125 3 154 fc
-475 -0 0 505 475 -0 24746 7620 3 154 fc
-475 -0 0 505 475 -0 25221 7620 3 154 fc
-475 -0 0 505 475 -0 25221 8125 3 154 fc
-475 -0 0 505 475 -0 24746 8125 3 154 fc
-475 -0 0 505 475 -0 25695 7620 3 154 fc
-475 -0 0 505 475 -0 26170 7620 3 154 fc
-475 -0 0 505 475 -0 26170 8125 3 154 fc
-475 -0 0 505 475 -0 25695 8125 3 154 fc
-475 -0 0 505 475 -0 7659 8630 3 22 fc
-475 -0 0 505 475 -0 8134 8630 3 22 fc
-475 -0 0 505 475 -0 8134 9135 3 22 fc
-475 -0 0 505 475 -0 7659 9135 3 22 fc
-475 -0 0 505 475 -0 8609 8630 3 22 fc
-475 -0 0 505 475 -0 9083 8630 3 22 fc
-475 -0 0 505 475 -0 9083 9135 3 22 fc
-475 -0 0 505 475 -0 8609 9135 3 22 fc
-475 -0 0 505 475 -0 9558 8630 3 22 fc
-475 -0 0 505 475 -0 10033 8630 3 22 fc
-475 -0 0 505 475 -0 10033 9135 3 22 fc
-475 -0 0 505 475 -0 9558 9135 3 22 fc
-475 -0 0 505 475 -0 10507 8630 3 22 fc
-475 -0 0 505 475 -0 10982 8630 3 22 fc
-475 -0 0 505 475 -0 10982 9135 3 22 fc
-475 -0 0 505 475 -0 10507 9135 3 22 fc
-475 -0 0 505 475 -0 11456 8630 3 22 fc
-475 -0 0 505 475 -0 11931 8630 3 22 fc
-475 -0 0 505 475 -0 11931 9135 3 22 fc
-475 -0 0 505 475 -0 11456 9135 3 22 fc
-475 -0 0 505 475 -0 12406 8630 3 22 fc
-475 -0 0 505 475 -0 12880 8630 3 22 fc
-475 -0 0 505 475 -0 12880 9135 3 22 fc
-475 -0 0 505 475 -0 12406 9135 3 22 fc
-475 -0 0 505 475 -0 13355 8630 3 22 fc
-475 -0 0 505 475 -0 13830 8630 3 22 fc
-475 -0 0 505 475 -0 13830 9135 3 22 fc
-475 -0 0 505 475 -0 13355 9135 3 22 fc
-475 -0 0 505 475 -0 14304 8630 3 22 fc
-475 -0 0 505 475 -0 14779 8630 3 22 fc
-475 -0 0 505 475 -0 14779 9135 3 22 fc
-475 -0 0 505 475 -0 14304 9135 3 22 fc
-475 -0 0 505 475 -0 15253 8630 3 22 fc
-475 -0 0 505 475 -0 15728 8630 3 22 fc
-475 -0 0 505 475 -0 15728 9135 3 22 fc
-475 -0 0 505 475 -0 15253 9135 3 22 fc
-475 -0 0 505 475 -0 16203 8630 3 22 fc
-475 -0 0 505 475 -0 16677 8630 3 22 fc
-475 -0 0 505 475 -0 16677 9135 3 22 fc
-475 -0 0 505 475 -0 16203 9135 3 22 fc
-475 -0 0 505 475 -0 17152 8630 3 22 fc
376 -0 0 -505 -475 -0 0 360 18101 8775 4 22 fc
0 145 99 -0 18003 8630 2 66 fc
-475 -0 0 505 475 -0 17627 9135 3 22 fc
-475 -0 0 505 475 -0 17152 9135 3 22 fc
0 -360 -267 -0 18369 9135 2 22 fc
-207 -0 0 505 475 -0 0 -145 18101 8775 4 66 fc
-475 -0 0 505 475 -0 18576 8630 3 66 fc
0 -254 -232 -0 18808 9640 2 22 fc
-243 -0 0 505 475 -0 0 -251 18576 9387 4 66 fc
267 -0 0 -505 -475 -0 0 254 18576 9387 4 22 fc
0 251 207 -0 18369 9135 2 66 fc
381 -0 0 -505 -475 -0 0 408 19525 8728 4 66 fc
0 98 94 -0 19431 8630 2 110 fc
0 -408 -416 -0 19941 9135 2 66 fc
-59 -0 0 505 475 -0 0 -98 19525 8728 4 110 fc
416 -0 0 -505 -475 -0 0 451 20000 9190 4 66 fc
0 54 59 -0 19941 9135 2 110 fc
-475 -0 0 505 475 -0 19050 9135 3 66 fc
-475 -0 0 505 475 -0 20000 8630 3 110 fc
-475 -0 0 505 475 -0 20474 8630 3 110 fc
0 -43 -52 -0 20526 9640 2 66 fc
-422 -0 0 505 475 -0 0 -462 20474 9597 4 110 fc
0 -451 -475 -0 0 43 20474 9597 3 66 fc
0 462 475 -0 0 -54 20000 9190 3 110 fc
317 -0 0 -505 -475 -0 0 362 21424 8773 4 110 fc
0 143 157 -0 21266 8630 2 154 fc
0 -362 -388 -0 21811 9135 2 110 fc
-87 -0 0 505 475 -0 0 -143 21424 8773 4 154 fc
388 -0 0 -505 -475 -0 0 435 21898 9205 4 110 fc
0 70 87 -0 21811 9135 2 154 fc
-475 -0 0 505 475 -0 20949 9135 3 110 fc
-475 -0 0 505 475 -0 21898 8630 3 154 fc
-475 -0 0 505 475 -0 22373 8630 3 154 fc
0 -38 -43 -0 22416 9640 2 110 fc
-431 -0 0 505 475 -0 0 -467 22373 9603 4 154 fc
0 -435 -475 -0 0 38 22373 9603 3 110 fc
0 467 475 -0 0 -70 21898 9205 3 154 fc
-475 -0 0 505 475 -0 22847 8630 3 154 fc
-475 -0 0 505 475 -0 23322 8630 3 154 fc
-475 -0 0 505 475 -0 23322 9135 3 154 fc
-475 -0 0 505 475 -0 22847 9135 3 154 fc
-475 -0 0 505 475 -0 23797 8630 3 154 fc
-475 -0 0 505 475 -0 24271 8630 3 154 fc
-475 -0 0 505 475 -0 24271 9135 3 154 fc
-475 -0 0 505 475 -0 23797 9135 3 154 fc
-475 -0 0 505 475 -0 24746 8630 3 154 fc
-475 -0 0 505 475 -0 25221 8630 3 154 fc
-475 -0 0 505 475 -0 25221 9135 3 154 fc
-475 -0 0 505 475 -0 24746 9135 3 154 fc
-475 -0 0 505 475 -0 25695 8630 3 154 fc
-475 -0 0 505 475 -0 26170 8630 3 154 fc
-475 -0 0 505 475 -0 26170 9135 3 154 fc
-475 -0 0 505 475 -0 25695 9135 3 154 fc
-475 -0 0 505 475 -0 7659 9640 3 22 fc
-475 -0 0 505 475 -0 8134 9640 3 22 fc
-475 -0 0 505 475 -0 8134 10145 3 22 fc
-475 -0 0 505 475 -0 7659 10145 3 22 fc
-475 -0 0 505 475 -0 8609 9640 3 22 fc
-475 -0 0 505 475 -0 9083 9640 3 22 fc
-475 -0 0 505 475 -0 9083 10145 3 22 fc
-475 -0 0 505 475 -0 8609 10145 3 22 fc
-475 -0 0 505 475 -0 9558 9640 3 22 fc
-475 -0 0 505 475 -0 10033 9640 3 22 fc
-475 -0 0 505 475 -0 10033 10145 3 22 fc
-475 -0 0 505 475 -0 9558 10145 3 22 fc
-475 -0 0 505 475 -0 10507 9640 3 22 fc
-475 -0 0 505 475 -0 10982 9640 3 22 fc
-475 -0 0 505 475 -0 10982 10145 3 22 fc
-475 -0 0 505 475 -0 10507 10145 3 22 fc
-475 -0 0 505 475 -0 11456 9640 3 22 fc
-475 -0 0 505 475 -0 11931 9640 3 22 fc
-475 -0 0 505 475 -0 11931 10145 3 22 fc
-475 -0 0 505 475 -0 11456 10145 3 22 fc
-475 -0 0 505 475 -0 12406 9640 3 22 fc
-475 -0 0 505 475 -0 12880 9640 3 22 fc
-475 -0 0 505 475 -0 12880 10145 3 22 fc
-475 -0 0 505 475 -0 12406 10145 3 22 fc
-475 -0 0 505 475 -0 13355 9640 3 22 fc
-475 -0 0 505 475 -0 13830 9640 3 22 fc
-475 -0 0 505 475 -0 13830 10145 3 22 fc
-475 -0 0 505 475 -0 13355 10145 3 22 fc
-475 -0 0 505 475 -0 14304 9640 3 22 fc
-475 -0 0 505 475 -0 14779 9640 3 22 fc
-475 -0 0 505 475 -0 14779 10145 3 22 fc
-475 -0 0 505 475 -0 14304 10145 3 22 fc
-475 -0 0 505 475 -0 15253 9640 3 22 fc
-475 -0 0 505 475 -0 15728 9640 3 22 fc
-475 -0 0 505 475 -0 15728 10145 3 22 fc
-475 -0 0 505 475 -0 15253 10145 3 22 fc
-475 -0 0 505 475 -0 16203 9640 3 22 fc
-475 -0 0 505 475 -0 16677 9640 3 22 fc
-475 -0 0 505 475 -0 16677 10145 3 22 fc
-475 -0 0 505 475 -0 16203 10145 3 22 fc
-475 -0 0 505 475 -0 17152 9640 3 22 fc
-475 -0 0 505 475 -0 17627 9640 3 22 fc
-475 -0 0 505 475 -0 17627 10145 3 22 fc
-475 -0 0 505 475 -0 17152 10145 3 22 fc
-475 -0 0 505 475 -0 18101 9640 3 22 fc
232 -0 0 -505 -475 -0 0 247 19050 9899 4 22 fc
0 258 243 -0 18808 9640 2 66 fc
-475 -0 0 505 475 -0 18576 10145 3 22 fc
-475 -0 0 505 475 -0 18101 10145 3 22 fc
0 -247 -256 -0 19306 10145 2 22 fc
-219 -0 0 505 475 -0 0 -258 19050 9899 4 66 fc
-475 -0 0 505 475 -0 19525 9640 3 66 fc
0 -292 -328 -0 19853 10650 2 22 fc
-147 -0 0 505 475 -0 0 -213 19525 10359 4 66 fc
256 -0 0 -505 -475 -0 0 292 19525 10359 4 22 fc
0 213 219 -0 19306 10145 2 66 fc
-475 -0 0 505 475 -0 20000 9640 3 66 fc
52 -0 0 -505 -475 -0 0 160 20949 9986 4 66 fc
0 345 422 -0 20526 9640 2 110 fc
-475 -0 0 505 475 -0 20474 10145 3 66 fc
-475 -0 0 505 475 -0 20000 10145 3 66 fc
0 -160 -201 -0 21149 10145 2 66 fc
-274 -0 0 505 475 -0 0 -345 20949 9986 4 110 fc
-475 -0 0 505 475 -0 21424 9640 3 110 fc
0 -286 -365 -0 21789 10650 2 66 fc
-109 -0 0 505 475 -0 0 -219 21424 10365 4 110 fc
201 -0 0 -505 -475 -0 0 286 21424 10365 4 66 fc
0 219 274 -0 21149 10145 2 110 fc
-475 -0 0 505 475 -0 21898 9640 3 110 fc
43 -0 0 -505 -475 -0 0 167 22847 9979 4 110 fc
0 339 431 -0 22416 9640 2 154 fc
-475 -0 0 505 475 -0 22373 10145 3 110 fc
-475 -0 0 505 475 -0 21898 10145 3 110 fc
0 -167 -194 -0 23042 10145 2 110 fc
-280 -0 0 505 475 -0 0 -339 22847 9979 4 154 fc
-475 -0 0 505 475 -0 23322 9640 3 154 fc
0 -284 -328 -0 23651 10650 2 110 fc
-146 -0 0 505 475 -0 0 -221 23322 10367 4 154 fc
194 -0 0 -505 -475 -0 0 284 23322 10367 4 110 fc
0 221 280 -0 23042 10145 2 154 fc
-475 -0 0 505 475 -0 23797 9640 3 154 fc
-475 -0 0 505 475 -0 24271 9640 3 154 fc
-475 -0 0 505 475 -0 24271 10145 3 154 fc
-475 -0 0 505 475 -0 23797 10145 3 154 fc
-475 -0 0 505 475 -0 24746 9640 3 154 fc
-475 -0 0 505 475 -0 25221 9640 3 154 fc
-475 -0 0 505 475 -0 25221 10145 3 154 fc
-475 -0 0 505 475 -0 24746 10145 3 154 fc
-475 -0 0 505 475 -0 25695 9640 3 154 fc
-475 -0 0 505 475 -0 26170 9640 3 154 fc
-475 -0 0 505 475 -0 26170 10145 3 154 fc
-475 -0 0 505 475 -0 25695 10145 3 154 fc
-475 -0 0 505 475 -0 7659 10650 3 22 fc
-475 -0 0 505 475 -0 8134 10650 3 22 fc
-475 -0 0 505 475 -0 8134 11155 3 22 fc
-475 -0 0 505 475 -0 7659 11155 3 22 fc
-475 -0 0 505 475 -0 8609 10650 3 22 fc
-475 -0 0 505 475 -0 9083 10650 3 22 fc
-475 -0 0 505 475 -0 9083 11155 3 22 fc
-475 -0 0 505 475 -0 8609 11155 3 22 fc
-475 -0 0 505 475 -0 9558 10650 3 22 fc
-475 -0 0 505 475 -0 10033 10650 3 22 fc
-475 -0 0 505 475 -0 10033 11155 3 22 fc
-475 -0 0 505 475 -0 9558 11155 3 22 fc
-475 -0 0 505 475 -0 10507 10650 3 22 fc
-475 -0 0 505 475 -0 10982 10650 3 22 fc
-475 -0 0 505 475 -0 10982 11155 3 22 fc
-475 -0 0 505 475 -0 10507 11155 3 22 fc
-475 -0 0 505 475 -0 11456 10650 3 22 fc
-475 -0 0 505 475 -0 11931 10650 3 22 fc
-475 -0 0 505 475 -0 11931 11155 3 22 fc
-475 -0 0 505 475 -0 11456 11155 3 22 fc
-475 -0 0 505 475 -0 12406 10650 3 22 fc
-475 -0 0 505 475 -0 12880 10650 3 22 fc
-475 -0 0 505 475 -0 12880 11155 3 22 fc
-475 -0 0 505 475 -0 12406 11155 3 22 fc
-475 -0 0 505 475 -0 13355 10650 3 22 fc
-475 -0 0 505 475 -0 13830 10650 3 22 fc
-475 -0 0 505 475 -0 13830 11155 3 22 fc
-475 -0 0 505 475 -0 13355 11155 3 22 fc
-475 -0 0 505 475 -0 14304 10650 3 22 fc
-475 -0 0 505 475 -0 14779 10650 3 22 fc
-475 -0 0 505 475 -0 14779 11155 3 22 fc
-475 -0 0 505 475 -0 14304 11155 3 22 fc
-475 -0 0 505 475 -0 15253 10650 3 22 fc
-475 -0 0 505 475 -0 15728 10650 3 22 fc
-475 -0 0 505 475 -0 15728 11155 3 22 fc
-475 -0 0 505 475 -0 15253 11155 3 22 fc
-475 -0 0 505 475 -0 16203 10650 3 22 fc
-475 -0 0 505 475 -0 16677 10650 3 22 fc
-475 -0 0 505 475 -0 16677 11155 3 22 fc
-475 -0 0 505 475 -0 16203 11155 3 22 fc
-475 -0 0 505 475 -0 17152 10650 3 22 fc
-475 -0 0 505 475 -0 17627 10650 3 22 fc
-475 -0 0 505 475 -0 17627 11155 3 22 fc
-475 -0 0 505 475 -0 17152 11155 3 22 fc
-475 -0 0 505 475 -0 18101 10650 3 22 fc
-475 -0 0 505 475 -0 18576 10650 3 22 fc
-475 -0 0 505 475 -0 18576 11155 3 22 fc
-475 -0 0 505 475 -0 18101 11155 3 22 fc
-475 -0 0 505 475 -0 19050 10650 3 22 fc
328 -0 0 -505 -475 -0 0 370 20000 10785 4 22 fc
0 135 147 -0 19853 10650 2 66 fc
-475 -0 0 505 475 -0 19525 11155 3 22 fc
-475 -0 0 505 475 -0 19050 11155 3 22 fc
0 -370 -438 -0 20438 11155 2 22 fc
-36 -0 0 505 475 -0 0 -135 20000 10785 4 66 fc
-475 -0 0 505 475 -0 20474 10650 3 66 fc
0 -473 -475 -0 0 76 20949 11584 3 22 fc
0 429 475 -0 0 -32 20474 11187 3 66 fc
438 -0 0 -505 -475 -0 0 473 20474 11187 4 22 fc
0 32 36 -0 20438 11155 2 66 fc
-475 -0 0 505 475 -0 20949 10650 3 66 fc
365 -0 0 -505 -475 -0 0 418 21898 10737 4 66 fc
0 87 109 -0 21789 10650 2 110 fc
-475 -0 0 505 475 -0 21424 11155 3 66 fc
0 -76 -96 -0 21044 11660 2 22 fc
-379 -0 0 505 475 -0 0 -429 20949 11584 4 66 fc
0 -418 -475 -0 0 45 22373 11110 3 66 fc
0 460 475 -0 0 -87 21898 10737 3 110 fc
0 -45 -57 -0 22430 11155 2 66 fc
-418 -0 0 505 475 -0 0 -460 22373 11110 4 110 fc
57 -0 0 -505 -475 -0 0 171 22847 11490 4 66 fc
0 335 418 -0 22430 11155 2 110 fc
-475 -0 0 505 475 -0 21898 11155 3 66 fc
-475 -0 0 505 475 -0 22847 10650 3 110 fc
328 -0 0 -505 -475 -0 0 384 23797 10771 4 110 fc
0 121 146 -0 23651 10650 2 154 fc
-475 -0 0 505 475 -0 23322 11155 3 110 fc
0 -171 -210 -0 23058 11660 2 66 fc
-265 -0 0 505 475 -0 0 -335 22847 11490 4 110 fc
0 -384 -432 -0 24229 11155 2 110 fc
-43 -0 0 505 475 -0 0 -121 23797 10771 4 154 fc
-475 -0 0 505 475 -0 24271 10650 3 154 fc
0 -468 -475 -0 0 21 24746 11639 3 110 fc
0 484 475 -0 0 -37 24271 11193 3 154 fc
432 -0 0 -505 -475 -0 0 468 24271 11193 4 110 fc
0 37 43 -0 24229 11155 2 154 fc
-475 -0 0 505 475 -0 24746 10650 3 154 fc
-475 -0 0 505 475 -0 25221 10650 3 154 fc
-475 -0 0 505 475 -0 25221 11155 3 154 fc
0 -21 -20 -0 24766 11660 2 110 fc
-455 -0 0 505 475 -0 0 -484 24746 11639 4 154 fc
-475 -0 0 505 475 -0 25695 10650 3 154 fc
-475 -0 0 505 475 -0 26170 10650 3 154 fc
-475 -0 0 505 475 -0 26170 11155 3 154 fc
-475 -0 0 505 475 -0 25695 11155 3 154 fc
-475 -0 0 505 475 -0 7659 11660 3 22 fc
-475 -0 0 505 475 -0 8134 11660 3 22 fc
-475 -0 0 505 475 -0 8134 12166 3 22 fc
-475 -0 0 505 475 -0 7659 12166 3 22 fc
-475 -0 0 505 475 -0 8609 11660 3 22 fc
-475 -0 0 505 475 -0 9083 11660 3 22 fc
-475 -0 0 505 475 -0 9083 12166 3 22 fc
-475 -0 0 505 475 -0 8609 12166 3 22 fc
-475 -0 0 505 475 -0 9558 11660 3 22 fc
-475 -0 0 505 475 -0 10033 11660 3 22 fc
-475 -0 0 505 475 -0 10033 12166 3 22 fc
-475 -0 0 505 475 -0 9558 12166 3 22 fc
-475 -0 0 505 475 -0 10507 11660 3 22 fc
-475 -0 0 505 475 -0 10982 11660 3 22 fc
-475 -0 0 505 475 -0 10982 12166 3 22 fc
-475 -0 0 505 475 -0 10507 12166 3 22 fc
-475 -0 0 505 475 -0 11456 11660 3 22 fc
-475 -0 0 505 475 -0 11931 11660 3 22 fc
-475 -0 0 505 475 -0 11931 12166 3 22 fc
-475 -0 0 505 475 -0 11456 12166 3 22 fc
-475 -0 0 505 475 -0 12406 11660 3 22 fc
-475 -0 0 505 475 -0 12880 11660 3 22 fc
-475 -0 0 505 475 -0 12880 12166 3 22 fc
-475 -0 0 505 475 -0 12406 12166 3 22 fc
-475 -0 0 505 475 -0 13355 11660 3 22 fc
-475 -0 0 505 475 -0 13830 11660 3 22 fc
-475 -0 0 505 475 -0 13830 12166 3 22 fc
-475 -0 0 505 475 -0 13355 12166 3 22 fc
-475 -0 0 505 475 -0 14304 11660 3 22 fc
-475 -0 0 505 475 -0 14779 11660 3 22 fc
-475 -0 0 505 475 -0 14779 12166 3 22 fc
-475 -0 0 505 475 -0 14304 12166 3 22 fc
-475 -0 0 505 475 -0 15253 11660 3 22 fc
-475 -0 0 505 475 -0 15728 11660 3 22 fc
-475 -0 0 505 475 -0 15728 12166 3 22 fc
-475 -0 0 505 475 -0 15253 12166 3 22 fc
-475 -0 0 505 475 -0 16203 11660 3 22 fc
-475 -0 0 505 475 -0 16677 11660 3 22 fc
-475 -0 0 505 475 -0 16677 12166 3 22 fc
-475 -0 0 505 475 -0 16203 12166 3 22 fc
-475 -0 0 505 475 -0 17152 11660 3 22 fc
-475 -0 0 505 475 -0 17627 11660 3 22 fc
-475 -0 0 505 475 -0 17627 12166 3 22 fc
-475 -0 0 505 475 -0 17152 12166 3 22 fc
-475 -0 0 505 475 -0 18101 11660 3 22 fc
-475 -0 0 505 475 -0 18576 11660 3 22 fc
-475 -0 0 505 475 -0 18576 12166 3 22 fc
-475 -0 0 505 475 -0 18101 12166 3 22 fc
-475 -0 0 505 475 -0 19050 11660 3 22 fc
-475 -0 0 505 475 -0 19525 11660 3 22 fc
-475 -0 0 505 475 -0 19525 12166 3 22 fc
-475 -0 0 505 475 -0 19050 12166 3 22 fc
-475 -0 0 505 475 -0 20000 11660 3 22 fc
-475 -0 0 505 475 -0 20474 11660 3 22 fc
-475 -0 0 505 475 -0 20474 12166 3 22 fc
-475 -0 0 505 475 -0 20000 12166 3 22 fc
96 -0 0 -505 -475 -0 0 191 21424 11975 4 22 fc
0 314 379 -0 21044 11660 2 66 fc
0 -191 -243 -0 21666 12166 2 22 fc
-232 -0 0 505 475 -0 0 -314 21424 11975 4 66 fc
243 -0 0 -505 -475 -0 0 315 21898 12355 4 22 fc
0 190 232 -0 21666 12166 2 66 fc
-475 -0 0 505 475 -0 20949 12166 3 22 fc
-475 -0 0 505 475 -0 21898 11660 3 66 fc
-475 -0 0 505 475 -0 22373 11660 3 66 fc
-475 -0 0 505 475 -0 22373 12166 3 66 fc
0 -315 -403 -0 22301 12671 2 22 fc
-72 -0 0 505 475 -0 0 -190 21898 12355 4 66 fc
210 -0 0 -505 -475 -0 0 288 23322 11877 4 66 fc
0 217 265 -0 23058 11660 2 110 fc
0 -288 -344 -0 23666 12166 2 66 fc
-131 -0 0 505 475 -0 0 -217 23322 11877 4 110 fc
344 -0 0 -505 -475 -0 0 395 23797 12276 4 66 fc
0 110 131 -0 23666 12166 2 110 fc
-475 -0 0 505 475 -0 22847 12166 3 66 fc
-475 -0 0 505 475 -0 23797 11660 3 110 fc
-475 -0 0 505 475 -0 24271 11660 3 110 fc
-475 -0 0 505 475 -0 24271 12166 3 110 fc
0 -395 -452 -0 24249 12671 2 66 fc
-22 -0 0 505 475 -0 0 -110 23797 12276 4 110 fc
20 -0 0 -505 -475 -0 0 33 25221 12133 4 110 fc
0 473 455 -0 24766 11660 2 154 fc
0 -33 -27 -0 25247 12166 2 110 fc
-448 -0 0 505 475 -0 0 -473 25221 12133 4 154 fc
27 -0 0 -505 -436 -0 25657 12671 3 110 fc
-38 -0 0 505 448 -0 25247 12166 3 154 fc
-475 -0 0 505 475 -0 24746 12166 3 110 fc
-475 -0 0 505 475 -0 25695 11660 3 154 fc
-475 -0 0 505 475 -0 26170 11660 3 154 fc
-475 -0 0 505 475 -0 26170 12166 3 154 fc
-475 -0 0 505 475 -0 25695 12166 3 154 fc
-475 -0 0 505 475 -0 7659 12671 3 22 fc
-475 -0 0 505 475 -0 8134 12671 3 22 fc
-475 -0 0 505 475 -0 8134 13176 3 22 fc
-475 -0 0 505 475 -0 7659 13176 3 22 fc
-475 -0 0 505 475 -0 8609 12671 3 22 fc
-475 -0 0 505 475 -0 9083 12671 3 22 fc
-475 -0 0 505 475 -0 9083 13176 3 22 fc
-475 -0 0 505 475 -0 8609 13176 3 22 fc
-475 -0 0 505 475 -0 9558 12671 3 22 fc
-475 -0 0 505 475 -0 10033 12671 3 22 fc
-475 -0 0 505 475 -0 10033 13176 3 22 fc
-475 -0 0 505 475 -0 9558 13176 3 22 fc
-475 -0 0 505 475 -0 10507 12671 3 22 fc
-475 -0 0 505 475 -0 10982 12671 3 22 fc
-475 -0 0 505 475 -0 10982 13176 3 22 fc
-475 -0 0 505 475 -0 10507 13176 3 22 fc
-475 -0 0 505 475 -0 11456 12671 3 22 fc
-475 -0 0 505 475 -0 11931 12671 3 22 fc
-475 -0 0 505 475 -0 11931 13176 3 22 fc
-475 -0 0 505 475 -0 11456 13176 3 22 fc
-475 -0 0 505 475 -0 12406 12671 3 22 fc
-475 -0 0 505 475 -0 12880 12671 3 22 fc
-475 -0 0 505 475 -0 12880 13176 3 22 fc
-475 -0 0 505 475 -0 12406 13176 3 22 fc
-475 -0 0 505 475 -0 13355 12671 3 22 fc
-475 -0 0 505 475 -0 13830 12671 3 22 fc
-475 -0 0 505 475 -0 13830 13176 3 22 fc
-475 -0 0 505 475 -0 13355 13176 3 22 fc
-475 -0 0 505 475 -0 14304 12671 3 22 fc
-475 -0 0 505 475 -0 14779 12671 3 22 fc
-475 -0 0 505 475 -0 14779 13176 3 22 fc
-475 -0 0 505 475 -0 14304 13176 3 22 fc
-475 -0 0 505 475 -0 15253 12671 3 22 fc
-475 -0 0 505 475 -0 15728 12671 3 22 fc
-475 -0 0 505 475 -0 15728 13176 3 22 fc
-475 -0 0 505 475 -0 15253 13176 3 22 fc
-475 -0 0 505 475 -0 16203 12671 3 22 fc
-475 -0 0 505 475 -0 16677 12671 3 22 fc
-475 -0 0 505 475 -0 16677 13176 3 22 fc
-475 -0 0 505 475 -0 16203 13176 3 22 fc
-475 -0 0 505 475 -0 17152 12671 3 22 fc
-475 -0 0 505 475 -0 17627 12671 3 22 fc
-475 -0 0 505 475 -0 17627 13176 3 22 fc
-475 -0 0 505 475 -0 17152 13176 3 22 fc
-475 -0 0 505 475 -0 18101 12671 3 22 fc
-475 -0 0 505 475 -0 18576 12671 3 22 fc
-475 -0 0 505 475 -0 18576 13176 3 22 fc
-475 -0 0 505 475 -0 18101 13176 3 22 fc
-475 -0 0 505 475 -0 19050 12671 3 22 fc
-475 -0 0 505 475 -0 19525 12671 3 22 fc
-475 -0 0 505 475 -0 19525 13176 3 22 fc
-475 -0 0 505 475 -0 19050 13176 3 22 fc
-475 -0 0 505 475 -0 20000 12671 3 22 fc
-475 -0 0 505 475 -0 20474 12671 3 22 fc
-475 -0 0 505 475 -0 20474 13176 3 22 fc
-475 -0 0 505 475 -0 20000 13176 3 22 fc
-475 -0 0 505 475 -0 20949 12671 3 22 fc
-475 -0 0 505 475 -0 21424 12671 3 22 fc
-475 -0 0 505 475 -0 21424 13176 3 22 fc
-475 -0 0 505 475 -0 20949 13176 3 22 fc
403 -0 0 -505 -475 -0 0 447 22373 12729 4 22 fc
0 58 72 -0 22301 12671 2 66 fc
0 -447 -475 -0 0 67 22847 13108 3 22 fc
0 438 475 -0 0 -58 22373 12729 3 66 fc
-475 -0 0 505 475 -0 22373 13176 3 22 fc
-475 -0 0 505 475 -0 21898 13176 3 22 fc
0 -67 -84 -0 22932 13176 2 22 fc
-390 -0 0 505 475 -0 0 -438 22847 13108 4 66 fc
-475 -0 0 505 475 -0 23322 12671 3 66 fc
0 -186 -229 -0 23551 13681 2 22 fc
-246 -0 0 505 475 -0 0 -319 23322 13495 4 66 fc
84 -0 0 -505 -475 -0 0 186 23322 13495 4 22 fc
0 319 390 -0 22932 13176 2 66 fc
452 -0 0 -505 -475 -0 0 486 24271 12690 4 66 fc
0 19 22 -0 24249 12671 2 110 fc
0 -486 -475 -0 0 46 24746 13129 3 66 fc
0 459 475 -0 0 -19 24271 12690 3 110 fc
-475 -0 0 505 475 -0 24271 13176 3 66 fc
-475 -0 0 505 475 -0 23797 13176 3 66 fc
0 -46 -45 -0 24791 13176 2 66 fc
-429 -0 0 505 475 -0 0 -459 24746 13129 4 110 fc
436 -0 0 -505 -475 -0 0 458 25695 12718 4 110 fc
0 48 38 -0 25657 12671 2 154 fc
0 -71 -58 -0 25278 13681 2 66 fc
-417 -0 0 505 475 -0 0 -434 25221 13610 4 110 fc
45 -0 0 -505 -475 -0 0 71 25221 13610 4 66 fc
0 434 429 -0 24791 13176 2 110 fc
0 -458 -263 -0 25958 13176 2 110 fc
-212 -0 0 505 475 -0 0 -48 25695 12718 4 154 fc
-475 -0 0 505 475 -0 26170 12671 3 154 fc
0 -78 -20 -0 26190 13681 2 110 fc
-455 -0 0 505 475 -0 0 -427 26170 13602 4 154 fc
263 -0 0 -505 -475 -0 0 78 26170 13602 4 110 fc
0 427 212 -0 25958 13176 2 154 fc
-475 -0 0 505 475 -0 7659 13681 3 22 fc
-475 -0 0 505 475 -0 8134 13681 3 22 fc
-475 -0 0 505 475 -0 8134 14186 3 22 fc
-475 -0 0 505 475 -0 7659 14186 3 22 fc
-475 -0 0 505 475 -0 8609 13681 3 22 fc
-475 -0 0 505 475 -0 9083 13681 3 22 fc
-475 -0 0 505 475 -0 9083 14186 3 22 fc
-475 -0 0 505 475 -0 8609 14186 3 22 fc
-475 -0 0 505 475 -0 9558 13681 3 22 fc
-475 -0 0 505 475 -0 10033 13681 3 22 fc
-475 -0 0 505 475 -0 10033 14186 3 22 fc
-475 -0 0 505 475 -0 9558 14186 3 22 fc
-475 -0 0 505 475 -0 10507 13681 3 22 fc
-475 -0 0 505 475 -0 10982 13681 3 22 fc
-475 -0 0 505 475 -0 10982 14186 3 22 fc
-475 -0 0 505 475 -0 10507 14186 3 22 fc
-475 -0 0 505 475 -0 11456 13681 3 22 fc
-475 -0 0 505 475 -0 11931 13681 3 22 fc
-475 -0 0 505 475 -0 11931 14186 3 22 fc
-475 -0 0 505 475 -0 11456 14186 3 22 fc
-475 -0 0 505 475 -0 12406 13681 3 22 fc
-475 -0 0 505 475 -0 12880 13681 3 22 fc
-475 -0 0 505 475 -0 12880 14186 3 22 fc
-475 -0 0 505 475 -0 12406 14186 3 22 fc
-475 -0 0 505 475 -0 13355 13681 3 22 fc
-475 -0 0 505 475 -0 13830 13681 3 22 fc
-475 -0 0 505 475 -0 13830 14186 3 22 fc
-475 -0 0 505 475 -0 13355 14186 3 22 fc
-475 -0 0 505 475 -0 14304 13681 3 22 fc
-475 -0 0 505 475 -0 14779 13681 3 22 fc
-475 -0 0 505 475 -0 14779 14186 3 22 fc
-475 -0 0 505 475 -0 14304 14186 3 22 fc
-475 -0 0 505 475 -0 15253 13681 3 22 fc
-475 -0 0 505 475 -0 15728 13681 3 22 fc
-475 -0 0 505 475 -0 15728 14186 3 22 fc
-475 -0 0 505 475 -0 15253 14186 3 22 fc
-475 -0 0 505 475 -0 16203 13681 3 22 fc
-475 -0 0 505 475 -0 16677 13681 3 22 fc
-475 -0 0 505 475 -0 16677 14186 3 22 fc
-475 -0 0 505 475 -0 16203 14186 3 22 fc
-475 -0 0 505 475 -0 17152 13681 3 22 fc
-475 -0 0 505 475 -0 17627 13681 3 22 fc
-475 -0 0 505 475 -0 17627 14186 3 22 fc
-475 -0 0 505 475 -0 17152 14186 3 22 fc
-475 -0 0 505 475 -0 18101 13681 3 22 fc
-475 -0 0 505 475 -0 18576 13681 3 22 fc
-475 -0 0 505 475 -0 18576 14186 3 22 fc
-475 -0 0 505 475 -0 18101 14186 3 22 fc
-475 -0 0 505 475 -0 19050 13681 3 22 fc
-475 -0 0 505 475 -0 19525 13681 3 22 fc
-475 -0 0 505 475 -0 19525 14186 3 22 fc
-475 -0 0 505 475 -0 19050 14186 3 22 fc
-475 -0 0 505 475 -0 20000 13681 3 22 fc
-475 -0 0 505 475 -0 20474 13681 3 22 fc
-475 -0 0 505 475 -0 20474 14186 3 22 fc
-475 -0 0 505 475 -0 20000 14186 3 22 fc
-475 -0 0 505 475 -0 20949 13681 3 22 fc
-475 -0 0 505 475 -0 21424 13681 3 22 fc
-475 -0 0 505 475 -0 21424 14186 3 22 fc
-475 -0 0 505 475 -0 20949 14186 3 22 fc
-475 -0 0 505 475 -0 21898 13681 3 22 fc
-475 -0 0 505 475 -0 22373 13681 3 22 fc
-475 -0 0 505 475 -0 22373 14186 3 22 fc
-475 -0 0 505 475 -0 21898 14186 3 22 fc
-475 -0 0 505 475 -0 22847 13681 3 22 fc
229 -0 0 -505 -475 -0 0 302 23797 13883 4 22 fc
0 203 246 -0 23551 13681 2 66 fc
-475 -0 0 505 475 -0 23322 14186 3 22 fc
-475 -0 0 505 475 -0 22847 14186 3 22 fc
0 -302 -365 -0 24161 14186 2 22 fc
-110 -0 0 505 475 -0 0 -203 23797 13883 4 66 fc
-475 -0 0 505 475 -0 24271 13681 3 66 fc
0 -413 -475 -0 0 5 24746 14686 3 22 fc
0 500 475 -0 0 -92 24271 14278 3 66 fc
365 -0 0 -505 -475 -0 0 413 24271 14278 4 22 fc
0 92 110 -0 24161 14186 2 66 fc
-475 -0 0 505 475 -0 24746 13681 3 66 fc
58 -0 0 -505 -472 -0 25693 14186 3 66 fc
-2 -0 0 505 417 -0 25278 13681 3 110 fc
472 -0 0 -505 -475 -0 0 502 25695 14188 4 66 fc
0 3 2 -0 25693 14186 2 110 fc
0 -5 -5 -0 24751 14691 2 22 fc
-469 -0 0 505 475 -0 0 -500 24746 14686 4 66 fc
-475 -0 0 505 475 -0 25695 13681 3 110 fc
20 -0 0 -505 -124 -0 26294 14186 3 110 fc
-350 -0 0 505 455 -0 26190 13681 3 154 fc
124 -0 0 -505 -194 -0 26364 14691 3 110 fc
-281 -0 0 505 350 -0 26294 14186 3 154 fc
0 -502 -253 -0 25948 14691 2 66 fc
-222 -0 0 505 475 -0 0 -3 25695 14188 4 110 fc
-475 -0 0 505 475 -0 7659 14691 3 22 fc
-475 -0 0 505 475 -0 8134 14691 3 22 fc
-475 -0 0 505 475 -0 8134 15196 3 22 fc
-475 -0 0 505 475 -0 7659 15196 3 22 fc
-475 -0 0 505 475 -0 8609 14691 3 22 fc
-475 -0 0 505 475 -0 9083 14691 3 22 fc
-475 -0 0 505 475 -0 9083 15196 3 22 fc
-475 -0 0 505 475 -0 8609 15196 3 22 fc
-475 -0 0 505 475 -0 9558 14691 3 22 fc
-475 -0 0 505 475 -0 10033 14691 3 22 fc
-475 -0 0 505 475 -0 10033 15196 3 22 fc
-475 -0 0 505 475 -0 9558 15196 3 22 fc
-475 -0 0 505 475 -0 10507 14691 3 22 fc
-475 -0 0 505 475 -0 10982 14691 3 22 fc
-475 -0 0 505 475 -0 10982 15196 3 22 fc
-475 -0 0 505 475 -0 10507 15196 3 22 fc
-475 -0 0 505 475 -0 11456 14691 3 22 fc
-475 -0 0 505 475 -0 11931 14691 3 22 fc
-475 -0 0 505 475 -0 11931 15196 3 22 fc
-475 -0 0 505 475 -0 11456 15196 3 22 fc
-475 -0 0 505 475 -0 12406 14691 3 22 fc
-475 -0 0 505 475 -0 12880 14691 3 22 fc
-475 -0 0 505 475 -0 12880 15196 3 22 fc
-475 -0 0 505 475 -0 12406 15196 3 22 fc
-475 -0 0 505 475 -0 13355 14691 3 22 fc
-475 -0 0 505 475 -0 13830 14691 3 22 fc
-475 -0 0 505 475 -0 13830 15196 3 22 fc
-475 -0 0 505 475 -0 13355 15196 3 22 fc
-475 -0 0 505 475 -0 14304 14691 3 22 fc
-475 -0 0 505 475 -0 14779 14691 3 22 fc
-475 -0 0 505 475 -0 14779 15196 3 22 fc
-475 -0 0 505 475 -0 14304 15196 3 22 fc
-475 -0 0 505 475 -0 15253 14691 3 22 fc
-475 -0 0 505 475 -0 15728 14691 3 22 fc
-475 -0 0 505 475 -0 15728 15196 3 22 fc
-475 -0 0 505 475 -0 15253 15196 3 22 fc
-475 -0 0 505 475 -0 16203 14691 3 22 fc
-475 -0 0 505 475 -0 16677 14691 3 22 fc
-475 -0 0 505 475 -0 16677 15196 3 22 fc
-475 -0 0 505 475 -0 16203 15196 3 22 fc
-475 -0 0 505 475 -0 17152 14691 3 22 fc
-475 -0 0 505 475 -0 17627 14691 3 22 fc
-475 -0 0 505 475 -0 17627 15196 3 22 fc
-475 -0 0 505 475 -0 17152 15196 3 22 fc
-475 -0 0 505 475 -0 18101 14691 3 22 fc
-475 -0 0 505 475 -0 18576 14691 3 22 fc
-475 -0 0 505 475 -0 18576 15196 3 22 fc
-475 -0 0 505 475 -0 18101 15196 3 22 fc
-475 -0 0 505 475 -0 19050 14691 3 22 fc
-475 -0 0 505 475 -0 19525 14691 3 22 fc
-475 -0 0 505 475 -0 19525 15196 3 22 fc
-475 -0 0 505 475 -0 19050 15196 3 22 fc
-475 -0 0 505 475 -0 20000 14691 3 22 fc
-475 -0 0 505 475 -0 20474 14691 3 22 fc
-475 -0 0 505 475 -0 20474 15196 3 22 fc
-475 -0 0 505 475 -0 20000 15196 3 22 fc
-475 -0 0 505 475 -0 20949 14691 3 22 fc
-475 -0 0 505 475 -0 21424 14691 3 22 fc
-475 -0 0 505 475 -0 21424 15196 3 22 fc
-475 -0 0 505 475 -0 20949 15196 3 22 fc
-475 -0 0 505 475 -0 21898 14691 3 22 fc
-475 -0 0 505 475 -0 22373 14691 3 22 fc
-475 -0 0 505 475 -0 22373 15196 3 22 fc
-475 -0 0 505 475 -0 21898 15196 3 22 fc
-475 -0 0 505 475 -0 22847 14691 3 22 fc
-475 -0 0 505 475 -0 23322 14691 3 22 fc
-475 -0 0 505 475 -0 23322 15196 3 22 fc
-475 -0 0 505 475 -0 22847 15196 3 22 fc
-475 -0 0 505 475 -0 23797 14691 3 22 fc
-475 -0 0 505 475 -0 24271 14691 3 22 fc
-475 -0 0 505 475 -0 24271 15196 3 22 fc
-475 -0 0 505 475 -0 23797 15196 3 22 fc
5 -0 0 -505 -475 -0 0 62 25221 15134 4 22 fc
0 443 469 -0 24751 14691 2 66 fc
0 -62 -53 -0 25273 15196 2 22 fc
-422 -0 0 505 475 -0 0 -443 25221 15134 4 66 fc
53 -0 0 -505 -475 -0 0 26 25695 15675 4 22 fc
0 480 422 -0 25273 15196 2 66 fc
-475 -0 0 505 475 -0 24746 15196 3 22 fc
253 -0 0 -505 -475 -0 0 43 26170 15153 4 66 fc
0 463 222 -0 25948 14691 2 110 fc
0 -43 -7 -0 26177 15196 2 66 fc
194 -0 0 -463 -7 -43 -234 -0 26411 15196 4 110 fc
-233 -0 0 505 281 -0 26364 14691 3 154 fc
7 -0 0 -505 -74 -0 26244 15701 3 66 fc
234 -0 -67 -505 -201 -0 26444 15701 3 110 fc
-200 -0 0 505 233 -0 26411 15196 3 154 fc
0 -26 -12 -0 25707 15701 2 22 fc
-463 -0 0 505 475 -0 0 -480 25695 15675 4 66 fc
-475 -0 0 505 475 -0 7659 15701 3 22 fc
-475 -0 0 505 475 -0 8134 15701 3 22 fc
-475 -0 0 505 475 -0 8134 16206 3 22 fc
-475 -0 0 505 475 -0 7659 16206 3 22 fc
-475 -0 0 505 475 -0 8609 15701 3 22 fc
-475 -0 0 505 475 -0 9083 15701 3 22 fc
-475 -0 0 505 475 -0 9083 16206 3 22 fc
-475 -0 0 505 475 -0 8609 16206 3 22 fc
-475 -0 0 505 475 -0 9558 15701 3 22 fc
-475 -0 0 505 475 -0 10033 15701 3 22 fc
-475 -0 0 505 475 -0 10033 16206 3 22 fc
-475 -0 0 505 475 -0 9558 16206 3 22 fc
-475 -0 0 505 475 -0 10507 15701 3 22 fc
-475 -0 0 505 475 -0 10982 15701 3 22 fc
-475 -0 0 505 475 -0 10982 16206 3 22 fc
-475 -0 0 505 475 -0 10507 16206 3 22 fc
-475 -0 0 505 475 -0 11456 15701 3 22 fc
-475 -0 0 505 475 -0 11931 15701 3 22 fc
-475 -0 0 505 475 -0 11931 16206 3 22 fc
-475 -0 0 505 475 -0 11456 16206 3 22 fc
-475 -0 0 505 475 -0 12406 15701 3 22 fc
-475 -0 0 505 475 -0 12880 15701 3 22 fc
-475 -0 0 505 475 -0 12880 16206 3 22 fc
-475 -0 0 505 475 -0 12406 16206 3 22 fc
-475 -0 0 505 475 -0 13355 15701 3 22 fc
-475 -0 0 505 475 -0 13830 15701 3 22 fc
-475 -0 0 505 475 -0 13830 16206 3 22 fc
-475 -0 0 505 475 -0 13355 16206 3 22 fc
-475 -0 0 505 475 -0 14304 15701 3 22 fc
-475 -0 0 505 475 -0 14779 15701 3 22 fc
-475 -0 0 505 475 -0 14779 16206 3 22 fc
-475 -0 0 505 475 -0 14304 16206 3 22 fc
-475 -0 0 505 475 -0 15253 15701 3 22 fc
-475 -0 0 505 475 -0 15728 15701 3 22 fc
-475 -0 0 505 475 -0 15728 16206 3 22 fc
-475 -0 0 505 475 -0 15253 16206 3 22 fc
-475 -0 0 505 475 -0 16203 15701 3 22 fc
-475 -0 0 505 475 -0 16677 15701 3 22 fc
-475 -0 0 505 475 -0 16677 16206 3 22 fc
-475 -0 0 505 475 -0 16203 16206 3 22 fc
-475 -0 0 505 475 -0 17152 15701 3 22 fc
-475 -0 0 505 475 -0 17627 15701 3 22 fc
-475 -0 0 505 475 -0 17627 16206 3 22 fc
-475 -0 0 505 475 -0 17152 16206 3 22 fc
-475 -0 0 505 475 -0 18101 15701 3 22 fc
-475 -0 0 505 475 -0 18576 15701 3 22 fc
-475 -0 0 505 475 -0 18576 16206 3 22 fc
-475 -0 0 505 475 -0 18101 16206 3 22 fc
-475 -0 0 505 475 -0 19050 15701 3 22 fc
-475 -0 0 505 475 -0 19525 15701 3 22 fc
-475 -0 0 505 475 -0 19525 16206 3 22 fc
-475 -0 0 505 475 -0 19050 16206 3 22 fc
-475 -0 0 505 475 -0 20000 15701 3 22 fc
-475 -0 0 505 475 -0 20474 15701 3 22 fc
-475 -0 0 505 475 -0 20474 16206 3 22 fc
-475 -0 0 505 475 -0 20000 16206 3 22 fc
-475 -0 0 505 475 -0 20949 15701 3 22 fc
-475 -0 0 505 475 -0 21424 15701 3 22 fc
-475 -0 0 505 475 -0 21424 16206 3 22 fc
-475 -0 0 505 475 -0 20949 16206 3 22 fc
-475 -0 0 505 475 -0 21898 15701 3 22 fc
-475 -0 0 505 475 -0 22373 15701 3 22 fc
-475 -0 0 505 475 -0 22373 16206 3 22 fc
-475 -0 0 505 475 -0 21898 16206 3 22 fc
-475 -0 0 505 475 -0 22847 15701 3 22 fc
-475 -0 0 505 475 -0 23322 15701 3 22 fc
-475 -0 0 505 475 -0 23322 16206 3 22 fc
-475 -0 0 505 475 -0 22847 16206 3 22 fc
-475 -0 0 505 475 -0 23797 15701 3 22 fc
-475 -0 0 505 475 -0 24271 15701 3 22 fc
-475 -0 0 505 475 -0 24271 16206 3 22 fc
-475 -0 0 505 475 -0 23797 16206 3 22 fc
-475 -0 0 505 475 -0 24746 15701 3 22 fc
-475 -0 0 505 475 -0 25221 15701 3 22 fc
-475 -0 0 505 475 -0 25221 16206 3 22 fc
-475 -0 0 505 475 -0 24746 16206 3 22 fc
12 -0 0 -505 -231 -0 25927 16206 3 22 fc
-243 -0 0 505 463 -0 25707 15701 3 66 fc
74 -0 0 -505 -122 -0 26292 16206 3 66 fc
201 -0 -48 -505 -177 -0 26468 16206 3 110 fc
-176 -0 0 505 200 -0 26444 15701 3 154 fc
122 -0 0 -505 -156 -0 26326 16711 3 66 fc
177 -0 -35 -505 -159 -0 26486 16711 3 110 fc
-159 -0 0 505 176 -0 26468 16206 3 154 fc
231 -0 0 -505 -458 -0 26154 16711 3 22 fc
-16 -0 0 505 243 -0 25927 16206 3 66 fc
-475 -0 0 505 475 -0 7659 16711 3 22 fc
-475 -0 0 505 475 -0 8134 16711 3 22 fc
-475 -0 0 505 475 -0 8134 17216 3 22 fc
-475 -0 0 505 475 -0 7659 17216 3 22 fc
-475 -0 0 505 475 -0 8609 16711 3 22 fc
-475 -0 0 505 475 -0 9083 16711 3 22 fc
-475 -0 0 505 475 -0 9083 17216 3 22 fc
-475 -0 0 505 475 -0 8609 17216 3 22 fc
-475 -0 0 505 475 -0 9558 16711 3 22 fc
-475 -0 0 505 475 -0 10033 16711 3 22 fc
-475 -0 0 505 475 -0 10033 17216 3 22 fc
-475 -0 0 505 475 -0 9558 17216 3 22 fc
-475 -0 0 505 475 -0 10507 16711 3 22 fc
-475 -0 0 505 475 -0 10982 16711 3 22 fc
-475 -0 0 505 475 -0 10982 17216 3 22 fc
-475 -0 0 505 475 -0 10507 17216 3 22 fc
-475 -0 0 505 475 -0 11456 16711 3 22 fc
-475 -0 0 505 475 -0 11931 16711 3 22 fc
-475 -0 0 505 475 -0 11931 17216 3 22 fc
-475 -0 0 505 475 -0 11456 17216 3 22 fc
-475 -0 0 505 475 -0 12406 16711 3 22 fc
-475 -0 0 505 475 -0 12880 16711 3 22 fc
-475 -0 0 505 475 -0 12880 17216 3 22 fc
-475 -0 0 505 475 -0 12406 17216 3 22 fc
-475 -0 0 505 475 -0 13355 16711 3 22 fc
-475 -0 0 505 475 -0 13830 16711 3 22 fc
-475 -0 0 505 475 -0 13830 17216 3 22 fc
-475 -0 0 505 475 -0 13355 17216 3 22 fc
-475 -0 0 505 475 -0 14304 16711 3 22 fc
-475 -0 0 505 475 -0 14779 16711 3 22 fc
-475 -0 0 505 475 -0 14779 17216 3 22 fc
-475 -0 0 505 475 -0 14304 17216 3 22 fc
-475 -0 0 505 475 -0 15253 16711 3 22 fc
-475 -0 0 505 475 -0 15728 16711 3 22 fc
-475 -0 0 505 475 -0 15728 17216 3 22 fc
-475 -0 0 505 475 -0 15253 17216 3 22 fc
-475 -0 0 505 475 -0 16203 16711 3 22 fc
-475 -0 0 505 475 -0 16677 16711 3 22 fc
-475 -0 0 505 475 -0 16677 17216 3 22 fc
-475 -0 0 505 475 -0 16203 17216 3 22 fc
-475 -0 0 505 475 -0 17152 16711 3 22 fc
-475 -0 0 505 475 -0 17627 16711 3 22 fc
-475 -0 0 505 475 -0 17627 17216 3 22 fc
-475 -0 0 505 475 -0 17152 17216 3 22 fc
-475 -0 0 505 475 -0 18101 16711 3 22 fc
-475 -0 0 505 475 -0 18576 16711 3 22 fc
-475 -0 0 505 475 -0 18576 17216 3 22 fc
-475 -0 0 505 475 -0 18101 17216 3 22 fc
-475 -0 0 505 475 -0 19050 16711 3 22 fc
-475 -0 0 505 475 -0 19525 16711 3 22 fc
-475 -0 0 505 475 -0 19525 17216 3 22 fc
-475 -0 0 505 475 -0 19050 17216 3 22 fc
-475 -0 0 505 475 -0 20000 16711 3 22 fc
-475 -0 0 505 475 -0 20474 16711 3 22 fc
-475 -0 0 505 475 -0 20474 17216 3 22 fc
-475 -0 0 505 475 -0 20000 17216 3 22 fc
-475 -0 0 505 475 -0 20949 16711 3 22 fc
-475 -0 0 505 475 -0 21424 16711 3 22 fc
-475 -0 0 505 475 -0 21424 17216 3 22 fc
-475 -0 0 505 475 -0 20949 17216 3 22 fc
-475 -0 0 505 475 -0 21898 16711 3 22 fc
-475 -0 0 505 475 -0 22373 16711 3 22 fc
-475 -0 0 505 475 -0 22373 17216 3 22 fc
-475 -0 0 505 475 -0 21898 17216 3 22 fc
-475 -0 0 505 475 -0 22847 16711 3 22 fc
-475 -0 0 505 475 -0 23322 16711 3 22 fc
-475 -0 0 505 475 -0 23322 17216 3 22 fc
-475 -0 0 505 475 -0 22847 17216 3 22 fc
-475 -0 0 505 475 -0 23797 16711 3 22 fc
-475 -0 0 505 475 -0 24271 16711 3 22 fc
-475 -0 0 505 475 -0 24271 17216 3 22 fc
-475 -0 0 505 475 -0 23797 17216 3 22 fc
-475 -0 0 505 475 -0 24746 16711 3 22 fc
-475 -0 0 505 475 -0 25221 16711 3 22 fc
-475 -0 0 505 475 -0 25221 17216 3 22 fc
-475 -0 0 505 475 -0 24746 17216 3 22 fc
458 -0 0 -505 -475 -0 0 466 26170 16750 4 22 fc
0 39 16 -0 26154 16711 2 66 fc
0 -466 -33 -0 26203 17216 2 22 fc
156 -0 0 -39 -33 -466 -147 -0 26350 17216 4 66 fc
159 -0 -24 -505 -147 -0 26498 17216 3 110 fc
-147 -0 0 505 159 -0 26486 16711 3 154 fc
33 -0 0 -505 -50 -0 26220 17721 3 22 fc
147 -0 -17 -505 -142 -0 26362 17721 3 66 fc
147 -0 -11 -505 -142 -0 26503 17721 3 110 fc
-141 -0 0 505 147 -0 26498 17216 3 154 fc
-475 -0 0 505 475 -0 25695 17216 3 22 fc
st
235 z x 92.16 s
2 lc
0 lj
st [] 0 sd
17581 7620 m
17627 7784 l
st
235 z x 17718 8125 m
17627 7784 l
st
235 z x 17718 8125 m
18003 8630 l
st
235 z x 18003 8630 m
18101 8775 l
st
235 z x 18369 9135 m
18101 8775 l
st
235 z x 18808 9640 m
18576 9387 l
st
235 z x 18369 9135 m
18576 9387 l
st
235 z x 18808 9640 m
19050 9899 l
st
235 z x 19306 10145 m
19050 9899 l
st
235 z x 19853 10650 m
19525 10359 l
st
235 z x 19306 10145 m
19525 10359 l
st
235 z x 19853 10650 m
20000 10785 l
st
235 z x 20438 11155 m
20000 10785 l
st
235 z x 20949 11584 m
20474 11187 l
st
235 z x 20438 11155 m
20474 11187 l
st
235 z x 21044 11660 m
20949 11584 l
st
235 z x 21044 11660 m
21424 11975 l
st
235 z x 21666 12166 m
21424 11975 l
st
235 z x 21666 12166 m
21898 12355 l
st
235 z x 22301 12671 m
21898 12355 l
st
235 z x 22301 12671 m
22373 12729 l
st
235 z x 22847 13108 m
22373 12729 l
st
235 z x 22932 13176 m
22847 13108 l
st
235 z x 23551 13681 m
23322 13495 l
st
235 z x 22932 13176 m
23322 13495 l
st
235 z x 23551 13681 m
23797 13883 l
st
235 z x 24161 14186 m
23797 13883 l
st
235 z x 24746 14686 m
24271 14278 l
st
235 z x 24161 14186 m
24271 14278 l
st
235 z x 24751 14691 m
24746 14686 l
st
235 z x 24751 14691 m
25221 15134 l
st
235 z x 25273 15196 m
25221 15134 l
st
235 z x 25273 15196 m
25695 15675 l
st
235 z x 25707 15701 m
25695 15675 l
st
235 z x 25707 15701 m
25927 16206 l
st
235 z x 25927 16206 m
26154 16711 l
st
235 z x 26154 16711 m
26170 16750 l
st
235 z x 26203 17216 m
26170 16750 l
st
235 z x 26203 17216 m
26220 17721 l
st
235 z x 18896 7620 m
19050 8119 l
st
235 z x 19052 8125 m
19050 8119 l
st
235 z x 19052 8125 m
19431 8630 l
st
235 z x 19431 8630 m
19525 8728 l
st
235 z x 19941 9135 m
19525 8728 l
st
235 z x 19941 9135 m
20000 9190 l
st
235 z x 20526 9640 m
20474 9597 l
st
235 z x 20474 9597 m
20000 9190 l
st
235 z x 20526 9640 m
20949 9986 l
st
235 z x 21149 10145 m
20949 9986 l
st
235 z x 21789 10650 m
21424 10365 l
st
235 z x 21149 10145 m
21424 10365 l
st
235 z x 21789 10650 m
21898 10737 l
st
235 z x 22373 11110 m
21898 10737 l
st
235 z x 22430 11155 m
22373 11110 l
st
235 z x 22430 11155 m
22847 11490 l
st
235 z x 23058 11660 m
22847 11490 l
st
235 z x 23058 11660 m
23322 11877 l
st
235 z x 23666 12166 m
23322 11877 l
st
235 z x 23666 12166 m
23797 12276 l
st
235 z x 24249 12671 m
23797 12276 l
st
235 z x 24249 12671 m
24271 12690 l
st
235 z x 24746 13129 m
24271 12690 l
st
235 z x 24791 13176 m
24746 13129 l
st
235 z x 25278 13681 m
25221 13610 l
st
235 z x 24791 13176 m
25221 13610 l
st
235 z x 25278 13681 m
25693 14186 l
st
235 z x 25693 14186 m
25695 14188 l
st
235 z x 25948 14691 m
25695 14188 l
st
235 z x 25948 14691 m
26170 15153 l
st
235 z x 26177 15196 m
26170 15153 l
st
235 z x 26177 15196 m
26244 15701 l
st
235 z x 26244 15701 m
26292 16206 l
st
235 z x 26292 16206 m
26326 16711 l
st
235 z x 26326 16711 m
26350 17216 l
st
235 z x 26350 17216 m
26362 17721 l
st
235 z x 20683 7620 m
20850 8125 l
st
235 z x 20850 8125 m
20949 8246 l
st
235 z x 21266 8630 m
20949 8246 l
st
235 z x 21266 8630 m
21424 8773 l
st
235 z x 21811 9135 m
21424 8773 l
st
235 z x 21811 9135 m
21898 9205 l
st
235 z x 22416 9640 m
22373 9603 l
st
235 z x 22373 9603 m
21898 9205 l
st
235 z x 22416 9640 m
22847 9979 l
st
235 z x 23042 10145 m
22847 9979 l
st
235 z x 23651 10650 m
23322 10367 l
st
235 z x 23042 10145 m
23322 10367 l
st
235 z x 23651 10650 m
23797 10771 l
st
235 z x 24229 11155 m
23797 10771 l
st
235 z x 24746 11639 m
24271 11193 l
st
235 z x 24229 11155 m
24271 11193 l
st
235 z x 24766 11660 m
24746 11639 l
st
235 z x 24766 11660 m
25221 12133 l
st
235 z x 25247 12166 m
25221 12133 l
st
235 z x 25247 12166 m
25657 12671 l
st
235 z x 25657 12671 m
25695 12718 l
st
235 z x 25958 13176 m
25695 12718 l
st
235 z x 26190 13681 m
26170 13602 l
st
235 z x 25958 13176 m
26170 13602 l
st
235 z x 26190 13681 m
26294 14186 l
st
235 z x 26294 14186 m
26364 14691 l
st
235 z x 26364 14691 m
26411 15196 l
st
235 z x 26411 15196 m
26444 15701 l
st
235 z x 26444 15701 m
26468 16206 l
st
235 z x 26468 16206 m
26486 16711 l
st
235 z x 26486 16711 m
26498 17216 l
st
235 z x 26498 17216 m
26503 17721 l
0 s
st [] 0 sd
-1135 -981 -352 408 1135 981 23293 9886 3 242 fc
11.52 s
23296 9935 m
691.2 fhb
235 z x gs 40.8 ro
(0) sh
gr
23607 10203 m
gs 40.8 ro
(.) sh
gr
23757 10333 m
gs 40.8 ro
(7) sh
gr
24068 10602 m
gs 40.8 ro
(5) sh
gr
0 s
-846 -687 -340 419 846 687 22613 10937 3 242 fc
11.52 s
22618 10986 m
691.2 fhb
235 z x gs 39.1 ro
(0) sh
gr
22937 11245 m
gs 39.1 ro
(.) sh
gr
23091 11370 m
gs 39.1 ro
(5) sh
gr
0 s
-1182 -925 -332 425 1182 925 21532 11634 3 242 fc
11.52 s
21537 11682 m
691.2 fhb
235 z x gs 38.1 ro
(0) sh
gr
21861 11935 m
gs 38.1 ro
(.) sh
gr
22017 12058 m
gs 38.1 ro
(2) sh
gr
22341 12311 m
gs 38.1 ro
(5) sh
gr
2879 719 2879 23761 28801 23761 28801 719 clp
st
235 z x 92.16 s
0 lc
0 lj
st [] 0 sd
st
235 z x 7659 7618 m
7659 8079 l
23.04 s
st
235 z x 8609 7618 m
8609 7895 l
st
235 z x 9558 7618 m
9558 7895 l
st
235 z x 10507 7618 m
10507 7895 l
st
235 z x 11456 7618 m
11456 7895 l
92.16 s
st
235 z x 12406 7618 m
12406 8079 l
23.04 s
st
235 z x 13355 7618 m
13355 7895 l
st
235 z x 14304 7618 m
14304 7895 l
st
235 z x 15253 7618 m
15253 7895 l
st
235 z x 16203 7618 m
16203 7895 l
92.16 s
st
235 z x 17152 7618 m
17152 8079 l
23.04 s
st
235 z x 18101 7618 m
18101 7895 l
st
235 z x 19050 7618 m
19050 7895 l
st
235 z x 20000 7618 m
20000 7895 l
st
235 z x 20949 7618 m
20949 7895 l
92.16 s
st
235 z x 21898 7618 m
21898 8079 l
23.04 s
st
235 z x 22847 7618 m
22847 7895 l
st
235 z x 23797 7618 m
23797 7895 l
st
235 z x 24746 7618 m
24746 7895 l
st
235 z x 25695 7618 m
25695 7895 l
92.16 s
st
235 z x 26644 7618 m
26644 8079 l
2 lc
st
235 z x 7659 7618 m
26644 7618 l
st
235 z x 0 lc
st
235 z x 7660 7620 m
8120 7620 l
23.04 s
st
235 z x 7660 8630 m
7936 8630 l
st
235 z x 7660 9640 m
7936 9640 l
st
235 z x 7660 10650 m
7936 10650 l
st
235 z x 7660 11660 m
7936 11660 l
92.16 s
st
235 z x 7660 12671 m
8120 12671 l
23.04 s
st
235 z x 7660 13681 m
7936 13681 l
st
235 z x 7660 14691 m
7936 14691 l
st
235 z x 7660 15701 m
7936 15701 l
st
235 z x 7660 16711 m
7936 16711 l
92.16 s
st
235 z x 7660 17721 m
8120 17721 l
2 lc
st
235 z x 7660 7620 m
7660 17721 l
0 lc
st [461] 0 sd
2228 -45 7950 19220 1 235 bc
st [] 0 sd
2228 -45 7859 20493 1 235 bc
11.52 s
2 lc
st [] 0 sd
3721 17310 m
880 fhb
235 z x (z) sh
4419 17310 m
([) sh
4671 17310 m
(m) sh
5447 17310 m
(]) sh
22047 8397 m
880 fhb
235 z x (s) sh
22512 8397 m
(a) sh
23017 8397 m
(l) sh
23230 8397 m
(t) sh
23734 8397 m
(w) sh
24412 8397 m
(a) sh
24917 8397 m
(t) sh
25188 8397 m
(e) sh
25692 8397 m
(r) sh
10724 19038 m
880 fhb
235 z x (a) sh
11228 19038 m
(n) sh
11752 19038 m
(a) sh
12256 19038 m
(l) sh
12469 19038 m
(y) sh
12934 19038 m
(t) sh
13206 19038 m
(i) sh
13419 19038 m
(c) sh
13884 19038 m
(a) sh
14388 19038 m
(l) sh
14834 19038 m
(r) sh
15145 19038 m
(e) sh
15649 19038 m
(s) sh
16114 19038 m
(u) sh
16637 19038 m
(l) sh
16851 19038 m
(t) sh
12134 13081 m
880 fhb
242 z x (f) sh
12405 13081 m
(r) sh
12716 13081 m
(e) sh
13220 13081 m
(s) sh
13685 13081 m
(h) sh
14441 13081 m
(w) sh
15120 13081 m
(a) sh
15624 13081 m
(t) sh
15895 13081 m
(e) sh
16399 13081 m
(r) sh
24776 5214 m
880 fhb
235 z x (x) sh
25474 5214 m
([) sh
25726 5214 m
(m) sh
26501 5214 m
(]) sh
10724 20221 m
880 fhb
235 z x (n) sh
11248 20221 m
(u) sh
11771 20221 m
(m) sh
12547 20221 m
(e) sh
13051 20221 m
(r) sh
13361 20221 m
(i) sh
13574 20221 m
(c) sh
14039 20221 m
(a) sh
14544 20221 m
(l) sh
14989 20221 m
(r) sh
15300 20221 m
(e) sh
15804 20221 m
(s) sh
16269 20221 m
(u) sh
16792 20221 m
(l) sh
17006 20221 m
(t) sh
7567 7619 7567 17722 26645 17722 26645 7619 clp
92.16 s
2 lc
0 lj
st [461] 0 sd
st
235 z x 7568 7620 m
18442 7620 l
18537 8024 l
18728 8529 l
19205 9034 l
19968 9640 l
20922 10448 l
21971 11155 l
23306 12337 l
24069 13004 l
24928 13681 l
25405 14357 l
25881 15024 l
26168 15701 l
26263 16378 l
26358 17044 l
26358 17721 l
26644 17721 l
23.04 s
0 lc
st [] 0 sd
1273 -0 8087 20175 1 235 bc
1773 45 8132 20175 1 235 bc
st gr end
showpage
