%!PS-Adobe-2.0 EPSF-2.0
%%Creator: TECPLOT
%%Pages:1
%%BoundingBox: 71 17 721 595
%%DocumentFonts: Helvetica Helvetica-Bold Symbol Times-Roman Times-Bold Times-Italic Times-BoldItalic Courier Courier-Bold
%%EndComments
%%BeginPreview: 128 128 1 128
% f8fc7e3f1f8fc7e3f1f0f87c3e1f0f87
% 00000000000000000000000000000001
% 00000000000000000000000000000001
% 81020408102040810102040810204081
% 83870e1c3870e0c383070e1c3870e1c3
% 81020408102040810102040810204081
% 80000000000000000000000000000000
% 80000000000000000000000000000001
% 80000000000000000000000000000001
% 00000000000000000000000000000001
% 00000000000000000000000000000001
% 81020408102040810102040810204081
% 83870e1c3870e0c383070e1c3870e1c3
% 81020408102040810102040810204081
% 80000000000000000000000000000000
% 80000000000000000000000000000000
% 80000000000000000000000000000000
% 80000000000000000000000000000001
% 80000000000000000000000000000001
% 81020408102040810102040810204081
% 83870e1c3870e0c383070e1c3870e1c3
% 81020408102040810102040810204081
% 00000000000000000000000000000001
% 00000000000000000000000000000000
% 80000000000000000000000000000000
% 80000000000000000000000000000000
% 80000000000000000000000000000000
% 81020408102040810102040810204081
% 83870e1c3870e0c383070e1c3870e1c3
% 81020408102040810102040810204081
% 00000000000000000000000000000001
% 000000000031dbf9d9c0000000000001
% 00000000007ffffbffc0000000000001
% 00000000007ffffbffc0000000000000
% 800001fff87ffffbffc0000000000000
% 81020408102040810102040810204081
% 83870e1c3870e0c383070e1c3870e1c3
% 81020408102040810102040810204081
% 80000000000000000000000000000001
% 800000000035cfa9f180000000000001
% 00000000007ffffbff80000000000001
% 000000e7707bfffbff80000000000001
% 00000000007bdffbff80000000000001
% 81020408102070810102040810204081
% 83870e1c3870e0c383070e1c3870e1c3
% 818e9c08102040810102040810204081
% 8dfd9c00000000000000000000000000
% 8dfc95ffffffffffffffffffffffff00
% 89bcf9ffffffffffffffffffffffff01
% 8dbcf9ffffffffffffffffffffffff01
% 018c01ffffffffffffffffffffffff01
% 810205ffffffffffffffffffffffff81
% 83870fffffffffffffffffffffffffc3
% 810205ffffffffffffffffffffffff81
% 800001ffffffffffffffffffffffff00
% 800001ffffffffffffffffffffffff00
% 800001ffffffffffffffffffffffff00
% 800001ffffffffffffffffffffffff00
% 800001ffffffffffffffffffffffff01
% 810205ffffffffffffffffffffffff81
% 83870fffffffffffffffffffffffffc3
% 810205ffffffffffffffffffffffff81
% 000001ffffffffffffffffffffffff01
% 000001ffffffffffffffffffffffff00
% 800001ffffffffffffffffffffffff00
% 800001ffffffffffffffffffffffff00
% 800001ffffffffffffffffffffffff00
% 810205ffffffffffffffffffffffff81
% 83870fffffffffffffffffffffffffc3
% 810205ffffffffffffffffffffffff81
% 0001d9ffffffffffffffffffffffff01
% 000159ffffffffffffffffffffffff01
% 000159ffffffffffffffffffffffff01
% 0001f9ffffffffffffffffffffffff01
% 800001ffffffffffffffffffffffff00
% 810205ffffffffffffffffffffffff81
% 83870fffffffffffffffffffffffffc3
% 810205ffffffffffffffffffffffff81
% 800001ffffffffffffffffffffffff01
% 800001ffffffffffffffffffffffff01
% 000001ffffffffffffffffffffffff01
% 000001ffffffffffffffffffffffff01
% 000001ffffffffffffffffffffffff01
% 810205ffffffffffffffffffffffff81
% 83870fffffffffffffffffffffffffc3
% 810205ffffffffffffffffffffffff81
% 800001ffffffffffffffffffffffff00
% 800001ffffffffffffffffffffffff00
% 800001ffffffffffffffffffffffff01
% 800001ffffffffffffffffffffffff01
% 810205ffffffffffffffffffffffff81
% 83870fffffffffffffffffffffffffc3
% 810205ffffffffffffffffffffffff81
% 000001ffffffffffffffffffffffff01
% 800099ffffffffffffffffffffffff00
% 8001d9ffffffffffffffffffffffff00
% 800155ffffffffffffffffffffffff00
% 80015c00000000000000000000000000
% 8001f800000000000000000000000001
% 810206e81026e08105e2040cf02046e1
% 83870ebc3876e0c387a70e1cf870ebe3
% 810206a81026e08105a2040cf02044a1
% 000007e00007e00005e00005e0000fe1
% 00000000000000000000000000000001
% 80000000000000000000000000000000
% 80000000000000000000000000000000
% 80000000000000000000000000003180
% 8102040810204081010204081021ff81
% 83870e1c3870e0c383070e1c3871ffc3
% 8102040810204081010204081021ff81
% 0000000000000000000000000001bf81
% 00000000000000000000000000003181
% 00000000000000000000000000000001
% 00000000000000000000000000000001
% 81020408102040810102040810204081
% 83870e1c3870e0c383070e1c3870e1c3
% 81020408102040810102040810204081
% 80000000000000000000000000000000
% 80000000000000000000000000000001
% 80000000000000000000000000000001
% 00000000000000000000000000000001
% 00000000000000000000000000000001
% 81020408102040810102040810204081
% 83870e1c3870e0c383070e1c3870e1c3
% 81020408102040810102040810204081
% 80000000000000000000000000000000
% 80000000000000000000000000000000
% 80000000000000000000000000000000
%%EndPreview
/tecplotdict 120 dict def
tecplotdict begin
/ed  {exch def} def
/ftl {findfont exch scalefont setfont} def
/ftr {/Times-Roman ftl} def
/ftb {/Times-Bold ftl} def
/fti {/Times-Italic ftl} def
/ftib {/Times-BoldItalic ftl} def
/fcr {/Courier ftl} def
/fcb {/Courier-Bold ftl} def
/fhn {/Helvetica ftl} def
/fhb {/Helvetica-Bold ftl} def
/fsy {/Symbol ftl} def
/gs /gsave load def
/gr /grestore load def
/np /newpath load def
/cp /closepath load def
/sg /setgray load def
/lc {stroke setlinecap} def
/lj /setlinejoin load def
/x /setrgbcolor load def
/y {x moveto} def
/g /get load def
/sd /setdash load def
/s {stroke setlinewidth} def
/cpt /currentpoint load def
/m {stroke moveto} def
/rm /rmoveto load def
/l /lineto load def
/r /rlineto load def
/sf /setflat load def
/st /stroke load def
/ct  {cpt st} def
/stg {st sg} def
/scg {cpt m sg} def
/ro /rotate load def
/sh /show load def
/clp {st cp gr gs np moveto l l l cp clip np cp} def
/dorect
{
/height ed
/width  ed
moveto
0 height r
width 0 r
0 height neg r
cp
} def
/er {st cp np dorect sg fill 0 sg cp} def
/erc {st cp np dorect x fill 0 sg cp} def
/br {st cp np dorect sg cp st} def
/brc {st cp np dorect x cp st} def
/ii 0 def
/n 0 def
/CurA 0 def
/Ry 0 def
/Rx 0 def
/CA 0 def
/SA 0 def
/SJ 0 def
/SI 0 def
/bi 0 def
/i 0 def
/ib 0 def
/ig 0 def
/ir 0 def
/ishade 0 def
/bshade 0 def

/z
{
/ii ed
rea ii get
gra ii get
bla ii get
} def

/lrgb
{
/ii ed
/blue ed
/green ed
/red ed
bla ii blue put
gra ii green put
rea ii red put
} def

/trace
{
cp np
m
1 1 n 
{
pop
r
} for
cp
} def

/f
{
/ishade ed
/n ed 
st
trace
ishade sg fill
} def

/b
{
/bshade ed
/n ed 
m
1 1 n 
{
pop
r
} for
bshade sg stroke
} def

/fb
{
/bshade ed
/ishade ed
/n ed 
st 
n 2 mul 2 add copy
trace
ishade sg fill
trace
bshade sg stroke
} def

/c
{
/n ed 
st 
trace
stroke
} def

/fc
{
/i ed
/n ed 
st 
trace
i z x fill
} def

/fd
{
/ib ed
/ig ed
/ir ed
/n ed 
st 
trace
ir ig ib x fill
} def

/bc
{
/i ed
/n ed 
m
1 1 n 
{
pop
r
} for
i z x stroke
} def

/fbc
{
/ii ed
/bi ed
/n ed 
st 
n 2 mul 2 add copy
trace
ii z x fill
trace
bi z x stroke
} def
/fbd
{
/ib ed
/ig ed
/ir ed
/bi ed
/n ed 
st 
n 2 mul 2 add copy
trace
ir ig ib x fill
trace
bi z x stroke
} def
/e
{
/Ry ed
/Rx ed
/CA ed
/SA ed
/SJ ed
/SI ed

/DelX SA cos Rx mul def
/DelY SA sin Ry mul def
/XI SI DelX add def
/YI SJ DelY add def
/OCX DelX def
/OCY DelY def
/N 0 def
SA CA add
CA
SA 360 add
{
/CurA ed
/CX CurA cos Rx mul def
/CY CurA sin Ry mul def
OCX CX sub 
OCY CY sub 
/OCX CX def
/OCY CY def
/N N 1 add def
}
for
XI YI N
} def
%%EndProlog
%%Page:? 1
/rea 254 array def
/gra 254 array def
/bla 254 array def
0 0 1 0 lrgb
0 0.0196 1 1 lrgb
0 0.0431 1 2 lrgb
0 0.0667 1 3 lrgb
0 0.0902 1 4 lrgb
0 0.11 1 5 lrgb
0 0.133 1 6 lrgb
0 0.157 1 7 lrgb
0 0.18 1 8 lrgb
0 0.204 1 9 lrgb
0 0.224 1 10 lrgb
0 0.247 1 11 lrgb
0 0.271 1 12 lrgb
0 0.294 1 13 lrgb
0 0.318 1 14 lrgb
0 0.337 1 15 lrgb
0 0.361 1 16 lrgb
0 0.384 1 17 lrgb
0 0.408 1 18 lrgb
0 0.431 1 19 lrgb
0 0.451 1 20 lrgb
0 0.475 1 21 lrgb
0 0.498 1 22 lrgb
0 0.522 1 23 lrgb
0 0.545 1 24 lrgb
0 0.565 1 25 lrgb
0 0.588 1 26 lrgb
0 0.612 1 27 lrgb
0 0.635 1 28 lrgb
0 0.659 1 29 lrgb
0 0.678 1 30 lrgb
0 0.702 1 31 lrgb
0 0.725 1 32 lrgb
0 0.749 1 33 lrgb
0 0.773 1 34 lrgb
0 0.792 1 35 lrgb
0 0.816 1 36 lrgb
0 0.839 1 37 lrgb
0 0.863 1 38 lrgb
0 0.886 1 39 lrgb
0 0.906 1 40 lrgb
0 0.929 1 41 lrgb
0 0.953 1 42 lrgb
0 0.976 1 43 lrgb
0 1 1 44 lrgb
0 1 0.976 45 lrgb
0 1 0.953 46 lrgb
0 1 0.929 47 lrgb
0 1 0.906 48 lrgb
0 1 0.886 49 lrgb
0 1 0.863 50 lrgb
0 1 0.839 51 lrgb
0 1 0.816 52 lrgb
0 1 0.792 53 lrgb
0 1 0.773 54 lrgb
0 1 0.749 55 lrgb
0 1 0.725 56 lrgb
0 1 0.702 57 lrgb
0 1 0.678 58 lrgb
0 1 0.659 59 lrgb
0 1 0.635 60 lrgb
0 1 0.612 61 lrgb
0 1 0.588 62 lrgb
0 1 0.565 63 lrgb
0 1 0.545 64 lrgb
0 1 0.522 65 lrgb
0 1 0.498 66 lrgb
0 1 0.475 67 lrgb
0 1 0.451 68 lrgb
0 1 0.431 69 lrgb
0 1 0.408 70 lrgb
0 1 0.384 71 lrgb
0 1 0.361 72 lrgb
0 1 0.337 73 lrgb
0 1 0.318 74 lrgb
0 1 0.294 75 lrgb
0 1 0.271 76 lrgb
0 1 0.247 77 lrgb
0 1 0.224 78 lrgb
0 1 0.204 79 lrgb
0 1 0.18 80 lrgb
0 1 0.157 81 lrgb
0 1 0.133 82 lrgb
0 1 0.11 83 lrgb
0 1 0.0902 84 lrgb
0 1 0.0667 85 lrgb
0 1 0.0431 86 lrgb
0 1 0.0196 87 lrgb
0 1 0 88 lrgb
0.0196 1 0 89 lrgb
0.0431 1 0 90 lrgb
0.0667 1 0 91 lrgb
0.0863 1 0 92 lrgb
0.11 1 0 93 lrgb
0.133 1 0 94 lrgb
0.153 1 0 95 lrgb
0.176 1 0 96 lrgb
0.2 1 0 97 lrgb
0.22 1 0 98 lrgb
0.243 1 0 99 lrgb
0.267 1 0 100 lrgb
0.286 1 0 101 lrgb
0.31 1 0 102 lrgb
0.333 1 0 103 lrgb
0.353 1 0 104 lrgb
0.376 1 0 105 lrgb
0.396 1 0 106 lrgb
0.42 1 0 107 lrgb
0.443 1 0 108 lrgb
0.463 1 0 109 lrgb
0.486 1 0 110 lrgb
0.51 1 0 111 lrgb
0.529 1 0 112 lrgb
0.553 1 0 113 lrgb
0.576 1 0 114 lrgb
0.6 1 0 115 lrgb
0.62 1 0 116 lrgb
0.643 1 0 117 lrgb
0.667 1 0 118 lrgb
0.686 1 0 119 lrgb
0.71 1 0 120 lrgb
0.733 1 0 121 lrgb
0.753 1 0 122 lrgb
0.776 1 0 123 lrgb
0.8 1 0 124 lrgb
0.82 1 0 125 lrgb
0.843 1 0 126 lrgb
0.867 1 0 127 lrgb
0.886 1 0 128 lrgb
0.91 1 0 129 lrgb
0.933 1 0 130 lrgb
0.953 1 0 131 lrgb
0.976 1 0 132 lrgb
1 1 0 133 lrgb
1 0.976 0 134 lrgb
1 0.953 0 135 lrgb
1 0.929 0 136 lrgb
1 0.906 0 137 lrgb
1 0.886 0 138 lrgb
1 0.863 0 139 lrgb
1 0.839 0 140 lrgb
1 0.816 0 141 lrgb
1 0.792 0 142 lrgb
1 0.773 0 143 lrgb
1 0.749 0 144 lrgb
1 0.725 0 145 lrgb
1 0.702 0 146 lrgb
1 0.678 0 147 lrgb
1 0.659 0 148 lrgb
1 0.635 0 149 lrgb
1 0.612 0 150 lrgb
1 0.588 0 151 lrgb
1 0.565 0 152 lrgb
1 0.545 0 153 lrgb
1 0.522 0 154 lrgb
1 0.498 0 155 lrgb
1 0.475 0 156 lrgb
1 0.451 0 157 lrgb
1 0.431 0 158 lrgb
1 0.408 0 159 lrgb
1 0.384 0 160 lrgb
1 0.361 0 161 lrgb
1 0.337 0 162 lrgb
1 0.318 0 163 lrgb
1 0.294 0 164 lrgb
1 0.271 0 165 lrgb
1 0.247 0 166 lrgb
1 0.224 0 167 lrgb
1 0.204 0 168 lrgb
1 0.18 0 169 lrgb
1 0.157 0 170 lrgb
1 0.133 0 171 lrgb
1 0.11 0 172 lrgb
1 0.0902 0 173 lrgb
1 0.0667 0 174 lrgb
1 0.0431 0 175 lrgb
1 0.0196 0 176 lrgb
1 0 0 177 lrgb
0 0 0 178 lrgb
0.0157 0.0157 0.0157 179 lrgb
0.0353 0.0353 0.0353 180 lrgb
0.051 0.051 0.051 181 lrgb
0.0706 0.0706 0.0706 182 lrgb
0.0863 0.0863 0.0863 183 lrgb
0.106 0.106 0.106 184 lrgb
0.122 0.122 0.122 185 lrgb
0.141 0.141 0.141 186 lrgb
0.157 0.157 0.157 187 lrgb
0.176 0.176 0.176 188 lrgb
0.196 0.196 0.196 189 lrgb
0.212 0.212 0.212 190 lrgb
0.231 0.231 0.231 191 lrgb
0.247 0.247 0.247 192 lrgb
0.267 0.267 0.267 193 lrgb
0.282 0.282 0.282 194 lrgb
0.302 0.302 0.302 195 lrgb
0.318 0.318 0.318 196 lrgb
0.337 0.337 0.337 197 lrgb
0.357 0.357 0.357 198 lrgb
0.373 0.373 0.373 199 lrgb
0.392 0.392 0.392 200 lrgb
0.408 0.408 0.408 201 lrgb
0.427 0.427 0.427 202 lrgb
0.443 0.443 0.443 203 lrgb
0.463 0.463 0.463 204 lrgb
0.478 0.478 0.478 205 lrgb
0.498 0.498 0.498 206 lrgb
0.518 0.518 0.518 207 lrgb
0.533 0.533 0.533 208 lrgb
0.553 0.553 0.553 209 lrgb
0.569 0.569 0.569 210 lrgb
0.588 0.588 0.588 211 lrgb
0.604 0.604 0.604 212 lrgb
0.624 0.624 0.624 213 lrgb
0.639 0.639 0.639 214 lrgb
0.659 0.659 0.659 215 lrgb
0.678 0.678 0.678 216 lrgb
0.694 0.694 0.694 217 lrgb
0.714 0.714 0.714 218 lrgb
0.729 0.729 0.729 219 lrgb
0.749 0.749 0.749 220 lrgb
0.765 0.765 0.765 221 lrgb
0.784 0.784 0.784 222 lrgb
0.8 0.8 0.8 223 lrgb
0.82 0.82 0.82 224 lrgb
0.839 0.839 0.839 225 lrgb
0.855 0.855 0.855 226 lrgb
0.875 0.875 0.875 227 lrgb
0.89 0.89 0.89 228 lrgb
0.91 0.91 0.91 229 lrgb
0.925 0.925 0.925 230 lrgb
0.945 0.945 0.945 231 lrgb
0.961 0.961 0.961 232 lrgb
0.98 0.98 0.98 233 lrgb
0.996 0.996 0.996 234 lrgb
0 0 0 235 lrgb
0.824 0 0 236 lrgb
0 0.824 0 237 lrgb
0.176 0.176 1 238 lrgb
0 1 1 239 lrgb
1 1 0.176 240 lrgb
1 0 1 241 lrgb
1 1 1 242 lrgb
0.333 0.333 0.333 243 lrgb
0.831 0.831 0.831 244 lrgb
1 0.498 0 245 lrgb
0.498 1 0 246 lrgb
0 1 0.498 247 lrgb
0 0.498 1 248 lrgb
0.498 0 1 249 lrgb
1 0 0.498 250 lrgb
0.549 0.549 0.549 251 lrgb
0.784 0.784 0.784 252 lrgb
0.706 0.0588 0.0588 253 lrgb
5 setmiterlimit
0.025 0.025 scale np
gs
0 s
2 lc
0 lj
st [] 0 sd
st
242 z x 2879 719 2879 23761 28801 23761 28801 719 clp
92.16 s
2 lc
0 lj
st [] 0 sd
235 z 7705 6347 19395 8919 brc
st
235 z x 0 lc
st
235 z x 7705 6346 m
7705 6807 l
23.04 s
st
235 z x 8674 6346 m
8674 6623 l
st
235 z x 9644 6346 m
9644 6623 l
st
235 z x 10614 6346 m
10614 6623 l
st
235 z x 11584 6346 m
11584 6623 l
92.16 s
st
235 z x 12553 6346 m
12553 6807 l
23.04 s
st
235 z x 13523 6346 m
13523 6623 l
st
235 z x 14493 6346 m
14493 6623 l
st
235 z x 15463 6346 m
15463 6623 l
st
235 z x 16432 6346 m
16432 6623 l
92.16 s
st
235 z x 17402 6346 m
17402 6807 l
23.04 s
st
235 z x 18372 6346 m
18372 6623 l
st
235 z x 19342 6346 m
19342 6623 l
st
235 z x 20311 6346 m
20311 6623 l
st
235 z x 21281 6346 m
21281 6623 l
92.16 s
st
235 z x 22251 6346 m
22251 6807 l
23.04 s
st
235 z x 23220 6346 m
23220 6623 l
st
235 z x 24190 6346 m
24190 6623 l
st
235 z x 25160 6346 m
25160 6623 l
st
235 z x 26130 6346 m
26130 6623 l
92.16 s
st
235 z x 27099 6346 m
27099 6807 l
11.52 s
2 lc
7062 5259 m
921.6 fhn
235 z x (0) sh
7580 5259 m
(.) sh
7830 5259 m
(0) sh
11910 5259 m
921.6 fhn
235 z x (0) sh
12429 5259 m
(.) sh
12678 5259 m
(5) sh
16759 5259 m
921.6 fhn
235 z x (1) sh
17277 5259 m
(.) sh
17527 5259 m
(0) sh
21608 5259 m
921.6 fhn
235 z x (1) sh
22126 5259 m
(.) sh
22376 5259 m
(5) sh
26456 5259 m
921.6 fhn
235 z x (2) sh
26975 5259 m
(.) sh
27224 5259 m
(0) sh
92.16 s
st
235 z x 7705 6346 m
27099 6346 l
st
235 z x 0 lc
st
235 z x 7704 6347 m
8165 6347 l
23.04 s
st
235 z x 7704 7238 m
7980 7238 l
st
235 z x 7704 8130 m
7980 8130 l
st
235 z x 7704 9022 m
7980 9022 l
st
235 z x 7704 9914 m
7980 9914 l
92.16 s
st
235 z x 7704 10806 m
8165 10806 l
23.04 s
st
235 z x 7704 11698 m
7980 11698 l
st
235 z x 7704 12590 m
7980 12590 l
st
235 z x 7704 13482 m
7980 13482 l
st
235 z x 7704 14374 m
7980 14374 l
92.16 s
st
235 z x 7704 15266 m
8165 15266 l
11.52 s
2 lc
5899 6033 m
921.6 fhn
235 z x (0) sh
6417 6033 m
(.) sh
6667 6033 m
(0) sh
5899 10493 m
921.6 fhn
235 z x (0) sh
6417 10493 m
(.) sh
6667 10493 m
(5) sh
5899 14952 m
921.6 fhn
235 z x (1) sh
6417 14952 m
(.) sh
6667 14952 m
(0) sh
92.16 s
st
235 z x 7704 6347 m
7704 15266 l
7704 6346 7704 15267 27100 15267 27100 6346 clp
-1035 -0 0 223 1035 -0 7705 6347 3 2 fc
0 106 490 -0 9285 6347 2 177 fc
545 -0 0 -223 -1035 -0 0 117 9776 6452 4 2 fc
-1035 -0 0 223 1035 -0 8740 6570 3 2 fc
-1035 -0 0 223 1035 -0 7705 6570 3 2 fc
-1035 -0 0 223 1035 -0 7705 6793 3 2 fc
-1035 -0 0 223 1035 -0 8740 6793 3 2 fc
-1035 -0 0 223 1035 -0 8740 7016 3 2 fc
-1035 -0 0 223 1035 -0 7705 7016 3 2 fc
-1035 -0 0 223 1035 -0 7705 7238 3 2 fc
-1035 -0 0 223 1035 -0 8740 7238 3 2 fc
-1035 -0 0 223 1035 -0 8740 7461 3 2 fc
-1035 -0 0 223 1035 -0 7705 7461 3 2 fc
-1035 -0 0 223 1035 -0 7705 7684 3 2 fc
-1035 -0 0 223 1035 -0 8740 7684 3 2 fc
-1035 -0 0 223 1035 -0 8740 7907 3 2 fc
-1035 -0 0 223 1035 -0 7705 7907 3 2 fc
-1035 -0 0 223 1035 -0 7705 8130 3 2 fc
-1035 -0 0 223 1035 -0 8740 8130 3 2 fc
-1035 -0 0 223 1035 -0 8740 8353 3 2 fc
-1035 -0 0 223 1035 -0 7705 8353 3 2 fc
-1035 -0 0 223 1035 -0 7705 8576 3 2 fc
-1035 -0 0 223 1035 -0 8740 8576 3 2 fc
-1035 -0 0 223 1035 -0 8740 8799 3 2 fc
-1035 -0 0 223 1035 -0 7705 8799 3 2 fc
-1035 -0 0 223 1035 -0 7705 9022 3 2 fc
-1035 -0 0 223 1035 -0 8740 9022 3 2 fc
-1035 -0 0 223 1035 -0 8740 9245 3 2 fc
-1035 -0 0 223 1035 -0 7705 9245 3 2 fc
-1035 -0 0 223 1035 -0 7705 9468 3 2 fc
-1035 -0 0 223 1035 -0 8740 9468 3 2 fc
-1035 -0 0 223 1035 -0 8740 9691 3 2 fc
-1035 -0 0 223 1035 -0 7705 9691 3 2 fc
-1035 -0 0 223 1035 -0 7705 9914 3 2 fc
-1035 -0 0 223 1035 -0 8740 9914 3 2 fc
-1035 -0 0 223 1035 -0 8740 10137 3 2 fc
-1035 -0 0 223 1035 -0 7705 10137 3 2 fc
-1035 -0 0 223 1035 -0 7705 10360 3 2 fc
-1035 -0 0 223 1035 -0 8740 10360 3 2 fc
-1035 -0 0 223 1035 -0 8740 10583 3 2 fc
-1035 -0 0 223 1035 -0 7705 10583 3 2 fc
-1035 -0 0 223 1035 -0 7705 10806 3 2 fc
-1035 -0 0 223 1035 -0 8740 10806 3 2 fc
-1035 -0 0 223 1035 -0 8740 11029 3 2 fc
-1035 -0 0 223 1035 -0 7705 11029 3 2 fc
-1035 -0 0 223 1035 -0 7705 11252 3 2 fc
-1035 -0 0 223 1035 -0 8740 11252 3 2 fc
-1035 -0 0 223 1035 -0 8740 11475 3 2 fc
-1035 -0 0 223 1035 -0 7705 11475 3 2 fc
-1035 -0 0 223 1035 -0 7705 11698 3 2 fc
-1035 -0 0 223 1035 -0 8740 11698 3 2 fc
-1035 -0 0 223 1035 -0 8740 11921 3 2 fc
-1035 -0 0 223 1035 -0 7705 11921 3 2 fc
-1035 -0 0 223 1035 -0 7705 12144 3 2 fc
-1035 -0 0 223 1035 -0 8740 12144 3 2 fc
-1035 -0 0 223 1035 -0 8740 12367 3 2 fc
-1035 -0 0 223 1035 -0 7705 12367 3 2 fc
-1035 -0 0 223 1035 -0 7705 12590 3 2 fc
-1035 -0 0 223 1035 -0 8740 12590 3 2 fc
-1035 -0 0 223 1035 -0 8740 12813 3 2 fc
-1035 -0 0 223 1035 -0 7705 12813 3 2 fc
-1035 -0 0 223 1035 -0 7705 13036 3 2 fc
-1035 -0 0 223 1035 -0 8740 13036 3 2 fc
-1035 -0 0 223 1035 -0 8740 13259 3 2 fc
-1035 -0 0 223 1035 -0 7705 13259 3 2 fc
-1035 -0 0 223 1035 -0 7705 13482 3 2 fc
-1035 -0 0 223 1035 -0 8740 13482 3 2 fc
-1035 -0 0 223 1035 -0 8740 13705 3 2 fc
-1035 -0 0 223 1035 -0 7705 13705 3 2 fc
-1035 -0 0 223 1035 -0 7705 13928 3 2 fc
-1035 -0 0 223 1035 -0 8740 13928 3 2 fc
-1035 -0 0 223 1035 -0 8740 14151 3 2 fc
-1035 -0 0 223 1035 -0 7705 14151 3 2 fc
-1035 -0 0 223 1035 -0 7705 14374 3 2 fc
-1035 -0 0 223 1035 -0 8740 14374 3 2 fc
-1035 -0 0 223 1035 -0 8740 14597 3 2 fc
-1035 -0 0 223 1035 -0 7705 14597 3 2 fc
-1035 -0 0 223 1035 -0 7705 14820 3 2 fc
-1035 -0 0 223 1035 -0 8740 14820 3 2 fc
-1035 -0 0 223 1035 -0 8740 15043 3 2 fc
-1035 -0 0 223 1035 -0 7705 15043 3 2 fc
-433 -0 0 223 941 -0 0 -106 9776 6452 4 177 fc
0 -117 -508 -0 10284 6570 2 2 fc
-941 -0 0 223 941 -0 10717 6347 3 177 fc
-429 -0 0 223 941 -0 0 -103 10717 6672 4 177 fc
0 -120 -513 -0 11230 6793 2 2 fc
0 103 433 -0 10284 6570 2 177 fc
508 -0 0 -223 -941 -0 0 120 10717 6672 4 2 fc
-941 -0 0 223 941 -0 9776 6793 3 2 fc
0 102 429 -0 11230 6793 2 177 fc
513 -0 0 -223 -941 -0 0 121 11658 6894 4 2 fc
-941 -0 0 223 941 -0 10717 7016 3 2 fc
-941 -0 0 223 941 -0 9776 7016 3 2 fc
-941 -0 0 223 941 -0 9776 7238 3 2 fc
-941 -0 0 223 941 -0 10717 7238 3 2 fc
-941 -0 0 223 941 -0 10717 7461 3 2 fc
-941 -0 0 223 941 -0 9776 7461 3 2 fc
-941 -0 0 223 941 -0 9776 7684 3 2 fc
-941 -0 0 223 941 -0 10717 7684 3 2 fc
-941 -0 0 223 941 -0 10717 7907 3 2 fc
-941 -0 0 223 941 -0 9776 7907 3 2 fc
-941 -0 0 223 941 -0 9776 8130 3 2 fc
-941 -0 0 223 941 -0 10717 8130 3 2 fc
-941 -0 0 223 941 -0 10717 8353 3 2 fc
-941 -0 0 223 941 -0 9776 8353 3 2 fc
-941 -0 0 223 941 -0 9776 8576 3 2 fc
-941 -0 0 223 941 -0 10717 8576 3 2 fc
-941 -0 0 223 941 -0 10717 8799 3 2 fc
-941 -0 0 223 941 -0 9776 8799 3 2 fc
-941 -0 0 223 941 -0 9776 9022 3 2 fc
-941 -0 0 223 941 -0 10717 9022 3 2 fc
-941 -0 0 223 941 -0 10717 9245 3 2 fc
-941 -0 0 223 941 -0 9776 9245 3 2 fc
-941 -0 0 223 941 -0 9776 9468 3 2 fc
-941 -0 0 223 941 -0 10717 9468 3 2 fc
-941 -0 0 223 941 -0 10717 9691 3 2 fc
-941 -0 0 223 941 -0 9776 9691 3 2 fc
-941 -0 0 223 941 -0 9776 9914 3 2 fc
-941 -0 0 223 941 -0 10717 9914 3 2 fc
-941 -0 0 223 941 -0 10717 10137 3 2 fc
-941 -0 0 223 941 -0 9776 10137 3 2 fc
-941 -0 0 223 941 -0 9776 10360 3 2 fc
-941 -0 0 223 941 -0 10717 10360 3 2 fc
-941 -0 0 223 941 -0 10717 10583 3 2 fc
-941 -0 0 223 941 -0 9776 10583 3 2 fc
-941 -0 0 223 941 -0 9776 10806 3 2 fc
-941 -0 0 223 941 -0 10717 10806 3 2 fc
-941 -0 0 223 941 -0 10717 11029 3 2 fc
-941 -0 0 223 941 -0 9776 11029 3 2 fc
-941 -0 0 223 941 -0 9776 11252 3 2 fc
-941 -0 0 223 941 -0 10717 11252 3 2 fc
-941 -0 0 223 941 -0 10717 11475 3 2 fc
-941 -0 0 223 941 -0 9776 11475 3 2 fc
-941 -0 0 223 941 -0 9776 11698 3 2 fc
-941 -0 0 223 941 -0 10717 11698 3 2 fc
-941 -0 0 223 941 -0 10717 11921 3 2 fc
-941 -0 0 223 941 -0 9776 11921 3 2 fc
-941 -0 0 223 941 -0 9776 12144 3 2 fc
-941 -0 0 223 941 -0 10717 12144 3 2 fc
-941 -0 0 223 941 -0 10717 12367 3 2 fc
-941 -0 0 223 941 -0 9776 12367 3 2 fc
-941 -0 0 223 941 -0 9776 12590 3 2 fc
-941 -0 0 223 941 -0 10717 12590 3 2 fc
-941 -0 0 223 941 -0 10717 12813 3 2 fc
-941 -0 0 223 941 -0 9776 12813 3 2 fc
-941 -0 0 223 941 -0 9776 13036 3 2 fc
-941 -0 0 223 941 -0 10717 13036 3 2 fc
-941 -0 0 223 941 -0 10717 13259 3 2 fc
-941 -0 0 223 941 -0 9776 13259 3 2 fc
-941 -0 0 223 941 -0 9776 13482 3 2 fc
-941 -0 0 223 941 -0 10717 13482 3 2 fc
-941 -0 0 223 941 -0 10717 13705 3 2 fc
-941 -0 0 223 941 -0 9776 13705 3 2 fc
-941 -0 0 223 941 -0 9776 13928 3 2 fc
-941 -0 0 223 941 -0 10717 13928 3 2 fc
-941 -0 0 223 941 -0 10717 14151 3 2 fc
-941 -0 0 223 941 -0 9776 14151 3 2 fc
-941 -0 0 223 941 -0 9776 14374 3 2 fc
-941 -0 0 223 941 -0 10717 14374 3 2 fc
-941 -0 0 223 941 -0 10717 14597 3 2 fc
-941 -0 0 223 941 -0 9776 14597 3 2 fc
-941 -0 0 223 941 -0 9776 14820 3 2 fc
-941 -0 0 223 941 -0 10717 14820 3 2 fc
-941 -0 0 223 941 -0 10717 15043 3 2 fc
-941 -0 0 223 941 -0 9776 15043 3 2 fc
-856 -0 0 223 856 -0 11658 6347 3 177 fc
-856 -0 0 223 856 -0 12514 6347 3 177 fc
-856 -0 0 223 856 -0 12514 6570 3 177 fc
-856 -0 0 223 856 -0 11658 6570 3 177 fc
-386 -0 0 223 856 -0 0 -102 11658 6894 4 177 fc
0 -121 -470 -0 12128 7016 2 2 fc
-856 -0 0 223 856 -0 12514 6793 3 177 fc
-382 -0 0 223 856 -0 0 -101 12514 7116 4 177 fc
0 -122 -474 -0 12988 7238 2 2 fc
0 101 386 -0 12128 7016 2 177 fc
470 -0 0 -223 -856 -0 0 122 12514 7116 4 2 fc
-856 -0 0 223 856 -0 11658 7238 3 2 fc
0 99 382 -0 12988 7238 2 177 fc
474 -0 0 -223 -856 -0 0 124 13370 7338 4 2 fc
-856 -0 0 223 856 -0 12514 7461 3 2 fc
-856 -0 0 223 856 -0 11658 7461 3 2 fc
-856 -0 0 223 856 -0 11658 7684 3 2 fc
-856 -0 0 223 856 -0 12514 7684 3 2 fc
-856 -0 0 223 856 -0 12514 7907 3 2 fc
-856 -0 0 223 856 -0 11658 7907 3 2 fc
-856 -0 0 223 856 -0 11658 8130 3 2 fc
-856 -0 0 223 856 -0 12514 8130 3 2 fc
-856 -0 0 223 856 -0 12514 8353 3 2 fc
-856 -0 0 223 856 -0 11658 8353 3 2 fc
-856 -0 0 223 856 -0 11658 8576 3 2 fc
-856 -0 0 223 856 -0 12514 8576 3 2 fc
-856 -0 0 223 856 -0 12514 8799 3 2 fc
-856 -0 0 223 856 -0 11658 8799 3 2 fc
-856 -0 0 223 856 -0 11658 9022 3 2 fc
-856 -0 0 223 856 -0 12514 9022 3 2 fc
-856 -0 0 223 856 -0 12514 9245 3 2 fc
-856 -0 0 223 856 -0 11658 9245 3 2 fc
-856 -0 0 223 856 -0 11658 9468 3 2 fc
-856 -0 0 223 856 -0 12514 9468 3 2 fc
-856 -0 0 223 856 -0 12514 9691 3 2 fc
-856 -0 0 223 856 -0 11658 9691 3 2 fc
-856 -0 0 223 856 -0 11658 9914 3 2 fc
-856 -0 0 223 856 -0 12514 9914 3 2 fc
-856 -0 0 223 856 -0 12514 10137 3 2 fc
-856 -0 0 223 856 -0 11658 10137 3 2 fc
-856 -0 0 223 856 -0 11658 10360 3 2 fc
-856 -0 0 223 856 -0 12514 10360 3 2 fc
-856 -0 0 223 856 -0 12514 10583 3 2 fc
-856 -0 0 223 856 -0 11658 10583 3 2 fc
-856 -0 0 223 856 -0 11658 10806 3 2 fc
-856 -0 0 223 856 -0 12514 10806 3 2 fc
-856 -0 0 223 856 -0 12514 11029 3 2 fc
-856 -0 0 223 856 -0 11658 11029 3 2 fc
-856 -0 0 223 856 -0 11658 11252 3 2 fc
-856 -0 0 223 856 -0 12514 11252 3 2 fc
-856 -0 0 223 856 -0 12514 11475 3 2 fc
-856 -0 0 223 856 -0 11658 11475 3 2 fc
-856 -0 0 223 856 -0 11658 11698 3 2 fc
-856 -0 0 223 856 -0 12514 11698 3 2 fc
-856 -0 0 223 856 -0 12514 11921 3 2 fc
-856 -0 0 223 856 -0 11658 11921 3 2 fc
-856 -0 0 223 856 -0 11658 12144 3 2 fc
-856 -0 0 223 856 -0 12514 12144 3 2 fc
-856 -0 0 223 856 -0 12514 12367 3 2 fc
-856 -0 0 223 856 -0 11658 12367 3 2 fc
-856 -0 0 223 856 -0 11658 12590 3 2 fc
-856 -0 0 223 856 -0 12514 12590 3 2 fc
-856 -0 0 223 856 -0 12514 12813 3 2 fc
-856 -0 0 223 856 -0 11658 12813 3 2 fc
-856 -0 0 223 856 -0 11658 13036 3 2 fc
-856 -0 0 223 856 -0 12514 13036 3 2 fc
-856 -0 0 223 856 -0 12514 13259 3 2 fc
-856 -0 0 223 856 -0 11658 13259 3 2 fc
-856 -0 0 223 856 -0 11658 13482 3 2 fc
-856 -0 0 223 856 -0 12514 13482 3 2 fc
-856 -0 0 223 856 -0 12514 13705 3 2 fc
-856 -0 0 223 856 -0 11658 13705 3 2 fc
-856 -0 0 223 856 -0 11658 13928 3 2 fc
-856 -0 0 223 856 -0 12514 13928 3 2 fc
-856 -0 0 223 856 -0 12514 14151 3 2 fc
-856 -0 0 223 856 -0 11658 14151 3 2 fc
-856 -0 0 223 856 -0 11658 14374 3 2 fc
-856 -0 0 223 856 -0 12514 14374 3 2 fc
-856 -0 0 223 856 -0 12514 14597 3 2 fc
-856 -0 0 223 856 -0 11658 14597 3 2 fc
-856 -0 0 223 856 -0 11658 14820 3 2 fc
-856 -0 0 223 856 -0 12514 14820 3 2 fc
-856 -0 0 223 856 -0 12514 15043 3 2 fc
-856 -0 0 223 856 -0 11658 15043 3 2 fc
-778 -0 0 223 778 -0 13370 6347 3 177 fc
-778 -0 0 223 778 -0 14148 6347 3 177 fc
-778 -0 0 223 778 -0 14148 6570 3 177 fc
-778 -0 0 223 778 -0 13370 6570 3 177 fc
-778 -0 0 223 778 -0 13370 6793 3 177 fc
-778 -0 0 223 778 -0 14148 6793 3 177 fc
-778 -0 0 223 778 -0 14148 7016 3 177 fc
-778 -0 0 223 778 -0 13370 7016 3 177 fc
-339 -0 0 223 778 -0 0 -99 13370 7338 4 177 fc
0 -124 -439 -0 13809 7461 2 2 fc
-778 -0 0 223 778 -0 14148 7238 3 177 fc
-327 -0 0 223 778 -0 0 -97 14148 7559 4 177 fc
0 -126 -451 -0 14599 7684 2 2 fc
0 97 339 -0 13809 7461 2 177 fc
439 -0 0 -223 -778 -0 0 126 14148 7559 4 2 fc
-778 -0 0 223 778 -0 13370 7684 3 2 fc
0 94 327 -0 14599 7684 2 177 fc
451 -0 0 -223 -778 -0 0 129 14926 7778 4 2 fc
-778 -0 0 223 778 -0 14148 7907 3 2 fc
-778 -0 0 223 778 -0 13370 7907 3 2 fc
-778 -0 0 223 778 -0 13370 8130 3 2 fc
-778 -0 0 223 778 -0 14148 8130 3 2 fc
-778 -0 0 223 778 -0 14148 8353 3 2 fc
-778 -0 0 223 778 -0 13370 8353 3 2 fc
-778 -0 0 223 778 -0 13370 8576 3 2 fc
-778 -0 0 223 778 -0 14148 8576 3 2 fc
-778 -0 0 223 778 -0 14148 8799 3 2 fc
-778 -0 0 223 778 -0 13370 8799 3 2 fc
-778 -0 0 223 778 -0 13370 9022 3 2 fc
-778 -0 0 223 778 -0 14148 9022 3 2 fc
-778 -0 0 223 778 -0 14148 9245 3 2 fc
-778 -0 0 223 778 -0 13370 9245 3 2 fc
-778 -0 0 223 778 -0 13370 9468 3 2 fc
-778 -0 0 223 778 -0 14148 9468 3 2 fc
-778 -0 0 223 778 -0 14148 9691 3 2 fc
-778 -0 0 223 778 -0 13370 9691 3 2 fc
-778 -0 0 223 778 -0 13370 9914 3 2 fc
-778 -0 0 223 778 -0 14148 9914 3 2 fc
-778 -0 0 223 778 -0 14148 10137 3 2 fc
-778 -0 0 223 778 -0 13370 10137 3 2 fc
-778 -0 0 223 778 -0 13370 10360 3 2 fc
-778 -0 0 223 778 -0 14148 10360 3 2 fc
-778 -0 0 223 778 -0 14148 10583 3 2 fc
-778 -0 0 223 778 -0 13370 10583 3 2 fc
-778 -0 0 223 778 -0 13370 10806 3 2 fc
-778 -0 0 223 778 -0 14148 10806 3 2 fc
-778 -0 0 223 778 -0 14148 11029 3 2 fc
-778 -0 0 223 778 -0 13370 11029 3 2 fc
-778 -0 0 223 778 -0 13370 11252 3 2 fc
-778 -0 0 223 778 -0 14148 11252 3 2 fc
-778 -0 0 223 778 -0 14148 11475 3 2 fc
-778 -0 0 223 778 -0 13370 11475 3 2 fc
-778 -0 0 223 778 -0 13370 11698 3 2 fc
-778 -0 0 223 778 -0 14148 11698 3 2 fc
-778 -0 0 223 778 -0 14148 11921 3 2 fc
-778 -0 0 223 778 -0 13370 11921 3 2 fc
-778 -0 0 223 778 -0 13370 12144 3 2 fc
-778 -0 0 223 778 -0 14148 12144 3 2 fc
-778 -0 0 223 778 -0 14148 12367 3 2 fc
-778 -0 0 223 778 -0 13370 12367 3 2 fc
-778 -0 0 223 778 -0 13370 12590 3 2 fc
-778 -0 0 223 778 -0 14148 12590 3 2 fc
-778 -0 0 223 778 -0 14148 12813 3 2 fc
-778 -0 0 223 778 -0 13370 12813 3 2 fc
-778 -0 0 223 778 -0 13370 13036 3 2 fc
-778 -0 0 223 778 -0 14148 13036 3 2 fc
-778 -0 0 223 778 -0 14148 13259 3 2 fc
-778 -0 0 223 778 -0 13370 13259 3 2 fc
-778 -0 0 223 778 -0 13370 13482 3 2 fc
-778 -0 0 223 778 -0 14148 13482 3 2 fc
-778 -0 0 223 778 -0 14148 13705 3 2 fc
-778 -0 0 223 778 -0 13370 13705 3 2 fc
-778 -0 0 223 778 -0 13370 13928 3 2 fc
-778 -0 0 223 778 -0 14148 13928 3 2 fc
-778 -0 0 223 778 -0 14148 14151 3 2 fc
-778 -0 0 223 778 -0 13370 14151 3 2 fc
-778 -0 0 223 778 -0 13370 14374 3 2 fc
-778 -0 0 223 778 -0 14148 14374 3 2 fc
-778 -0 0 223 778 -0 14148 14597 3 2 fc
-778 -0 0 223 778 -0 13370 14597 3 2 fc
-778 -0 0 223 778 -0 13370 14820 3 2 fc
-778 -0 0 223 778 -0 14148 14820 3 2 fc
-778 -0 0 223 778 -0 14148 15043 3 2 fc
-778 -0 0 223 778 -0 13370 15043 3 2 fc
-707 -0 0 223 707 -0 14926 6347 3 177 fc
-707 -0 0 223 707 -0 15633 6347 3 177 fc
-707 -0 0 223 707 -0 15633 6570 3 177 fc
-707 -0 0 223 707 -0 14926 6570 3 177 fc
-707 -0 0 223 707 -0 14926 6793 3 177 fc
-707 -0 0 223 707 -0 15633 6793 3 177 fc
-707 -0 0 223 707 -0 15633 7016 3 177 fc
-707 -0 0 223 707 -0 14926 7016 3 177 fc
-707 -0 0 223 707 -0 14926 7238 3 177 fc
-707 -0 0 223 707 -0 15633 7238 3 177 fc
-707 -0 0 223 707 -0 15633 7461 3 177 fc
-707 -0 0 223 707 -0 14926 7461 3 177 fc
-276 -0 0 223 707 -0 0 -94 14926 7778 4 177 fc
0 -129 -432 -0 15358 7907 2 2 fc
-707 -0 0 223 707 -0 15633 7684 3 177 fc
-238 -0 0 223 707 -0 0 -87 15633 7994 4 177 fc
0 -136 -469 -0 16102 8130 2 2 fc
0 87 276 -0 15358 7907 2 177 fc
432 -0 0 -223 -707 -0 0 136 15633 7994 4 2 fc
-707 -0 0 223 707 -0 14926 8130 3 2 fc
0 75 238 -0 16102 8130 2 177 fc
469 -0 0 -223 -707 -0 0 148 16340 8206 4 2 fc
-707 -0 0 223 707 -0 15633 8353 3 2 fc
-707 -0 0 223 707 -0 14926 8353 3 2 fc
-707 -0 0 223 707 -0 14926 8576 3 2 fc
-707 -0 0 223 707 -0 15633 8576 3 2 fc
-707 -0 0 223 707 -0 15633 8799 3 2 fc
-707 -0 0 223 707 -0 14926 8799 3 2 fc
-707 -0 0 223 707 -0 14926 9022 3 2 fc
-707 -0 0 223 707 -0 15633 9022 3 2 fc
-707 -0 0 223 707 -0 15633 9245 3 2 fc
-707 -0 0 223 707 -0 14926 9245 3 2 fc
-707 -0 0 223 707 -0 14926 9468 3 2 fc
-707 -0 0 223 707 -0 15633 9468 3 2 fc
-707 -0 0 223 707 -0 15633 9691 3 2 fc
-707 -0 0 223 707 -0 14926 9691 3 2 fc
-707 -0 0 223 707 -0 14926 9914 3 2 fc
-707 -0 0 223 707 -0 15633 9914 3 2 fc
-707 -0 0 223 707 -0 15633 10137 3 2 fc
-707 -0 0 223 707 -0 14926 10137 3 2 fc
-707 -0 0 223 707 -0 14926 10360 3 2 fc
-707 -0 0 223 707 -0 15633 10360 3 2 fc
-707 -0 0 223 707 -0 15633 10583 3 2 fc
-707 -0 0 223 707 -0 14926 10583 3 2 fc
-707 -0 0 223 707 -0 14926 10806 3 2 fc
-707 -0 0 223 707 -0 15633 10806 3 2 fc
-707 -0 0 223 707 -0 15633 11029 3 2 fc
-707 -0 0 223 707 -0 14926 11029 3 2 fc
-707 -0 0 223 707 -0 14926 11252 3 2 fc
-707 -0 0 223 707 -0 15633 11252 3 2 fc
-707 -0 0 223 707 -0 15633 11475 3 2 fc
-707 -0 0 223 707 -0 14926 11475 3 2 fc
-707 -0 0 223 707 -0 14926 11698 3 2 fc
-707 -0 0 223 707 -0 15633 11698 3 2 fc
-707 -0 0 223 707 -0 15633 11921 3 2 fc
-707 -0 0 223 707 -0 14926 11921 3 2 fc
-707 -0 0 223 707 -0 14926 12144 3 2 fc
-707 -0 0 223 707 -0 15633 12144 3 2 fc
-707 -0 0 223 707 -0 15633 12367 3 2 fc
-707 -0 0 223 707 -0 14926 12367 3 2 fc
-707 -0 0 223 707 -0 14926 12590 3 2 fc
-707 -0 0 223 707 -0 15633 12590 3 2 fc
-707 -0 0 223 707 -0 15633 12813 3 2 fc
-707 -0 0 223 707 -0 14926 12813 3 2 fc
-707 -0 0 223 707 -0 14926 13036 3 2 fc
-707 -0 0 223 707 -0 15633 13036 3 2 fc
-707 -0 0 223 707 -0 15633 13259 3 2 fc
-707 -0 0 223 707 -0 14926 13259 3 2 fc
-707 -0 0 223 707 -0 14926 13482 3 2 fc
-707 -0 0 223 707 -0 15633 13482 3 2 fc
-707 -0 0 223 707 -0 15633 13705 3 2 fc
-707 -0 0 223 707 -0 14926 13705 3 2 fc
-707 -0 0 223 707 -0 14926 13928 3 2 fc
-707 -0 0 223 707 -0 15633 13928 3 2 fc
-707 -0 0 223 707 -0 15633 14151 3 2 fc
-707 -0 0 223 707 -0 14926 14151 3 2 fc
-707 -0 0 223 707 -0 14926 14374 3 2 fc
-707 -0 0 223 707 -0 15633 14374 3 2 fc
-707 -0 0 223 707 -0 15633 14597 3 2 fc
-707 -0 0 223 707 -0 14926 14597 3 2 fc
-707 -0 0 223 707 -0 14926 14820 3 2 fc
-707 -0 0 223 707 -0 15633 14820 3 2 fc
-707 -0 0 223 707 -0 15633 15043 3 2 fc
-707 -0 0 223 707 -0 14926 15043 3 2 fc
-643 -0 0 223 643 -0 16340 6347 3 177 fc
-643 -0 0 223 643 -0 16983 6347 3 177 fc
-643 -0 0 223 643 -0 16983 6570 3 177 fc
-643 -0 0 223 643 -0 16340 6570 3 177 fc
-643 -0 0 223 643 -0 16340 6793 3 177 fc
-643 -0 0 223 643 -0 16983 6793 3 177 fc
-643 -0 0 223 643 -0 16983 7016 3 177 fc
-643 -0 0 223 643 -0 16340 7016 3 177 fc
-643 -0 0 223 643 -0 16340 7238 3 177 fc
-643 -0 0 223 643 -0 16983 7238 3 177 fc
-643 -0 0 223 643 -0 16983 7461 3 177 fc
-643 -0 0 223 643 -0 16340 7461 3 177 fc
-643 -0 0 223 643 -0 16340 7684 3 177 fc
-643 -0 0 223 643 -0 16983 7684 3 177 fc
-643 -0 0 223 643 -0 16983 7907 3 177 fc
-643 -0 0 223 643 -0 16340 7907 3 177 fc
-127 -0 0 223 643 -0 0 -75 16340 8206 4 177 fc
0 -148 -516 -0 16857 8353 2 2 fc
-643 -0 0 223 643 -0 16983 8130 3 177 fc
0 189 643 -0 0 -44 16983 8397 3 177 fc
0 -179 -643 -0 0 34 17626 8542 3 2 fc
0 44 127 -0 16857 8353 2 177 fc
516 -0 0 -223 -643 -0 0 179 16983 8397 4 2 fc
-643 -0 0 223 643 -0 16340 8576 3 2 fc
-643 -0 0 223 643 -0 16983 8576 3 2 fc
-643 -0 0 223 643 -0 16983 8799 3 2 fc
-643 -0 0 223 643 -0 16340 8799 3 2 fc
-643 -0 0 223 643 -0 16340 9022 3 2 fc
-643 -0 0 223 643 -0 16983 9022 3 2 fc
-643 -0 0 223 643 -0 16983 9245 3 2 fc
-643 -0 0 223 643 -0 16340 9245 3 2 fc
-643 -0 0 223 643 -0 16340 9468 3 2 fc
-643 -0 0 223 643 -0 16983 9468 3 2 fc
-643 -0 0 223 643 -0 16983 9691 3 2 fc
-643 -0 0 223 643 -0 16340 9691 3 2 fc
-643 -0 0 223 643 -0 16340 9914 3 2 fc
-643 -0 0 223 643 -0 16983 9914 3 2 fc
-643 -0 0 223 643 -0 16983 10137 3 2 fc
-643 -0 0 223 643 -0 16340 10137 3 2 fc
-643 -0 0 223 643 -0 16340 10360 3 2 fc
-643 -0 0 223 643 -0 16983 10360 3 2 fc
-643 -0 0 223 643 -0 16983 10583 3 2 fc
-643 -0 0 223 643 -0 16340 10583 3 2 fc
-643 -0 0 223 643 -0 16340 10806 3 2 fc
-643 -0 0 223 643 -0 16983 10806 3 2 fc
-643 -0 0 223 643 -0 16983 11029 3 2 fc
-643 -0 0 223 643 -0 16340 11029 3 2 fc
-643 -0 0 223 643 -0 16340 11252 3 2 fc
-643 -0 0 223 643 -0 16983 11252 3 2 fc
-643 -0 0 223 643 -0 16983 11475 3 2 fc
-643 -0 0 223 643 -0 16340 11475 3 2 fc
-643 -0 0 223 643 -0 16340 11698 3 2 fc
-643 -0 0 223 643 -0 16983 11698 3 2 fc
-643 -0 0 223 643 -0 16983 11921 3 2 fc
-643 -0 0 223 643 -0 16340 11921 3 2 fc
-643 -0 0 223 643 -0 16340 12144 3 2 fc
-643 -0 0 223 643 -0 16983 12144 3 2 fc
-643 -0 0 223 643 -0 16983 12367 3 2 fc
-643 -0 0 223 643 -0 16340 12367 3 2 fc
-643 -0 0 223 643 -0 16340 12590 3 2 fc
-643 -0 0 223 643 -0 16983 12590 3 2 fc
-643 -0 0 223 643 -0 16983 12813 3 2 fc
-643 -0 0 223 643 -0 16340 12813 3 2 fc
-643 -0 0 223 643 -0 16340 13036 3 2 fc
-643 -0 0 223 643 -0 16983 13036 3 2 fc
-643 -0 0 223 643 -0 16983 13259 3 2 fc
-643 -0 0 223 643 -0 16340 13259 3 2 fc
-643 -0 0 223 643 -0 16340 13482 3 2 fc
-643 -0 0 223 643 -0 16983 13482 3 2 fc
-643 -0 0 223 643 -0 16983 13705 3 2 fc
-643 -0 0 223 643 -0 16340 13705 3 2 fc
-643 -0 0 223 643 -0 16340 13928 3 2 fc
-643 -0 0 223 643 -0 16983 13928 3 2 fc
-643 -0 0 223 643 -0 16983 14151 3 2 fc
-643 -0 0 223 643 -0 16340 14151 3 2 fc
-643 -0 0 223 643 -0 16340 14374 3 2 fc
-643 -0 0 223 643 -0 16983 14374 3 2 fc
-643 -0 0 223 643 -0 16983 14597 3 2 fc
-643 -0 0 223 643 -0 16340 14597 3 2 fc
-643 -0 0 223 643 -0 16340 14820 3 2 fc
-643 -0 0 223 643 -0 16983 14820 3 2 fc
-643 -0 0 223 643 -0 16983 15043 3 2 fc
-643 -0 0 223 643 -0 16340 15043 3 2 fc
-585 -0 0 223 585 -0 17626 6347 3 177 fc
-585 -0 0 223 585 -0 18211 6347 3 177 fc
-585 -0 0 223 585 -0 18211 6570 3 177 fc
-585 -0 0 223 585 -0 17626 6570 3 177 fc
-585 -0 0 223 585 -0 17626 6793 3 177 fc
-585 -0 0 223 585 -0 18211 6793 3 177 fc
-585 -0 0 223 585 -0 18211 7016 3 177 fc
-585 -0 0 223 585 -0 17626 7016 3 177 fc
-585 -0 0 223 585 -0 17626 7238 3 177 fc
-585 -0 0 223 585 -0 18211 7238 3 177 fc
-585 -0 0 223 585 -0 18211 7461 3 177 fc
-585 -0 0 223 585 -0 17626 7461 3 177 fc
-585 -0 0 223 585 -0 17626 7684 3 177 fc
-585 -0 0 223 585 -0 18211 7684 3 177 fc
-585 -0 0 223 585 -0 18211 7907 3 177 fc
-585 -0 0 223 585 -0 17626 7907 3 177 fc
-585 -0 0 223 585 -0 17626 8130 3 177 fc
-585 -0 0 223 585 -0 18211 8130 3 177 fc
-585 -0 0 223 585 -0 18211 8353 3 177 fc
-494 -0 0 223 585 -0 0 -189 17626 8542 4 177 fc
0 -34 -91 -0 17717 8576 2 2 fc
0 119 494 -0 17717 8576 2 177 fc
91 -0 0 -223 -585 -0 0 104 18211 8695 4 2 fc
-308 -0 0 223 585 -0 0 -119 18211 8695 4 177 fc
0 -104 -277 -0 18488 8799 2 2 fc
0 109 308 -0 18488 8799 2 177 fc
277 -0 0 -223 -585 -0 0 114 18795 8908 4 2 fc
-585 -0 0 223 585 -0 17626 8799 3 2 fc
-585 -0 0 223 585 -0 17626 9022 3 2 fc
-585 -0 0 223 585 -0 18211 9022 3 2 fc
-585 -0 0 223 585 -0 18211 9245 3 2 fc
-585 -0 0 223 585 -0 17626 9245 3 2 fc
-585 -0 0 223 585 -0 17626 9468 3 2 fc
-585 -0 0 223 585 -0 18211 9468 3 2 fc
-585 -0 0 223 585 -0 18211 9691 3 2 fc
-585 -0 0 223 585 -0 17626 9691 3 2 fc
-585 -0 0 223 585 -0 17626 9914 3 2 fc
-585 -0 0 223 585 -0 18211 9914 3 2 fc
-585 -0 0 223 585 -0 18211 10137 3 2 fc
-585 -0 0 223 585 -0 17626 10137 3 2 fc
-585 -0 0 223 585 -0 17626 10360 3 2 fc
-585 -0 0 223 585 -0 18211 10360 3 2 fc
-585 -0 0 223 585 -0 18211 10583 3 2 fc
-585 -0 0 223 585 -0 17626 10583 3 2 fc
-585 -0 0 223 585 -0 17626 10806 3 2 fc
-585 -0 0 223 585 -0 18211 10806 3 2 fc
-585 -0 0 223 585 -0 18211 11029 3 2 fc
-585 -0 0 223 585 -0 17626 11029 3 2 fc
-585 -0 0 223 585 -0 17626 11252 3 2 fc
-585 -0 0 223 585 -0 18211 11252 3 2 fc
-585 -0 0 223 585 -0 18211 11475 3 2 fc
-585 -0 0 223 585 -0 17626 11475 3 2 fc
-585 -0 0 223 585 -0 17626 11698 3 2 fc
-585 -0 0 223 585 -0 18211 11698 3 2 fc
-585 -0 0 223 585 -0 18211 11921 3 2 fc
-585 -0 0 223 585 -0 17626 11921 3 2 fc
-585 -0 0 223 585 -0 17626 12144 3 2 fc
-585 -0 0 223 585 -0 18211 12144 3 2 fc
-585 -0 0 223 585 -0 18211 12367 3 2 fc
-585 -0 0 223 585 -0 17626 12367 3 2 fc
-585 -0 0 223 585 -0 17626 12590 3 2 fc
-585 -0 0 223 585 -0 18211 12590 3 2 fc
-585 -0 0 223 585 -0 18211 12813 3 2 fc
-585 -0 0 223 585 -0 17626 12813 3 2 fc
-585 -0 0 223 585 -0 17626 13036 3 2 fc
-585 -0 0 223 585 -0 18211 13036 3 2 fc
-585 -0 0 223 585 -0 18211 13259 3 2 fc
-585 -0 0 223 585 -0 17626 13259 3 2 fc
-585 -0 0 223 585 -0 17626 13482 3 2 fc
-585 -0 0 223 585 -0 18211 13482 3 2 fc
-585 -0 0 223 585 -0 18211 13705 3 2 fc
-585 -0 0 223 585 -0 17626 13705 3 2 fc
-585 -0 0 223 585 -0 17626 13928 3 2 fc
-585 -0 0 223 585 -0 18211 13928 3 2 fc
-585 -0 0 223 585 -0 18211 14151 3 2 fc
-585 -0 0 223 585 -0 17626 14151 3 2 fc
-585 -0 0 223 585 -0 17626 14374 3 2 fc
-585 -0 0 223 585 -0 18211 14374 3 2 fc
-585 -0 0 223 585 -0 18211 14597 3 2 fc
-585 -0 0 223 585 -0 17626 14597 3 2 fc
-585 -0 0 223 585 -0 17626 14820 3 2 fc
-585 -0 0 223 585 -0 18211 14820 3 2 fc
-585 -0 0 223 585 -0 18211 15043 3 2 fc
-585 -0 0 223 585 -0 17626 15043 3 2 fc
-531 -0 0 223 531 -0 18795 6347 3 177 fc
-531 -0 0 223 531 -0 19327 6347 3 177 fc
-531 -0 0 223 531 -0 19327 6570 3 177 fc
-531 -0 0 223 531 -0 18795 6570 3 177 fc
-531 -0 0 223 531 -0 18795 6793 3 177 fc
-531 -0 0 223 531 -0 19327 6793 3 177 fc
-531 -0 0 223 531 -0 19327 7016 3 177 fc
-531 -0 0 223 531 -0 18795 7016 3 177 fc
-531 -0 0 223 531 -0 18795 7238 3 177 fc
-531 -0 0 223 531 -0 19327 7238 3 177 fc
-531 -0 0 223 531 -0 19327 7461 3 177 fc
-531 -0 0 223 531 -0 18795 7461 3 177 fc
-531 -0 0 223 531 -0 18795 7684 3 177 fc
-531 -0 0 223 531 -0 19327 7684 3 177 fc
-531 -0 0 223 531 -0 19327 7907 3 177 fc
-531 -0 0 223 531 -0 18795 7907 3 177 fc
-531 -0 0 223 531 -0 18795 8130 3 177 fc
-531 -0 0 223 531 -0 19327 8130 3 177 fc
-531 -0 0 223 531 -0 19327 8353 3 177 fc
-531 -0 0 223 531 -0 18795 8353 3 177 fc
-531 -0 0 223 531 -0 18795 8576 3 177 fc
-531 -0 0 223 531 -0 19327 8576 3 177 fc
-531 -0 0 223 531 -0 19327 8799 3 177 fc
-250 -0 0 223 531 -0 0 -109 18795 8908 4 177 fc
0 -114 -281 -0 19077 9022 2 2 fc
0 105 250 -0 19077 9022 2 177 fc
281 -0 0 -223 -531 -0 0 118 19327 9127 4 2 fc
-229 -0 0 223 531 -0 0 -105 19327 9127 4 177 fc
0 -118 -302 -0 19629 9245 2 2 fc
0 96 229 -0 19629 9245 2 177 fc
302 -0 0 -223 -531 -0 0 127 19858 9342 4 2 fc
-531 -0 0 223 531 -0 18795 9245 3 2 fc
-531 -0 0 223 531 -0 18795 9468 3 2 fc
-531 -0 0 223 531 -0 19327 9468 3 2 fc
-531 -0 0 223 531 -0 19327 9691 3 2 fc
-531 -0 0 223 531 -0 18795 9691 3 2 fc
-531 -0 0 223 531 -0 18795 9914 3 2 fc
-531 -0 0 223 531 -0 19327 9914 3 2 fc
-531 -0 0 223 531 -0 19327 10137 3 2 fc
-531 -0 0 223 531 -0 18795 10137 3 2 fc
-531 -0 0 223 531 -0 18795 10360 3 2 fc
-531 -0 0 223 531 -0 19327 10360 3 2 fc
-531 -0 0 223 531 -0 19327 10583 3 2 fc
-531 -0 0 223 531 -0 18795 10583 3 2 fc
-531 -0 0 223 531 -0 18795 10806 3 2 fc
-531 -0 0 223 531 -0 19327 10806 3 2 fc
-531 -0 0 223 531 -0 19327 11029 3 2 fc
-531 -0 0 223 531 -0 18795 11029 3 2 fc
-531 -0 0 223 531 -0 18795 11252 3 2 fc
-531 -0 0 223 531 -0 19327 11252 3 2 fc
-531 -0 0 223 531 -0 19327 11475 3 2 fc
-531 -0 0 223 531 -0 18795 11475 3 2 fc
-531 -0 0 223 531 -0 18795 11698 3 2 fc
-531 -0 0 223 531 -0 19327 11698 3 2 fc
-531 -0 0 223 531 -0 19327 11921 3 2 fc
-531 -0 0 223 531 -0 18795 11921 3 2 fc
-531 -0 0 223 531 -0 18795 12144 3 2 fc
-531 -0 0 223 531 -0 19327 12144 3 2 fc
-531 -0 0 223 531 -0 19327 12367 3 2 fc
-531 -0 0 223 531 -0 18795 12367 3 2 fc
-531 -0 0 223 531 -0 18795 12590 3 2 fc
-531 -0 0 223 531 -0 19327 12590 3 2 fc
-531 -0 0 223 531 -0 19327 12813 3 2 fc
-531 -0 0 223 531 -0 18795 12813 3 2 fc
-531 -0 0 223 531 -0 18795 13036 3 2 fc
-531 -0 0 223 531 -0 19327 13036 3 2 fc
-531 -0 0 223 531 -0 19327 13259 3 2 fc
-531 -0 0 223 531 -0 18795 13259 3 2 fc
-531 -0 0 223 531 -0 18795 13482 3 2 fc
-531 -0 0 223 531 -0 19327 13482 3 2 fc
-531 -0 0 223 531 -0 19327 13705 3 2 fc
-531 -0 0 223 531 -0 18795 13705 3 2 fc
-531 -0 0 223 531 -0 18795 13928 3 2 fc
-531 -0 0 223 531 -0 19327 13928 3 2 fc
-531 -0 0 223 531 -0 19327 14151 3 2 fc
-531 -0 0 223 531 -0 18795 14151 3 2 fc
-531 -0 0 223 531 -0 18795 14374 3 2 fc
-531 -0 0 223 531 -0 19327 14374 3 2 fc
-531 -0 0 223 531 -0 19327 14597 3 2 fc
-531 -0 0 223 531 -0 18795 14597 3 2 fc
-531 -0 0 223 531 -0 18795 14820 3 2 fc
-531 -0 0 223 531 -0 19327 14820 3 2 fc
-531 -0 0 223 531 -0 19327 15043 3 2 fc
-531 -0 0 223 531 -0 18795 15043 3 2 fc
-483 -0 0 223 483 -0 19858 6347 3 177 fc
-483 -0 0 223 483 -0 20341 6347 3 177 fc
-483 -0 0 223 483 -0 20341 6570 3 177 fc
-483 -0 0 223 483 -0 19858 6570 3 177 fc
-483 -0 0 223 483 -0 19858 6793 3 177 fc
-483 -0 0 223 483 -0 20341 6793 3 177 fc
-483 -0 0 223 483 -0 20341 7016 3 177 fc
-483 -0 0 223 483 -0 19858 7016 3 177 fc
-483 -0 0 223 483 -0 19858 7238 3 177 fc
-483 -0 0 223 483 -0 20341 7238 3 177 fc
-483 -0 0 223 483 -0 20341 7461 3 177 fc
-483 -0 0 223 483 -0 19858 7461 3 177 fc
-483 -0 0 223 483 -0 19858 7684 3 177 fc
-483 -0 0 223 483 -0 20341 7684 3 177 fc
-483 -0 0 223 483 -0 20341 7907 3 177 fc
-483 -0 0 223 483 -0 19858 7907 3 177 fc
-483 -0 0 223 483 -0 19858 8130 3 177 fc
-483 -0 0 223 483 -0 20341 8130 3 177 fc
-483 -0 0 223 483 -0 20341 8353 3 177 fc
-483 -0 0 223 483 -0 19858 8353 3 177 fc
-483 -0 0 223 483 -0 19858 8576 3 177 fc
-483 -0 0 223 483 -0 20341 8576 3 177 fc
-483 -0 0 223 483 -0 20341 8799 3 177 fc
-483 -0 0 223 483 -0 19858 8799 3 177 fc
-483 -0 0 223 483 -0 19858 9022 3 177 fc
-483 -0 0 223 483 -0 20341 9022 3 177 fc
-483 -0 0 223 483 -0 20341 9245 3 177 fc
-163 -0 0 223 483 -0 0 -96 19858 9342 4 177 fc
0 -127 -320 -0 20178 9468 2 2 fc
0 75 163 -0 20178 9468 2 177 fc
320 -0 0 -223 -483 -0 0 148 20341 9543 4 2 fc
0 221 483 -0 0 -75 20341 9543 3 177 fc
0 -148 -483 -0 0 2 20824 9689 3 2 fc
-483 -0 0 223 483 -0 20341 9691 3 2 fc
-483 -0 0 223 483 -0 19858 9691 3 2 fc
-483 -0 0 223 483 -0 19858 9914 3 2 fc
-483 -0 0 223 483 -0 20341 9914 3 2 fc
-483 -0 0 223 483 -0 20341 10137 3 2 fc
-483 -0 0 223 483 -0 19858 10137 3 2 fc
-483 -0 0 223 483 -0 19858 10360 3 2 fc
-483 -0 0 223 483 -0 20341 10360 3 2 fc
-483 -0 0 223 483 -0 20341 10583 3 2 fc
-483 -0 0 223 483 -0 19858 10583 3 2 fc
-483 -0 0 223 483 -0 19858 10806 3 2 fc
-483 -0 0 223 483 -0 20341 10806 3 2 fc
-483 -0 0 223 483 -0 20341 11029 3 2 fc
-483 -0 0 223 483 -0 19858 11029 3 2 fc
-483 -0 0 223 483 -0 19858 11252 3 2 fc
-483 -0 0 223 483 -0 20341 11252 3 2 fc
-483 -0 0 223 483 -0 20341 11475 3 2 fc
-483 -0 0 223 483 -0 19858 11475 3 2 fc
-483 -0 0 223 483 -0 19858 11698 3 2 fc
-483 -0 0 223 483 -0 20341 11698 3 2 fc
-483 -0 0 223 483 -0 20341 11921 3 2 fc
-483 -0 0 223 483 -0 19858 11921 3 2 fc
-483 -0 0 223 483 -0 19858 12144 3 2 fc
-483 -0 0 223 483 -0 20341 12144 3 2 fc
-483 -0 0 223 483 -0 20341 12367 3 2 fc
-483 -0 0 223 483 -0 19858 12367 3 2 fc
-483 -0 0 223 483 -0 19858 12590 3 2 fc
-483 -0 0 223 483 -0 20341 12590 3 2 fc
-483 -0 0 223 483 -0 20341 12813 3 2 fc
-483 -0 0 223 483 -0 19858 12813 3 2 fc
-483 -0 0 223 483 -0 19858 13036 3 2 fc
-483 -0 0 223 483 -0 20341 13036 3 2 fc
-483 -0 0 223 483 -0 20341 13259 3 2 fc
-483 -0 0 223 483 -0 19858 13259 3 2 fc
-483 -0 0 223 483 -0 19858 13482 3 2 fc
-483 -0 0 223 483 -0 20341 13482 3 2 fc
-483 -0 0 223 483 -0 20341 13705 3 2 fc
-483 -0 0 223 483 -0 19858 13705 3 2 fc
-483 -0 0 223 483 -0 19858 13928 3 2 fc
-483 -0 0 223 483 -0 20341 13928 3 2 fc
-483 -0 0 223 483 -0 20341 14151 3 2 fc
-483 -0 0 223 483 -0 19858 14151 3 2 fc
-483 -0 0 223 483 -0 19858 14374 3 2 fc
-483 -0 0 223 483 -0 20341 14374 3 2 fc
-483 -0 0 223 483 -0 20341 14597 3 2 fc
-483 -0 0 223 483 -0 19858 14597 3 2 fc
-483 -0 0 223 483 -0 19858 14820 3 2 fc
-483 -0 0 223 483 -0 20341 14820 3 2 fc
-483 -0 0 223 483 -0 20341 15043 3 2 fc
-483 -0 0 223 483 -0 19858 15043 3 2 fc
-439 -0 0 223 439 -0 20824 6347 3 177 fc
-439 -0 0 223 439 -0 21263 6347 3 177 fc
-439 -0 0 223 439 -0 21263 6570 3 177 fc
-439 -0 0 223 439 -0 20824 6570 3 177 fc
-439 -0 0 223 439 -0 20824 6793 3 177 fc
-439 -0 0 223 439 -0 21263 6793 3 177 fc
-439 -0 0 223 439 -0 21263 7016 3 177 fc
-439 -0 0 223 439 -0 20824 7016 3 177 fc
-439 -0 0 223 439 -0 20824 7238 3 177 fc
-439 -0 0 223 439 -0 21263 7238 3 177 fc
-439 -0 0 223 439 -0 21263 7461 3 177 fc
-439 -0 0 223 439 -0 20824 7461 3 177 fc
-439 -0 0 223 439 -0 20824 7684 3 177 fc
-439 -0 0 223 439 -0 21263 7684 3 177 fc
-439 -0 0 223 439 -0 21263 7907 3 177 fc
-439 -0 0 223 439 -0 20824 7907 3 177 fc
-439 -0 0 223 439 -0 20824 8130 3 177 fc
-439 -0 0 223 439 -0 21263 8130 3 177 fc
-439 -0 0 223 439 -0 21263 8353 3 177 fc
-439 -0 0 223 439 -0 20824 8353 3 177 fc
-439 -0 0 223 439 -0 20824 8576 3 177 fc
-439 -0 0 223 439 -0 21263 8576 3 177 fc
-439 -0 0 223 439 -0 21263 8799 3 177 fc
-439 -0 0 223 439 -0 20824 8799 3 177 fc
-439 -0 0 223 439 -0 20824 9022 3 177 fc
-439 -0 0 223 439 -0 21263 9022 3 177 fc
-439 -0 0 223 439 -0 21263 9245 3 177 fc
-439 -0 0 223 439 -0 20824 9245 3 177 fc
-435 -0 0 223 439 -0 0 -221 20824 9689 4 177 fc
0 -2 -4 -0 20829 9691 2 2 fc
-439 -0 0 223 439 -0 21263 9468 3 177 fc
-215 -0 0 223 439 -0 0 -113 21263 9804 4 177 fc
0 -110 -224 -0 21487 9914 2 2 fc
0 113 435 -0 20829 9691 2 177 fc
4 -0 0 -223 -439 -0 0 110 21263 9804 4 2 fc
-439 -0 0 223 439 -0 20824 9914 3 2 fc
0 107 215 -0 21487 9914 2 177 fc
224 -0 0 -223 -439 -0 0 116 21703 10021 4 2 fc
-439 -0 0 223 439 -0 21263 10137 3 2 fc
-439 -0 0 223 439 -0 20824 10137 3 2 fc
-439 -0 0 223 439 -0 20824 10360 3 2 fc
-439 -0 0 223 439 -0 21263 10360 3 2 fc
-439 -0 0 223 439 -0 21263 10583 3 2 fc
-439 -0 0 223 439 -0 20824 10583 3 2 fc
-439 -0 0 223 439 -0 20824 10806 3 2 fc
-439 -0 0 223 439 -0 21263 10806 3 2 fc
-439 -0 0 223 439 -0 21263 11029 3 2 fc
-439 -0 0 223 439 -0 20824 11029 3 2 fc
-439 -0 0 223 439 -0 20824 11252 3 2 fc
-439 -0 0 223 439 -0 21263 11252 3 2 fc
-439 -0 0 223 439 -0 21263 11475 3 2 fc
-439 -0 0 223 439 -0 20824 11475 3 2 fc
-439 -0 0 223 439 -0 20824 11698 3 2 fc
-439 -0 0 223 439 -0 21263 11698 3 2 fc
-439 -0 0 223 439 -0 21263 11921 3 2 fc
-439 -0 0 223 439 -0 20824 11921 3 2 fc
-439 -0 0 223 439 -0 20824 12144 3 2 fc
-439 -0 0 223 439 -0 21263 12144 3 2 fc
-439 -0 0 223 439 -0 21263 12367 3 2 fc
-439 -0 0 223 439 -0 20824 12367 3 2 fc
-439 -0 0 223 439 -0 20824 12590 3 2 fc
-439 -0 0 223 439 -0 21263 12590 3 2 fc
-439 -0 0 223 439 -0 21263 12813 3 2 fc
-439 -0 0 223 439 -0 20824 12813 3 2 fc
-439 -0 0 223 439 -0 20824 13036 3 2 fc
-439 -0 0 223 439 -0 21263 13036 3 2 fc
-439 -0 0 223 439 -0 21263 13259 3 2 fc
-439 -0 0 223 439 -0 20824 13259 3 2 fc
-439 -0 0 223 439 -0 20824 13482 3 2 fc
-439 -0 0 223 439 -0 21263 13482 3 2 fc
-439 -0 0 223 439 -0 21263 13705 3 2 fc
-439 -0 0 223 439 -0 20824 13705 3 2 fc
-439 -0 0 223 439 -0 20824 13928 3 2 fc
-439 -0 0 223 439 -0 21263 13928 3 2 fc
-439 -0 0 223 439 -0 21263 14151 3 2 fc
-439 -0 0 223 439 -0 20824 14151 3 2 fc
-439 -0 0 223 439 -0 20824 14374 3 2 fc
-439 -0 0 223 439 -0 21263 14374 3 2 fc
-439 -0 0 223 439 -0 21263 14597 3 2 fc
-439 -0 0 223 439 -0 20824 14597 3 2 fc
-439 -0 0 223 439 -0 20824 14820 3 2 fc
-439 -0 0 223 439 -0 21263 14820 3 2 fc
-439 -0 0 223 439 -0 21263 15043 3 2 fc
-439 -0 0 223 439 -0 20824 15043 3 2 fc
-399 -0 0 223 399 -0 21703 6347 3 177 fc
-399 -0 0 223 399 -0 22102 6347 3 177 fc
-399 -0 0 223 399 -0 22102 6570 3 177 fc
-399 -0 0 223 399 -0 21703 6570 3 177 fc
-399 -0 0 223 399 -0 21703 6793 3 177 fc
-399 -0 0 223 399 -0 22102 6793 3 177 fc
-399 -0 0 223 399 -0 22102 7016 3 177 fc
-399 -0 0 223 399 -0 21703 7016 3 177 fc
-399 -0 0 223 399 -0 21703 7238 3 177 fc
-399 -0 0 223 399 -0 22102 7238 3 177 fc
-399 -0 0 223 399 -0 22102 7461 3 177 fc
-399 -0 0 223 399 -0 21703 7461 3 177 fc
-399 -0 0 223 399 -0 21703 7684 3 177 fc
-399 -0 0 223 399 -0 22102 7684 3 177 fc
-399 -0 0 223 399 -0 22102 7907 3 177 fc
-399 -0 0 223 399 -0 21703 7907 3 177 fc
-399 -0 0 223 399 -0 21703 8130 3 177 fc
-399 -0 0 223 399 -0 22102 8130 3 177 fc
-399 -0 0 223 399 -0 22102 8353 3 177 fc
-399 -0 0 223 399 -0 21703 8353 3 177 fc
-399 -0 0 223 399 -0 21703 8576 3 177 fc
-399 -0 0 223 399 -0 22102 8576 3 177 fc
-399 -0 0 223 399 -0 22102 8799 3 177 fc
-399 -0 0 223 399 -0 21703 8799 3 177 fc
-399 -0 0 223 399 -0 21703 9022 3 177 fc
-399 -0 0 223 399 -0 22102 9022 3 177 fc
-399 -0 0 223 399 -0 22102 9245 3 177 fc
-399 -0 0 223 399 -0 21703 9245 3 177 fc
-399 -0 0 223 399 -0 21703 9468 3 177 fc
-399 -0 0 223 399 -0 22102 9468 3 177 fc
-399 -0 0 223 399 -0 22102 9691 3 177 fc
-399 -0 0 223 399 -0 21703 9691 3 177 fc
-167 -0 0 223 399 -0 0 -107 21703 10021 4 177 fc
0 -116 -232 -0 21935 10137 2 2 fc
-399 -0 0 223 399 -0 22102 9914 3 177 fc
-94 -0 0 223 399 -0 0 -93 22102 10231 4 177 fc
0 -130 -305 -0 22407 10360 2 2 fc
0 93 167 -0 21935 10137 2 177 fc
232 -0 0 -223 -399 -0 0 130 22102 10231 4 2 fc
-399 -0 0 223 399 -0 21703 10360 3 2 fc
0 52 94 -0 22407 10360 2 177 fc
305 -0 0 -223 -399 -0 0 171 22501 10413 4 2 fc
-399 -0 0 223 399 -0 22102 10583 3 2 fc
-399 -0 0 223 399 -0 21703 10583 3 2 fc
-399 -0 0 223 399 -0 21703 10806 3 2 fc
-399 -0 0 223 399 -0 22102 10806 3 2 fc
-399 -0 0 223 399 -0 22102 11029 3 2 fc
-399 -0 0 223 399 -0 21703 11029 3 2 fc
-399 -0 0 223 399 -0 21703 11252 3 2 fc
-399 -0 0 223 399 -0 22102 11252 3 2 fc
-399 -0 0 223 399 -0 22102 11475 3 2 fc
-399 -0 0 223 399 -0 21703 11475 3 2 fc
-399 -0 0 223 399 -0 21703 11698 3 2 fc
-399 -0 0 223 399 -0 22102 11698 3 2 fc
-399 -0 0 223 399 -0 22102 11921 3 2 fc
-399 -0 0 223 399 -0 21703 11921 3 2 fc
-399 -0 0 223 399 -0 21703 12144 3 2 fc
-399 -0 0 223 399 -0 22102 12144 3 2 fc
-399 -0 0 223 399 -0 22102 12367 3 2 fc
-399 -0 0 223 399 -0 21703 12367 3 2 fc
-399 -0 0 223 399 -0 21703 12590 3 2 fc
-399 -0 0 223 399 -0 22102 12590 3 2 fc
-399 -0 0 223 399 -0 22102 12813 3 2 fc
-399 -0 0 223 399 -0 21703 12813 3 2 fc
-399 -0 0 223 399 -0 21703 13036 3 2 fc
-399 -0 0 223 399 -0 22102 13036 3 2 fc
-399 -0 0 223 399 -0 22102 13259 3 2 fc
-399 -0 0 223 399 -0 21703 13259 3 2 fc
-399 -0 0 223 399 -0 21703 13482 3 2 fc
-399 -0 0 223 399 -0 22102 13482 3 2 fc
-399 -0 0 223 399 -0 22102 13705 3 2 fc
-399 -0 0 223 399 -0 21703 13705 3 2 fc
-399 -0 0 223 399 -0 21703 13928 3 2 fc
-399 -0 0 223 399 -0 22102 13928 3 2 fc
-399 -0 0 223 399 -0 22102 14151 3 2 fc
-399 -0 0 223 399 -0 21703 14151 3 2 fc
-399 -0 0 223 399 -0 21703 14374 3 2 fc
-399 -0 0 223 399 -0 22102 14374 3 2 fc
-399 -0 0 223 399 -0 22102 14597 3 2 fc
-399 -0 0 223 399 -0 21703 14597 3 2 fc
-399 -0 0 223 399 -0 21703 14820 3 2 fc
-399 -0 0 223 399 -0 22102 14820 3 2 fc
-399 -0 0 223 399 -0 22102 15043 3 2 fc
-399 -0 0 223 399 -0 21703 15043 3 2 fc
-363 -0 0 223 363 -0 22501 6347 3 177 fc
-363 -0 0 223 363 -0 22864 6347 3 177 fc
-363 -0 0 223 363 -0 22864 6570 3 177 fc
-363 -0 0 223 363 -0 22501 6570 3 177 fc
-363 -0 0 223 363 -0 22501 6793 3 177 fc
-363 -0 0 223 363 -0 22864 6793 3 177 fc
-363 -0 0 223 363 -0 22864 7016 3 177 fc
-363 -0 0 223 363 -0 22501 7016 3 177 fc
-363 -0 0 223 363 -0 22501 7238 3 177 fc
-363 -0 0 223 363 -0 22864 7238 3 177 fc
-363 -0 0 223 363 -0 22864 7461 3 177 fc
-363 -0 0 223 363 -0 22501 7461 3 177 fc
-363 -0 0 223 363 -0 22501 7684 3 177 fc
-363 -0 0 223 363 -0 22864 7684 3 177 fc
-363 -0 0 223 363 -0 22864 7907 3 177 fc
-363 -0 0 223 363 -0 22501 7907 3 177 fc
-363 -0 0 223 363 -0 22501 8130 3 177 fc
-363 -0 0 223 363 -0 22864 8130 3 177 fc
-363 -0 0 223 363 -0 22864 8353 3 177 fc
-363 -0 0 223 363 -0 22501 8353 3 177 fc
-363 -0 0 223 363 -0 22501 8576 3 177 fc
-363 -0 0 223 363 -0 22864 8576 3 177 fc
-363 -0 0 223 363 -0 22864 8799 3 177 fc
-363 -0 0 223 363 -0 22501 8799 3 177 fc
-363 -0 0 223 363 -0 22501 9022 3 177 fc
-363 -0 0 223 363 -0 22864 9022 3 177 fc
-363 -0 0 223 363 -0 22864 9245 3 177 fc
-363 -0 0 223 363 -0 22501 9245 3 177 fc
-363 -0 0 223 363 -0 22501 9468 3 177 fc
-363 -0 0 223 363 -0 22864 9468 3 177 fc
-363 -0 0 223 363 -0 22864 9691 3 177 fc
-363 -0 0 223 363 -0 22501 9691 3 177 fc
-363 -0 0 223 363 -0 22501 9914 3 177 fc
-363 -0 0 223 363 -0 22864 9914 3 177 fc
-363 -0 0 223 363 -0 22864 10137 3 177 fc
-363 -0 0 223 363 -0 22501 10137 3 177 fc
0 138 363 -0 0 -52 22501 10413 3 177 fc
0 -171 -363 -0 0 85 22864 10498 3 2 fc
-219 -0 0 223 363 -0 0 -138 22864 10498 4 177 fc
0 -85 -144 -0 23008 10583 2 2 fc
0 107 219 -0 23008 10583 2 177 fc
144 -0 0 -223 -363 -0 0 115 23227 10691 4 2 fc
-363 -0 0 223 363 -0 22501 10583 3 2 fc
-363 -0 0 223 363 -0 22501 10806 3 2 fc
-363 -0 0 223 363 -0 22864 10806 3 2 fc
-363 -0 0 223 363 -0 22864 11029 3 2 fc
-363 -0 0 223 363 -0 22501 11029 3 2 fc
-363 -0 0 223 363 -0 22501 11252 3 2 fc
-363 -0 0 223 363 -0 22864 11252 3 2 fc
-363 -0 0 223 363 -0 22864 11475 3 2 fc
-363 -0 0 223 363 -0 22501 11475 3 2 fc
-363 -0 0 223 363 -0 22501 11698 3 2 fc
-363 -0 0 223 363 -0 22864 11698 3 2 fc
-363 -0 0 223 363 -0 22864 11921 3 2 fc
-363 -0 0 223 363 -0 22501 11921 3 2 fc
-363 -0 0 223 363 -0 22501 12144 3 2 fc
-363 -0 0 223 363 -0 22864 12144 3 2 fc
-363 -0 0 223 363 -0 22864 12367 3 2 fc
-363 -0 0 223 363 -0 22501 12367 3 2 fc
-363 -0 0 223 363 -0 22501 12590 3 2 fc
-363 -0 0 223 363 -0 22864 12590 3 2 fc
-363 -0 0 223 363 -0 22864 12813 3 2 fc
-363 -0 0 223 363 -0 22501 12813 3 2 fc
-363 -0 0 223 363 -0 22501 13036 3 2 fc
-363 -0 0 223 363 -0 22864 13036 3 2 fc
-363 -0 0 223 363 -0 22864 13259 3 2 fc
-363 -0 0 223 363 -0 22501 13259 3 2 fc
-363 -0 0 223 363 -0 22501 13482 3 2 fc
-363 -0 0 223 363 -0 22864 13482 3 2 fc
-363 -0 0 223 363 -0 22864 13705 3 2 fc
-363 -0 0 223 363 -0 22501 13705 3 2 fc
-363 -0 0 223 363 -0 22501 13928 3 2 fc
-363 -0 0 223 363 -0 22864 13928 3 2 fc
-363 -0 0 223 363 -0 22864 14151 3 2 fc
-363 -0 0 223 363 -0 22501 14151 3 2 fc
-363 -0 0 223 363 -0 22501 14374 3 2 fc
-363 -0 0 223 363 -0 22864 14374 3 2 fc
-363 -0 0 223 363 -0 22864 14597 3 2 fc
-363 -0 0 223 363 -0 22501 14597 3 2 fc
-363 -0 0 223 363 -0 22501 14820 3 2 fc
-363 -0 0 223 363 -0 22864 14820 3 2 fc
-363 -0 0 223 363 -0 22864 15043 3 2 fc
-363 -0 0 223 363 -0 22501 15043 3 2 fc
-330 -0 0 223 330 -0 23227 6347 3 177 fc
-330 -0 0 223 330 -0 23557 6347 3 177 fc
-330 -0 0 223 330 -0 23557 6570 3 177 fc
-330 -0 0 223 330 -0 23227 6570 3 177 fc
-330 -0 0 223 330 -0 23227 6793 3 177 fc
-330 -0 0 223 330 -0 23557 6793 3 177 fc
-330 -0 0 223 330 -0 23557 7016 3 177 fc
-330 -0 0 223 330 -0 23227 7016 3 177 fc
-330 -0 0 223 330 -0 23227 7238 3 177 fc
-330 -0 0 223 330 -0 23557 7238 3 177 fc
-330 -0 0 223 330 -0 23557 7461 3 177 fc
-330 -0 0 223 330 -0 23227 7461 3 177 fc
-330 -0 0 223 330 -0 23227 7684 3 177 fc
-330 -0 0 223 330 -0 23557 7684 3 177 fc
-330 -0 0 223 330 -0 23557 7907 3 177 fc
-330 -0 0 223 330 -0 23227 7907 3 177 fc
-330 -0 0 223 330 -0 23227 8130 3 177 fc
-330 -0 0 223 330 -0 23557 8130 3 177 fc
-330 -0 0 223 330 -0 23557 8353 3 177 fc
-330 -0 0 223 330 -0 23227 8353 3 177 fc
-330 -0 0 223 330 -0 23227 8576 3 177 fc
-330 -0 0 223 330 -0 23557 8576 3 177 fc
-330 -0 0 223 330 -0 23557 8799 3 177 fc
-330 -0 0 223 330 -0 23227 8799 3 177 fc
-330 -0 0 223 330 -0 23227 9022 3 177 fc
-330 -0 0 223 330 -0 23557 9022 3 177 fc
-330 -0 0 223 330 -0 23557 9245 3 177 fc
-330 -0 0 223 330 -0 23227 9245 3 177 fc
-330 -0 0 223 330 -0 23227 9468 3 177 fc
-330 -0 0 223 330 -0 23557 9468 3 177 fc
-330 -0 0 223 330 -0 23557 9691 3 177 fc
-330 -0 0 223 330 -0 23227 9691 3 177 fc
-330 -0 0 223 330 -0 23227 9914 3 177 fc
-330 -0 0 223 330 -0 23557 9914 3 177 fc
-330 -0 0 223 330 -0 23557 10137 3 177 fc
-330 -0 0 223 330 -0 23227 10137 3 177 fc
-330 -0 0 223 330 -0 23227 10360 3 177 fc
-330 -0 0 223 330 -0 23557 10360 3 177 fc
-330 -0 0 223 330 -0 23557 10583 3 177 fc
-136 -0 0 223 330 -0 0 -107 23227 10691 4 177 fc
0 -115 -193 -0 23420 10806 2 2 fc
0 92 136 -0 23420 10806 2 177 fc
193 -0 0 -223 -330 -0 0 131 23557 10898 4 2 fc
-52 -0 0 223 330 -0 0 -92 23557 10898 4 177 fc
0 -131 -278 -0 23835 11029 2 2 fc
0 35 52 -0 23835 11029 2 177 fc
278 -0 0 -223 -330 -0 0 188 23887 11064 4 2 fc
-330 -0 0 223 330 -0 23227 11029 3 2 fc
-330 -0 0 223 330 -0 23227 11252 3 2 fc
-330 -0 0 223 330 -0 23557 11252 3 2 fc
-330 -0 0 223 330 -0 23557 11475 3 2 fc
-330 -0 0 223 330 -0 23227 11475 3 2 fc
-330 -0 0 223 330 -0 23227 11698 3 2 fc
-330 -0 0 223 330 -0 23557 11698 3 2 fc
-330 -0 0 223 330 -0 23557 11921 3 2 fc
-330 -0 0 223 330 -0 23227 11921 3 2 fc
-330 -0 0 223 330 -0 23227 12144 3 2 fc
-330 -0 0 223 330 -0 23557 12144 3 2 fc
-330 -0 0 223 330 -0 23557 12367 3 2 fc
-330 -0 0 223 330 -0 23227 12367 3 2 fc
-330 -0 0 223 330 -0 23227 12590 3 2 fc
-330 -0 0 223 330 -0 23557 12590 3 2 fc
-330 -0 0 223 330 -0 23557 12813 3 2 fc
-330 -0 0 223 330 -0 23227 12813 3 2 fc
-330 -0 0 223 330 -0 23227 13036 3 2 fc
-330 -0 0 223 330 -0 23557 13036 3 2 fc
-330 -0 0 223 330 -0 23557 13259 3 2 fc
-330 -0 0 223 330 -0 23227 13259 3 2 fc
-330 -0 0 223 330 -0 23227 13482 3 2 fc
-330 -0 0 223 330 -0 23557 13482 3 2 fc
-330 -0 0 223 330 -0 23557 13705 3 2 fc
-330 -0 0 223 330 -0 23227 13705 3 2 fc
-330 -0 0 223 330 -0 23227 13928 3 2 fc
-330 -0 0 223 330 -0 23557 13928 3 2 fc
-330 -0 0 223 330 -0 23557 14151 3 2 fc
-330 -0 0 223 330 -0 23227 14151 3 2 fc
-330 -0 0 223 330 -0 23227 14374 3 2 fc
-330 -0 0 223 330 -0 23557 14374 3 2 fc
-330 -0 0 223 330 -0 23557 14597 3 2 fc
-330 -0 0 223 330 -0 23227 14597 3 2 fc
-330 -0 0 223 330 -0 23227 14820 3 2 fc
-330 -0 0 223 330 -0 23557 14820 3 2 fc
-330 -0 0 223 330 -0 23557 15043 3 2 fc
-330 -0 0 223 330 -0 23227 15043 3 2 fc
-300 -0 0 223 300 -0 23887 6347 3 177 fc
-300 -0 0 223 300 -0 24187 6347 3 177 fc
-300 -0 0 223 300 -0 24187 6570 3 177 fc
-300 -0 0 223 300 -0 23887 6570 3 177 fc
-300 -0 0 223 300 -0 23887 6793 3 177 fc
-300 -0 0 223 300 -0 24187 6793 3 177 fc
-300 -0 0 223 300 -0 24187 7016 3 177 fc
-300 -0 0 223 300 -0 23887 7016 3 177 fc
-300 -0 0 223 300 -0 23887 7238 3 177 fc
-300 -0 0 223 300 -0 24187 7238 3 177 fc
-300 -0 0 223 300 -0 24187 7461 3 177 fc
-300 -0 0 223 300 -0 23887 7461 3 177 fc
-300 -0 0 223 300 -0 23887 7684 3 177 fc
-300 -0 0 223 300 -0 24187 7684 3 177 fc
-300 -0 0 223 300 -0 24187 7907 3 177 fc
-300 -0 0 223 300 -0 23887 7907 3 177 fc
-300 -0 0 223 300 -0 23887 8130 3 177 fc
-300 -0 0 223 300 -0 24187 8130 3 177 fc
-300 -0 0 223 300 -0 24187 8353 3 177 fc
-300 -0 0 223 300 -0 23887 8353 3 177 fc
-300 -0 0 223 300 -0 23887 8576 3 177 fc
-300 -0 0 223 300 -0 24187 8576 3 177 fc
-300 -0 0 223 300 -0 24187 8799 3 177 fc
-300 -0 0 223 300 -0 23887 8799 3 177 fc
-300 -0 0 223 300 -0 23887 9022 3 177 fc
-300 -0 0 223 300 -0 24187 9022 3 177 fc
-300 -0 0 223 300 -0 24187 9245 3 177 fc
-300 -0 0 223 300 -0 23887 9245 3 177 fc
-300 -0 0 223 300 -0 23887 9468 3 177 fc
-300 -0 0 223 300 -0 24187 9468 3 177 fc
-300 -0 0 223 300 -0 24187 9691 3 177 fc
-300 -0 0 223 300 -0 23887 9691 3 177 fc
-300 -0 0 223 300 -0 23887 9914 3 177 fc
-300 -0 0 223 300 -0 24187 9914 3 177 fc
-300 -0 0 223 300 -0 24187 10137 3 177 fc
-300 -0 0 223 300 -0 23887 10137 3 177 fc
-300 -0 0 223 300 -0 23887 10360 3 177 fc
-300 -0 0 223 300 -0 24187 10360 3 177 fc
-300 -0 0 223 300 -0 24187 10583 3 177 fc
-300 -0 0 223 300 -0 23887 10583 3 177 fc
-300 -0 0 223 300 -0 23887 10806 3 177 fc
-300 -0 0 223 300 -0 24187 10806 3 177 fc
-154 -0 0 223 300 -0 0 -120 24187 11149 4 177 fc
0 -103 -146 -0 24333 11252 2 2 fc
0 120 300 -0 0 -35 23887 11064 3 177 fc
0 -188 -300 -0 0 103 24187 11149 3 2 fc
-300 -0 0 223 300 -0 23887 11252 3 2 fc
0 104 154 -0 24333 11252 2 177 fc
146 -0 0 -223 -300 -0 0 119 24487 11357 4 2 fc
-300 -0 0 223 300 -0 24187 11475 3 2 fc
-300 -0 0 223 300 -0 23887 11475 3 2 fc
-300 -0 0 223 300 -0 23887 11698 3 2 fc
-300 -0 0 223 300 -0 24187 11698 3 2 fc
-300 -0 0 223 300 -0 24187 11921 3 2 fc
-300 -0 0 223 300 -0 23887 11921 3 2 fc
-300 -0 0 223 300 -0 23887 12144 3 2 fc
-300 -0 0 223 300 -0 24187 12144 3 2 fc
-300 -0 0 223 300 -0 24187 12367 3 2 fc
-300 -0 0 223 300 -0 23887 12367 3 2 fc
-300 -0 0 223 300 -0 23887 12590 3 2 fc
-300 -0 0 223 300 -0 24187 12590 3 2 fc
-300 -0 0 223 300 -0 24187 12813 3 2 fc
-300 -0 0 223 300 -0 23887 12813 3 2 fc
-300 -0 0 223 300 -0 23887 13036 3 2 fc
-300 -0 0 223 300 -0 24187 13036 3 2 fc
-300 -0 0 223 300 -0 24187 13259 3 2 fc
-300 -0 0 223 300 -0 23887 13259 3 2 fc
-300 -0 0 223 300 -0 23887 13482 3 2 fc
-300 -0 0 223 300 -0 24187 13482 3 2 fc
-300 -0 0 223 300 -0 24187 13705 3 2 fc
-300 -0 0 223 300 -0 23887 13705 3 2 fc
-300 -0 0 223 300 -0 23887 13928 3 2 fc
-300 -0 0 223 300 -0 24187 13928 3 2 fc
-300 -0 0 223 300 -0 24187 14151 3 2 fc
-300 -0 0 223 300 -0 23887 14151 3 2 fc
-300 -0 0 223 300 -0 23887 14374 3 2 fc
-300 -0 0 223 300 -0 24187 14374 3 2 fc
-300 -0 0 223 300 -0 24187 14597 3 2 fc
-300 -0 0 223 300 -0 23887 14597 3 2 fc
-300 -0 0 223 300 -0 23887 14820 3 2 fc
-300 -0 0 223 300 -0 24187 14820 3 2 fc
-300 -0 0 223 300 -0 24187 15043 3 2 fc
-300 -0 0 223 300 -0 23887 15043 3 2 fc
-273 -0 0 223 273 -0 24487 6347 3 177 fc
-273 -0 0 223 273 -0 24759 6347 3 177 fc
-273 -0 0 223 273 -0 24759 6570 3 177 fc
-273 -0 0 223 273 -0 24487 6570 3 177 fc
-273 -0 0 223 273 -0 24487 6793 3 177 fc
-273 -0 0 223 273 -0 24759 6793 3 177 fc
-273 -0 0 223 273 -0 24759 7016 3 177 fc
-273 -0 0 223 273 -0 24487 7016 3 177 fc
-273 -0 0 223 273 -0 24487 7238 3 177 fc
-273 -0 0 223 273 -0 24759 7238 3 177 fc
-273 -0 0 223 273 -0 24759 7461 3 177 fc
-273 -0 0 223 273 -0 24487 7461 3 177 fc
-273 -0 0 223 273 -0 24487 7684 3 177 fc
-273 -0 0 223 273 -0 24759 7684 3 177 fc
-273 -0 0 223 273 -0 24759 7907 3 177 fc
-273 -0 0 223 273 -0 24487 7907 3 177 fc
-273 -0 0 223 273 -0 24487 8130 3 177 fc
-273 -0 0 223 273 -0 24759 8130 3 177 fc
-273 -0 0 223 273 -0 24759 8353 3 177 fc
-273 -0 0 223 273 -0 24487 8353 3 177 fc
-273 -0 0 223 273 -0 24487 8576 3 177 fc
-273 -0 0 223 273 -0 24759 8576 3 177 fc
-273 -0 0 223 273 -0 24759 8799 3 177 fc
-273 -0 0 223 273 -0 24487 8799 3 177 fc
-273 -0 0 223 273 -0 24487 9022 3 177 fc
-273 -0 0 223 273 -0 24759 9022 3 177 fc
-273 -0 0 223 273 -0 24759 9245 3 177 fc
-273 -0 0 223 273 -0 24487 9245 3 177 fc
-273 -0 0 223 273 -0 24487 9468 3 177 fc
-273 -0 0 223 273 -0 24759 9468 3 177 fc
-273 -0 0 223 273 -0 24759 9691 3 177 fc
-273 -0 0 223 273 -0 24487 9691 3 177 fc
-273 -0 0 223 273 -0 24487 9914 3 177 fc
-273 -0 0 223 273 -0 24759 9914 3 177 fc
-273 -0 0 223 273 -0 24759 10137 3 177 fc
-273 -0 0 223 273 -0 24487 10137 3 177 fc
-273 -0 0 223 273 -0 24487 10360 3 177 fc
-273 -0 0 223 273 -0 24759 10360 3 177 fc
-273 -0 0 223 273 -0 24759 10583 3 177 fc
-273 -0 0 223 273 -0 24487 10583 3 177 fc
-273 -0 0 223 273 -0 24487 10806 3 177 fc
-273 -0 0 223 273 -0 24759 10806 3 177 fc
-273 -0 0 223 273 -0 24759 11029 3 177 fc
-273 -0 0 223 273 -0 24487 11029 3 177 fc
-93 -0 0 223 273 -0 0 -104 24487 11357 4 177 fc
0 -119 -180 -0 24667 11475 2 2 fc
-273 -0 0 223 273 -0 24759 11252 3 177 fc
0 185 273 -0 0 -76 24759 11551 3 177 fc
0 -147 -273 -0 0 38 25032 11660 3 2 fc
0 76 93 -0 24667 11475 2 177 fc
180 -0 0 -223 -273 -0 0 147 24759 11551 4 2 fc
-273 -0 0 223 273 -0 24487 11698 3 2 fc
-273 -0 0 223 273 -0 24759 11698 3 2 fc
-273 -0 0 223 273 -0 24759 11921 3 2 fc
-273 -0 0 223 273 -0 24487 11921 3 2 fc
-273 -0 0 223 273 -0 24487 12144 3 2 fc
-273 -0 0 223 273 -0 24759 12144 3 2 fc
-273 -0 0 223 273 -0 24759 12367 3 2 fc
-273 -0 0 223 273 -0 24487 12367 3 2 fc
-273 -0 0 223 273 -0 24487 12590 3 2 fc
-273 -0 0 223 273 -0 24759 12590 3 2 fc
-273 -0 0 223 273 -0 24759 12813 3 2 fc
-273 -0 0 223 273 -0 24487 12813 3 2 fc
-273 -0 0 223 273 -0 24487 13036 3 2 fc
-273 -0 0 223 273 -0 24759 13036 3 2 fc
-273 -0 0 223 273 -0 24759 13259 3 2 fc
-273 -0 0 223 273 -0 24487 13259 3 2 fc
-273 -0 0 223 273 -0 24487 13482 3 2 fc
-273 -0 0 223 273 -0 24759 13482 3 2 fc
-273 -0 0 223 273 -0 24759 13705 3 2 fc
-273 -0 0 223 273 -0 24487 13705 3 2 fc
-273 -0 0 223 273 -0 24487 13928 3 2 fc
-273 -0 0 223 273 -0 24759 13928 3 2 fc
-273 -0 0 223 273 -0 24759 14151 3 2 fc
-273 -0 0 223 273 -0 24487 14151 3 2 fc
-273 -0 0 223 273 -0 24487 14374 3 2 fc
-273 -0 0 223 273 -0 24759 14374 3 2 fc
-273 -0 0 223 273 -0 24759 14597 3 2 fc
-273 -0 0 223 273 -0 24487 14597 3 2 fc
-273 -0 0 223 273 -0 24487 14820 3 2 fc
-273 -0 0 223 273 -0 24759 14820 3 2 fc
-273 -0 0 223 273 -0 24759 15043 3 2 fc
-273 -0 0 223 273 -0 24487 15043 3 2 fc
-248 -0 0 223 248 -0 25032 6347 3 177 fc
-248 -0 0 223 248 -0 25280 6347 3 177 fc
-248 -0 0 223 248 -0 25280 6570 3 177 fc
-248 -0 0 223 248 -0 25032 6570 3 177 fc
-248 -0 0 223 248 -0 25032 6793 3 177 fc
-248 -0 0 223 248 -0 25280 6793 3 177 fc
-248 -0 0 223 248 -0 25280 7016 3 177 fc
-248 -0 0 223 248 -0 25032 7016 3 177 fc
-248 -0 0 223 248 -0 25032 7238 3 177 fc
-248 -0 0 223 248 -0 25280 7238 3 177 fc
-248 -0 0 223 248 -0 25280 7461 3 177 fc
-248 -0 0 223 248 -0 25032 7461 3 177 fc
-248 -0 0 223 248 -0 25032 7684 3 177 fc
-248 -0 0 223 248 -0 25280 7684 3 177 fc
-248 -0 0 223 248 -0 25280 7907 3 177 fc
-248 -0 0 223 248 -0 25032 7907 3 177 fc
-248 -0 0 223 248 -0 25032 8130 3 177 fc
-248 -0 0 223 248 -0 25280 8130 3 177 fc
-248 -0 0 223 248 -0 25280 8353 3 177 fc
-248 -0 0 223 248 -0 25032 8353 3 177 fc
-248 -0 0 223 248 -0 25032 8576 3 177 fc
-248 -0 0 223 248 -0 25280 8576 3 177 fc
-248 -0 0 223 248 -0 25280 8799 3 177 fc
-248 -0 0 223 248 -0 25032 8799 3 177 fc
-248 -0 0 223 248 -0 25032 9022 3 177 fc
-248 -0 0 223 248 -0 25280 9022 3 177 fc
-248 -0 0 223 248 -0 25280 9245 3 177 fc
-248 -0 0 223 248 -0 25032 9245 3 177 fc
-248 -0 0 223 248 -0 25032 9468 3 177 fc
-248 -0 0 223 248 -0 25280 9468 3 177 fc
-248 -0 0 223 248 -0 25280 9691 3 177 fc
-248 -0 0 223 248 -0 25032 9691 3 177 fc
-248 -0 0 223 248 -0 25032 9914 3 177 fc
-248 -0 0 223 248 -0 25280 9914 3 177 fc
-248 -0 0 223 248 -0 25280 10137 3 177 fc
-248 -0 0 223 248 -0 25032 10137 3 177 fc
-248 -0 0 223 248 -0 25032 10360 3 177 fc
-248 -0 0 223 248 -0 25280 10360 3 177 fc
-248 -0 0 223 248 -0 25280 10583 3 177 fc
-248 -0 0 223 248 -0 25032 10583 3 177 fc
-248 -0 0 223 248 -0 25032 10806 3 177 fc
-248 -0 0 223 248 -0 25280 10806 3 177 fc
-248 -0 0 223 248 -0 25280 11029 3 177 fc
-248 -0 0 223 248 -0 25032 11029 3 177 fc
-248 -0 0 223 248 -0 25032 11252 3 177 fc
-248 -0 0 223 248 -0 25280 11252 3 177 fc
-248 -0 0 223 248 -0 25280 11475 3 177 fc
-204 -0 0 223 248 -0 0 -185 25032 11660 4 177 fc
0 -38 -44 -0 25076 11698 2 2 fc
0 108 204 -0 25076 11698 2 177 fc
44 -0 0 -223 -248 -0 0 115 25280 11806 4 2 fc
-104 -0 0 223 248 -0 0 -108 25280 11806 4 177 fc
0 -115 -144 -0 25424 11921 2 2 fc
0 93 104 -0 25424 11921 2 177 fc
144 -0 0 -223 -248 -0 0 130 25528 12014 4 2 fc
-248 -0 0 223 248 -0 25032 11921 3 2 fc
-248 -0 0 223 248 -0 25032 12144 3 2 fc
-248 -0 0 223 248 -0 25280 12144 3 2 fc
-248 -0 0 223 248 -0 25280 12367 3 2 fc
-248 -0 0 223 248 -0 25032 12367 3 2 fc
-248 -0 0 223 248 -0 25032 12590 3 2 fc
-248 -0 0 223 248 -0 25280 12590 3 2 fc
-248 -0 0 223 248 -0 25280 12813 3 2 fc
-248 -0 0 223 248 -0 25032 12813 3 2 fc
-248 -0 0 223 248 -0 25032 13036 3 2 fc
-248 -0 0 223 248 -0 25280 13036 3 2 fc
-248 -0 0 223 248 -0 25280 13259 3 2 fc
-248 -0 0 223 248 -0 25032 13259 3 2 fc
-248 -0 0 223 248 -0 25032 13482 3 2 fc
-248 -0 0 223 248 -0 25280 13482 3 2 fc
-248 -0 0 223 248 -0 25280 13705 3 2 fc
-248 -0 0 223 248 -0 25032 13705 3 2 fc
-248 -0 0 223 248 -0 25032 13928 3 2 fc
-248 -0 0 223 248 -0 25280 13928 3 2 fc
-248 -0 0 223 248 -0 25280 14151 3 2 fc
-248 -0 0 223 248 -0 25032 14151 3 2 fc
-248 -0 0 223 248 -0 25032 14374 3 2 fc
-248 -0 0 223 248 -0 25280 14374 3 2 fc
-248 -0 0 223 248 -0 25280 14597 3 2 fc
-248 -0 0 223 248 -0 25032 14597 3 2 fc
-248 -0 0 223 248 -0 25032 14820 3 2 fc
-248 -0 0 223 248 -0 25280 14820 3 2 fc
-248 -0 0 223 248 -0 25280 15043 3 2 fc
-248 -0 0 223 248 -0 25032 15043 3 2 fc
-225 -0 0 223 225 -0 25528 6347 3 177 fc
-225 -0 0 223 225 -0 25753 6347 3 177 fc
-225 -0 0 223 225 -0 25753 6570 3 177 fc
-225 -0 0 223 225 -0 25528 6570 3 177 fc
-225 -0 0 223 225 -0 25528 6793 3 177 fc
-225 -0 0 223 225 -0 25753 6793 3 177 fc
-225 -0 0 223 225 -0 25753 7016 3 177 fc
-225 -0 0 223 225 -0 25528 7016 3 177 fc
-225 -0 0 223 225 -0 25528 7238 3 177 fc
-225 -0 0 223 225 -0 25753 7238 3 177 fc
-225 -0 0 223 225 -0 25753 7461 3 177 fc
-225 -0 0 223 225 -0 25528 7461 3 177 fc
-225 -0 0 223 225 -0 25528 7684 3 177 fc
-225 -0 0 223 225 -0 25753 7684 3 177 fc
-225 -0 0 223 225 -0 25753 7907 3 177 fc
-225 -0 0 223 225 -0 25528 7907 3 177 fc
-225 -0 0 223 225 -0 25528 8130 3 177 fc
-225 -0 0 223 225 -0 25753 8130 3 177 fc
-225 -0 0 223 225 -0 25753 8353 3 177 fc
-225 -0 0 223 225 -0 25528 8353 3 177 fc
-225 -0 0 223 225 -0 25528 8576 3 177 fc
-225 -0 0 223 225 -0 25753 8576 3 177 fc
-225 -0 0 223 225 -0 25753 8799 3 177 fc
-225 -0 0 223 225 -0 25528 8799 3 177 fc
-225 -0 0 223 225 -0 25528 9022 3 177 fc
-225 -0 0 223 225 -0 25753 9022 3 177 fc
-225 -0 0 223 225 -0 25753 9245 3 177 fc
-225 -0 0 223 225 -0 25528 9245 3 177 fc
-225 -0 0 223 225 -0 25528 9468 3 177 fc
-225 -0 0 223 225 -0 25753 9468 3 177 fc
-225 -0 0 223 225 -0 25753 9691 3 177 fc
-225 -0 0 223 225 -0 25528 9691 3 177 fc
-225 -0 0 223 225 -0 25528 9914 3 177 fc
-225 -0 0 223 225 -0 25753 9914 3 177 fc
-225 -0 0 223 225 -0 25753 10137 3 177 fc
-225 -0 0 223 225 -0 25528 10137 3 177 fc
-225 -0 0 223 225 -0 25528 10360 3 177 fc
-225 -0 0 223 225 -0 25753 10360 3 177 fc
-225 -0 0 223 225 -0 25753 10583 3 177 fc
-225 -0 0 223 225 -0 25528 10583 3 177 fc
-225 -0 0 223 225 -0 25528 10806 3 177 fc
-225 -0 0 223 225 -0 25753 10806 3 177 fc
-225 -0 0 223 225 -0 25753 11029 3 177 fc
-225 -0 0 223 225 -0 25528 11029 3 177 fc
-225 -0 0 223 225 -0 25528 11252 3 177 fc
-225 -0 0 223 225 -0 25753 11252 3 177 fc
-225 -0 0 223 225 -0 25753 11475 3 177 fc
-225 -0 0 223 225 -0 25528 11475 3 177 fc
-225 -0 0 223 225 -0 25528 11698 3 177 fc
-225 -0 0 223 225 -0 25753 11698 3 177 fc
-225 -0 0 223 225 -0 25753 11921 3 177 fc
-37 -0 0 223 225 -0 0 -93 25528 12014 4 177 fc
0 -130 -188 -0 25716 12144 2 2 fc
0 37 37 -0 25716 12144 2 177 fc
188 -0 0 -223 -225 -0 0 186 25753 12181 4 2 fc
0 141 225 -0 0 -37 25753 12181 3 177 fc
0 -186 -225 -0 0 82 25979 12285 3 2 fc
-225 -0 0 223 225 -0 25753 12367 3 2 fc
-225 -0 0 223 225 -0 25528 12367 3 2 fc
-225 -0 0 223 225 -0 25528 12590 3 2 fc
-225 -0 0 223 225 -0 25753 12590 3 2 fc
-225 -0 0 223 225 -0 25753 12813 3 2 fc
-225 -0 0 223 225 -0 25528 12813 3 2 fc
-225 -0 0 223 225 -0 25528 13036 3 2 fc
-225 -0 0 223 225 -0 25753 13036 3 2 fc
-225 -0 0 223 225 -0 25753 13259 3 2 fc
-225 -0 0 223 225 -0 25528 13259 3 2 fc
-225 -0 0 223 225 -0 25528 13482 3 2 fc
-225 -0 0 223 225 -0 25753 13482 3 2 fc
-225 -0 0 223 225 -0 25753 13705 3 2 fc
-225 -0 0 223 225 -0 25528 13705 3 2 fc
-225 -0 0 223 225 -0 25528 13928 3 2 fc
-225 -0 0 223 225 -0 25753 13928 3 2 fc
-225 -0 0 223 225 -0 25753 14151 3 2 fc
-225 -0 0 223 225 -0 25528 14151 3 2 fc
-225 -0 0 223 225 -0 25528 14374 3 2 fc
-225 -0 0 223 225 -0 25753 14374 3 2 fc
-225 -0 0 223 225 -0 25753 14597 3 2 fc
-225 -0 0 223 225 -0 25528 14597 3 2 fc
-225 -0 0 223 225 -0 25528 14820 3 2 fc
-225 -0 0 223 225 -0 25753 14820 3 2 fc
-225 -0 0 223 225 -0 25753 15043 3 2 fc
-225 -0 0 223 225 -0 25528 15043 3 2 fc
-205 -0 0 223 205 -0 25979 6347 3 177 fc
-205 -0 0 223 205 -0 26183 6347 3 177 fc
-205 -0 0 223 205 -0 26183 6570 3 177 fc
-205 -0 0 223 205 -0 25979 6570 3 177 fc
-205 -0 0 223 205 -0 25979 6793 3 177 fc
-205 -0 0 223 205 -0 26183 6793 3 177 fc
-205 -0 0 223 205 -0 26183 7016 3 177 fc
-205 -0 0 223 205 -0 25979 7016 3 177 fc
-205 -0 0 223 205 -0 25979 7238 3 177 fc
-205 -0 0 223 205 -0 26183 7238 3 177 fc
-205 -0 0 223 205 -0 26183 7461 3 177 fc
-205 -0 0 223 205 -0 25979 7461 3 177 fc
-205 -0 0 223 205 -0 25979 7684 3 177 fc
-205 -0 0 223 205 -0 26183 7684 3 177 fc
-205 -0 0 223 205 -0 26183 7907 3 177 fc
-205 -0 0 223 205 -0 25979 7907 3 177 fc
-205 -0 0 223 205 -0 25979 8130 3 177 fc
-205 -0 0 223 205 -0 26183 8130 3 177 fc
-205 -0 0 223 205 -0 26183 8353 3 177 fc
-205 -0 0 223 205 -0 25979 8353 3 177 fc
-205 -0 0 223 205 -0 25979 8576 3 177 fc
-205 -0 0 223 205 -0 26183 8576 3 177 fc
-205 -0 0 223 205 -0 26183 8799 3 177 fc
-205 -0 0 223 205 -0 25979 8799 3 177 fc
-205 -0 0 223 205 -0 25979 9022 3 177 fc
-205 -0 0 223 205 -0 26183 9022 3 177 fc
-205 -0 0 223 205 -0 26183 9245 3 177 fc
-205 -0 0 223 205 -0 25979 9245 3 177 fc
-205 -0 0 223 205 -0 25979 9468 3 177 fc
-205 -0 0 223 205 -0 26183 9468 3 177 fc
-205 -0 0 223 205 -0 26183 9691 3 177 fc
-205 -0 0 223 205 -0 25979 9691 3 177 fc
-205 -0 0 223 205 -0 25979 9914 3 177 fc
-205 -0 0 223 205 -0 26183 9914 3 177 fc
-205 -0 0 223 205 -0 26183 10137 3 177 fc
-205 -0 0 223 205 -0 25979 10137 3 177 fc
-205 -0 0 223 205 -0 25979 10360 3 177 fc
-205 -0 0 223 205 -0 26183 10360 3 177 fc
-205 -0 0 223 205 -0 26183 10583 3 177 fc
-205 -0 0 223 205 -0 25979 10583 3 177 fc
-205 -0 0 223 205 -0 25979 10806 3 177 fc
-205 -0 0 223 205 -0 26183 10806 3 177 fc
-205 -0 0 223 205 -0 26183 11029 3 177 fc
-205 -0 0 223 205 -0 25979 11029 3 177 fc
-205 -0 0 223 205 -0 25979 11252 3 177 fc
-205 -0 0 223 205 -0 26183 11252 3 177 fc
-205 -0 0 223 205 -0 26183 11475 3 177 fc
-205 -0 0 223 205 -0 25979 11475 3 177 fc
-205 -0 0 223 205 -0 25979 11698 3 177 fc
-205 -0 0 223 205 -0 26183 11698 3 177 fc
-205 -0 0 223 205 -0 26183 11921 3 177 fc
-205 -0 0 223 205 -0 25979 11921 3 177 fc
-126 -0 0 223 205 -0 0 -141 25979 12285 4 177 fc
0 -82 -79 -0 26058 12367 2 2 fc
-205 -0 0 223 205 -0 26183 12144 3 177 fc
-78 -0 0 223 205 -0 0 -105 26183 12472 4 177 fc
0 -118 -127 -0 26310 12590 2 2 fc
0 105 126 -0 26058 12367 2 177 fc
79 -0 0 -223 -205 -0 0 118 26183 12472 4 2 fc
-205 -0 0 223 205 -0 25979 12590 3 2 fc
0 85 78 -0 26310 12590 2 177 fc
127 -0 0 -223 -205 -0 0 138 26388 12675 4 2 fc
-205 -0 0 223 205 -0 26183 12813 3 2 fc
-205 -0 0 223 205 -0 25979 12813 3 2 fc
-205 -0 0 223 205 -0 25979 13036 3 2 fc
-205 -0 0 223 205 -0 26183 13036 3 2 fc
-205 -0 0 223 205 -0 26183 13259 3 2 fc
-205 -0 0 223 205 -0 25979 13259 3 2 fc
-205 -0 0 223 205 -0 25979 13482 3 2 fc
-205 -0 0 223 205 -0 26183 13482 3 2 fc
-205 -0 0 223 205 -0 26183 13705 3 2 fc
-205 -0 0 223 205 -0 25979 13705 3 2 fc
-205 -0 0 223 205 -0 25979 13928 3 2 fc
-205 -0 0 223 205 -0 26183 13928 3 2 fc
-205 -0 0 223 205 -0 26183 14151 3 2 fc
-205 -0 0 223 205 -0 25979 14151 3 2 fc
-205 -0 0 223 205 -0 25979 14374 3 2 fc
-205 -0 0 223 205 -0 26183 14374 3 2 fc
-205 -0 0 223 205 -0 26183 14597 3 2 fc
-205 -0 0 223 205 -0 25979 14597 3 2 fc
-205 -0 0 223 205 -0 25979 14820 3 2 fc
-205 -0 0 223 205 -0 26183 14820 3 2 fc
-205 -0 0 223 205 -0 26183 15043 3 2 fc
-205 -0 0 223 205 -0 25979 15043 3 2 fc
-186 -0 0 223 186 -0 26388 6347 3 177 fc
-186 -0 0 223 186 -0 26575 6347 3 177 fc
-186 -0 0 223 186 -0 26575 6570 3 177 fc
-186 -0 0 223 186 -0 26388 6570 3 177 fc
-186 -0 0 223 186 -0 26388 6793 3 177 fc
-186 -0 0 223 186 -0 26575 6793 3 177 fc
-186 -0 0 223 186 -0 26575 7016 3 177 fc
-186 -0 0 223 186 -0 26388 7016 3 177 fc
-186 -0 0 223 186 -0 26388 7238 3 177 fc
-186 -0 0 223 186 -0 26575 7238 3 177 fc
-186 -0 0 223 186 -0 26575 7461 3 177 fc
-186 -0 0 223 186 -0 26388 7461 3 177 fc
-186 -0 0 223 186 -0 26388 7684 3 177 fc
-186 -0 0 223 186 -0 26575 7684 3 177 fc
-186 -0 0 223 186 -0 26575 7907 3 177 fc
-186 -0 0 223 186 -0 26388 7907 3 177 fc
-186 -0 0 223 186 -0 26388 8130 3 177 fc
-186 -0 0 223 186 -0 26575 8130 3 177 fc
-186 -0 0 223 186 -0 26575 8353 3 177 fc
-186 -0 0 223 186 -0 26388 8353 3 177 fc
-186 -0 0 223 186 -0 26388 8576 3 177 fc
-186 -0 0 223 186 -0 26575 8576 3 177 fc
-186 -0 0 223 186 -0 26575 8799 3 177 fc
-186 -0 0 223 186 -0 26388 8799 3 177 fc
-186 -0 0 223 186 -0 26388 9022 3 177 fc
-186 -0 0 223 186 -0 26575 9022 3 177 fc
-186 -0 0 223 186 -0 26575 9245 3 177 fc
-186 -0 0 223 186 -0 26388 9245 3 177 fc
-186 -0 0 223 186 -0 26388 9468 3 177 fc
-186 -0 0 223 186 -0 26575 9468 3 177 fc
-186 -0 0 223 186 -0 26575 9691 3 177 fc
-186 -0 0 223 186 -0 26388 9691 3 177 fc
-186 -0 0 223 186 -0 26388 9914 3 177 fc
-186 -0 0 223 186 -0 26575 9914 3 177 fc
-186 -0 0 223 186 -0 26575 10137 3 177 fc
-186 -0 0 223 186 -0 26388 10137 3 177 fc
-186 -0 0 223 186 -0 26388 10360 3 177 fc
-186 -0 0 223 186 -0 26575 10360 3 177 fc
-186 -0 0 223 186 -0 26575 10583 3 177 fc
-186 -0 0 223 186 -0 26388 10583 3 177 fc
-186 -0 0 223 186 -0 26388 10806 3 177 fc
-186 -0 0 223 186 -0 26575 10806 3 177 fc
-186 -0 0 223 186 -0 26575 11029 3 177 fc
-186 -0 0 223 186 -0 26388 11029 3 177 fc
-186 -0 0 223 186 -0 26388 11252 3 177 fc
-186 -0 0 223 186 -0 26575 11252 3 177 fc
-186 -0 0 223 186 -0 26575 11475 3 177 fc
-186 -0 0 223 186 -0 26388 11475 3 177 fc
-186 -0 0 223 186 -0 26388 11698 3 177 fc
-186 -0 0 223 186 -0 26575 11698 3 177 fc
-186 -0 0 223 186 -0 26575 11921 3 177 fc
-186 -0 0 223 186 -0 26388 11921 3 177 fc
-186 -0 0 223 186 -0 26388 12144 3 177 fc
-186 -0 0 223 186 -0 26575 12144 3 177 fc
-186 -0 0 223 186 -0 26575 12367 3 177 fc
-186 -0 0 223 186 -0 26388 12367 3 177 fc
-33 -0 0 223 186 -0 0 -85 26388 12675 4 177 fc
0 -138 -153 -0 26542 12813 2 2 fc
-186 -0 0 223 186 -0 26575 12590 3 177 fc
0 197 186 -0 0 -39 26575 12852 3 177 fc
0 -184 -186 -0 0 26 26761 13010 3 2 fc
0 39 33 -0 26542 12813 2 177 fc
153 -0 0 -223 -186 -0 0 184 26575 12852 4 2 fc
-186 -0 0 223 186 -0 26388 13036 3 2 fc
-186 -0 0 223 186 -0 26575 13036 3 2 fc
-186 -0 0 223 186 -0 26575 13259 3 2 fc
-186 -0 0 223 186 -0 26388 13259 3 2 fc
-186 -0 0 223 186 -0 26388 13482 3 2 fc
-186 -0 0 223 186 -0 26575 13482 3 2 fc
-186 -0 0 223 186 -0 26575 13705 3 2 fc
-186 -0 0 223 186 -0 26388 13705 3 2 fc
-186 -0 0 223 186 -0 26388 13928 3 2 fc
-186 -0 0 223 186 -0 26575 13928 3 2 fc
-186 -0 0 223 186 -0 26575 14151 3 2 fc
-186 -0 0 223 186 -0 26388 14151 3 2 fc
-186 -0 0 223 186 -0 26388 14374 3 2 fc
-186 -0 0 223 186 -0 26575 14374 3 2 fc
-186 -0 0 223 186 -0 26575 14597 3 2 fc
-186 -0 0 223 186 -0 26388 14597 3 2 fc
-186 -0 0 223 186 -0 26388 14820 3 2 fc
-186 -0 0 223 186 -0 26575 14820 3 2 fc
-186 -0 0 223 186 -0 26575 15043 3 2 fc
-186 -0 0 223 186 -0 26388 15043 3 2 fc
-169 -0 0 223 169 -0 26761 6347 3 177 fc
-169 -0 0 223 169 -0 26930 6347 3 177 fc
-169 -0 0 223 169 -0 26930 6570 3 177 fc
-169 -0 0 223 169 -0 26761 6570 3 177 fc
-169 -0 0 223 169 -0 26761 6793 3 177 fc
-169 -0 0 223 169 -0 26930 6793 3 177 fc
-169 -0 0 223 169 -0 26930 7016 3 177 fc
-169 -0 0 223 169 -0 26761 7016 3 177 fc
-169 -0 0 223 169 -0 26761 7238 3 177 fc
-169 -0 0 223 169 -0 26930 7238 3 177 fc
-169 -0 0 223 169 -0 26930 7461 3 177 fc
-169 -0 0 223 169 -0 26761 7461 3 177 fc
-169 -0 0 223 169 -0 26761 7684 3 177 fc
-169 -0 0 223 169 -0 26930 7684 3 177 fc
-169 -0 0 223 169 -0 26930 7907 3 177 fc
-169 -0 0 223 169 -0 26761 7907 3 177 fc
-169 -0 0 223 169 -0 26761 8130 3 177 fc
-169 -0 0 223 169 -0 26930 8130 3 177 fc
-169 -0 0 223 169 -0 26930 8353 3 177 fc
-169 -0 0 223 169 -0 26761 8353 3 177 fc
-169 -0 0 223 169 -0 26761 8576 3 177 fc
-169 -0 0 223 169 -0 26930 8576 3 177 fc
-169 -0 0 223 169 -0 26930 8799 3 177 fc
-169 -0 0 223 169 -0 26761 8799 3 177 fc
-169 -0 0 223 169 -0 26761 9022 3 177 fc
-169 -0 0 223 169 -0 26930 9022 3 177 fc
-169 -0 0 223 169 -0 26930 9245 3 177 fc
-169 -0 0 223 169 -0 26761 9245 3 177 fc
-169 -0 0 223 169 -0 26761 9468 3 177 fc
-169 -0 0 223 169 -0 26930 9468 3 177 fc
-169 -0 0 223 169 -0 26930 9691 3 177 fc
-169 -0 0 223 169 -0 26761 9691 3 177 fc
-169 -0 0 223 169 -0 26761 9914 3 177 fc
-169 -0 0 223 169 -0 26930 9914 3 177 fc
-169 -0 0 223 169 -0 26930 10137 3 177 fc
-169 -0 0 223 169 -0 26761 10137 3 177 fc
-169 -0 0 223 169 -0 26761 10360 3 177 fc
-169 -0 0 223 169 -0 26930 10360 3 177 fc
-169 -0 0 223 169 -0 26930 10583 3 177 fc
-169 -0 0 223 169 -0 26761 10583 3 177 fc
-169 -0 0 223 169 -0 26761 10806 3 177 fc
-169 -0 0 223 169 -0 26930 10806 3 177 fc
-169 -0 0 223 169 -0 26930 11029 3 177 fc
-169 -0 0 223 169 -0 26761 11029 3 177 fc
-169 -0 0 223 169 -0 26761 11252 3 177 fc
-169 -0 0 223 169 -0 26930 11252 3 177 fc
-169 -0 0 223 169 -0 26930 11475 3 177 fc
-169 -0 0 223 169 -0 26761 11475 3 177 fc
-169 -0 0 223 169 -0 26761 11698 3 177 fc
-169 -0 0 223 169 -0 26930 11698 3 177 fc
-169 -0 0 223 169 -0 26930 11921 3 177 fc
-169 -0 0 223 169 -0 26761 11921 3 177 fc
-169 -0 0 223 169 -0 26761 12144 3 177 fc
-169 -0 0 223 169 -0 26930 12144 3 177 fc
-169 -0 0 223 169 -0 26930 12367 3 177 fc
-169 -0 0 223 169 -0 26761 12367 3 177 fc
-169 -0 0 223 169 -0 26761 12590 3 177 fc
-169 -0 0 223 169 -0 26930 12590 3 177 fc
-169 -0 0 223 169 -0 26930 12813 3 177 fc
-149 -0 0 223 169 -0 0 -197 26761 13010 4 177 fc
0 -26 -20 -0 26781 13036 2 2 fc
0 181 149 -0 26781 13036 2 177 fc
20 -0 0 -223 -169 -0 0 42 26930 13217 4 2 fc
-139 -0 0 223 169 -0 0 -181 26930 13217 4 177 fc
0 -42 -31 -0 26961 13259 2 2 fc
0 111 139 -0 26961 13259 2 177 fc
31 -0 0 -223 -169 -0 0 111 27099 13370 4 2 fc
-169 -0 0 223 169 -0 26761 13259 3 2 fc
-169 -0 0 223 169 -0 26761 13482 3 2 fc
-169 -0 0 223 169 -0 26930 13482 3 2 fc
-169 -0 0 223 169 -0 26930 13705 3 2 fc
-169 -0 0 223 169 -0 26761 13705 3 2 fc
-169 -0 0 223 169 -0 26761 13928 3 2 fc
-169 -0 0 223 169 -0 26930 13928 3 2 fc
-169 -0 0 223 169 -0 26930 14151 3 2 fc
-169 -0 0 223 169 -0 26761 14151 3 2 fc
-169 -0 0 223 169 -0 26761 14374 3 2 fc
-169 -0 0 223 169 -0 26930 14374 3 2 fc
-169 -0 0 223 169 -0 26930 14597 3 2 fc
-169 -0 0 223 169 -0 26761 14597 3 2 fc
-169 -0 0 223 169 -0 26761 14820 3 2 fc
-169 -0 0 223 169 -0 26930 14820 3 2 fc
-169 -0 0 223 169 -0 26930 15043 3 2 fc
-169 -0 0 223 169 -0 26761 15043 3 2 fc
st
242 z x 92.16 s
2 lc
0 lj
st [] 0 sd
9285 6347 m
9776 6452 l
st
242 z x 10284 6570 m
9776 6452 l
st
242 z x 11230 6793 m
10717 6672 l
st
242 z x 10284 6570 m
10717 6672 l
st
242 z x 11230 6793 m
11658 6894 l
st
242 z x 12128 7016 m
11658 6894 l
st
242 z x 12988 7238 m
12514 7116 l
st
242 z x 12128 7016 m
12514 7116 l
st
242 z x 12988 7238 m
13370 7338 l
st
242 z x 13809 7461 m
13370 7338 l
st
242 z x 14599 7684 m
14148 7559 l
st
242 z x 13809 7461 m
14148 7559 l
st
242 z x 14599 7684 m
14926 7778 l
st
242 z x 15358 7907 m
14926 7778 l
st
242 z x 16102 8130 m
15633 7994 l
st
242 z x 15358 7907 m
15633 7994 l
st
242 z x 16102 8130 m
16340 8206 l
st
242 z x 16857 8353 m
16340 8206 l
st
242 z x 17626 8542 m
16983 8397 l
st
242 z x 16857 8353 m
16983 8397 l
st
242 z x 17717 8576 m
17626 8542 l
st
242 z x 17717 8576 m
18211 8695 l
st
242 z x 18488 8799 m
18211 8695 l
st
242 z x 18488 8799 m
18795 8908 l
st
242 z x 19077 9022 m
18795 8908 l
st
242 z x 19077 9022 m
19327 9127 l
st
242 z x 19629 9245 m
19327 9127 l
st
242 z x 19629 9245 m
19858 9342 l
st
242 z x 20178 9468 m
19858 9342 l
st
242 z x 20178 9468 m
20341 9543 l
st
242 z x 20824 9689 m
20341 9543 l
st
242 z x 20829 9691 m
20824 9689 l
st
242 z x 21487 9914 m
21263 9804 l
st
242 z x 20829 9691 m
21263 9804 l
st
242 z x 21487 9914 m
21703 10021 l
st
242 z x 21935 10137 m
21703 10021 l
st
242 z x 22407 10360 m
22102 10231 l
st
242 z x 21935 10137 m
22102 10231 l
st
242 z x 22407 10360 m
22501 10413 l
st
242 z x 22864 10498 m
22501 10413 l
st
242 z x 23008 10583 m
22864 10498 l
st
242 z x 23008 10583 m
23227 10691 l
st
242 z x 23420 10806 m
23227 10691 l
st
242 z x 23420 10806 m
23557 10898 l
st
242 z x 23835 11029 m
23557 10898 l
st
242 z x 23835 11029 m
23887 11064 l
st
242 z x 24333 11252 m
24187 11149 l
st
242 z x 24187 11149 m
23887 11064 l
st
242 z x 24333 11252 m
24487 11357 l
st
242 z x 24667 11475 m
24487 11357 l
st
242 z x 25032 11660 m
24759 11551 l
st
242 z x 24667 11475 m
24759 11551 l
st
242 z x 25076 11698 m
25032 11660 l
st
242 z x 25076 11698 m
25280 11806 l
st
242 z x 25424 11921 m
25280 11806 l
st
242 z x 25424 11921 m
25528 12014 l
st
242 z x 25716 12144 m
25528 12014 l
st
242 z x 25716 12144 m
25753 12181 l
st
242 z x 25979 12285 m
25753 12181 l
st
242 z x 26058 12367 m
25979 12285 l
st
242 z x 26310 12590 m
26183 12472 l
st
242 z x 26058 12367 m
26183 12472 l
st
242 z x 26310 12590 m
26388 12675 l
st
242 z x 26542 12813 m
26388 12675 l
st
242 z x 26761 13010 m
26575 12852 l
st
242 z x 26542 12813 m
26575 12852 l
st
242 z x 26781 13036 m
26761 13010 l
st
242 z x 26781 13036 m
26930 13217 l
st
242 z x 26961 13259 m
26930 13217 l
st
242 z x 26961 13259 m
27099 13370 l
2879 719 2879 23761 28801 23761 28801 719 clp
st
235 z x 92.16 s
0 lc
0 lj
st [] 0 sd
st
235 z x 7705 6346 m
7705 6807 l
23.04 s
st
235 z x 8674 6346 m
8674 6623 l
st
235 z x 9644 6346 m
9644 6623 l
st
235 z x 10614 6346 m
10614 6623 l
st
235 z x 11584 6346 m
11584 6623 l
92.16 s
st
235 z x 12553 6346 m
12553 6807 l
23.04 s
st
235 z x 13523 6346 m
13523 6623 l
st
235 z x 14493 6346 m
14493 6623 l
st
235 z x 15463 6346 m
15463 6623 l
st
235 z x 16432 6346 m
16432 6623 l
92.16 s
st
235 z x 17402 6346 m
17402 6807 l
23.04 s
st
235 z x 18372 6346 m
18372 6623 l
st
235 z x 19342 6346 m
19342 6623 l
st
235 z x 20311 6346 m
20311 6623 l
st
235 z x 21281 6346 m
21281 6623 l
92.16 s
st
235 z x 22251 6346 m
22251 6807 l
23.04 s
st
235 z x 23220 6346 m
23220 6623 l
st
235 z x 24190 6346 m
24190 6623 l
st
235 z x 25160 6346 m
25160 6623 l
st
235 z x 26130 6346 m
26130 6623 l
92.16 s
st
235 z x 27099 6346 m
27099 6807 l
2 lc
st
235 z x 7705 6346 m
27099 6346 l
st
235 z x 0 lc
st
235 z x 7704 6347 m
8165 6347 l
23.04 s
st
235 z x 7704 7238 m
7980 7238 l
st
235 z x 7704 8130 m
7980 8130 l
st
235 z x 7704 9022 m
7980 9022 l
st
235 z x 7704 9914 m
7980 9914 l
92.16 s
st
235 z x 7704 10806 m
8165 10806 l
23.04 s
st
235 z x 7704 11698 m
7980 11698 l
st
235 z x 7704 12590 m
7980 12590 l
st
235 z x 7704 13482 m
7980 13482 l
st
235 z x 7704 14374 m
7980 14374 l
92.16 s
st
235 z x 7704 15266 m
8165 15266 l
2 lc
st
235 z x 7704 6347 m
7704 15266 l
0 lc
st [461] 0 sd
2683 -0 7859 16310 1 235 bc
st [] 0 sd
2683 -0 7632 17538 1 235 bc
11.52 s
2 lc
st [] 0 sd
12589 11672 m
800 fhb
242 z x (f) sh
12835 11672 m
(r) sh
13117 11672 m
(e) sh
13576 11672 m
(s) sh
13999 11672 m
(h) sh
14686 11672 m
(w) sh
15303 11672 m
(a) sh
15761 11672 m
(t) sh
16008 11672 m
(e) sh
16466 11672 m
(r) sh
21092 7670 m
800 fhb
242 z x (s) sh
21515 7670 m
(a) sh
21973 7670 m
(l) sh
22167 7670 m
(t) sh
22626 7670 m
(w) sh
23242 7670 m
(a) sh
23701 7670 m
(t) sh
23947 7670 m
(e) sh
24406 7670 m
(r) sh
25367 3896 m
880 fhb
235 z x (x) sh
26065 3896 m
([) sh
26317 3896 m
(m) sh
27092 3896 m
(]) sh
3630 14900 m
880 fhb
235 z x (z) sh
4328 14900 m
([) sh
4580 14900 m
(m) sh
5356 14900 m
(]) sh
11315 17538 m
880 fhb
235 z x (n) sh
11839 17538 m
(u) sh
12362 17538 m
(m) sh
13138 17538 m
(e) sh
13642 17538 m
(r) sh
13952 17538 m
(i) sh
14165 17538 m
(c) sh
14631 17538 m
(a) sh
15135 17538 m
(l) sh
15581 17538 m
(r) sh
15891 17538 m
(e) sh
16395 17538 m
(s) sh
16860 17538 m
(u) sh
17384 17538 m
(l) sh
17597 17538 m
(t) sh
11315 16128 m
880 fhb
235 z x (a) sh
11819 16128 m
(n) sh
12343 16128 m
(a) sh
12847 16128 m
(l) sh
13060 16128 m
(y) sh
13526 16128 m
(t) sh
13797 16128 m
(i) sh
14010 16128 m
(c) sh
14476 16128 m
(a) sh
14980 16128 m
(l) sh
15426 16128 m
(r) sh
15736 16128 m
(e) sh
16240 16128 m
(s) sh
16705 16128 m
(u) sh
17229 16128 m
(l) sh
17442 16128 m
(t) sh
7613 6346 7613 15221 27055 15221 27055 6346 clp
92.16 s
0 lc
0 lj
st [461] 0 sd
st
242 z x 7614 6347 m
12085 7234 l
16362 8121 l
18889 9009 l
21125 9896 l
23263 10783 l
24721 11671 l
25985 12558 l
27054 13445 l
27054 15220 l
st gr end
showpage
