<?xml version="1.0"?>
<VTKFile type="UnstructuredGrid" version="0.1" byte_order="LittleEndian">
  <UnstructuredGrid>
    <Piece NumberOfCells="50" NumberOfPoints="102">
      <CellData Scalars="S_liq">
        <DataArray type="Float32" Name="S_liq" NumberOfComponents="1" format="ascii">
          0.999 0.999 0.999 0.999 0.999 0.999 0.999 0.999 0.999 0.999 0.999 0.999
          0.999 0.999 0.999 0.999 0.999 0.999 0.999 0.999 0.999 0.999 0.999 0.999
          0.999 0.999 0.999 0.407357 0.112847 0.104651 0.282609 0.282609 0.282609 0.282609 0.282609 0.282609
          0.282609 0.282609 0.282609 0.282609 0.282609 0.282609 0.282609 0.282609 0.282609 0.282609 0.282622 0.286178
          0.302177 0.314675
        </DataArray>
        <DataArray type="Float32" Name="S_gas" NumberOfComponents="1" format="ascii">
          0.001 0.001 0.001 0.001 0.001 0.001 0.001 0.001 0.001 0.001 0.001 0.001
          0.001 0.001 0.001 0.001 0.001 0.001 0.001 0.001 0.001 0.001 0.001 0.001
          0.001 0.001 0.001 0.592643 0.887153 0.895349 0.717391 0.717391 0.717391 0.717391 0.717391 0.717391
          0.717391 0.717391 0.717391 0.717391 0.717391 0.717391 0.717391 0.717391 0.717391 0.717391 0.717378 0.713822
          0.697823 0.685325
        </DataArray>
        <DataArray type="Float32" Name="p_liq" NumberOfComponents="1" format="ascii">
          128239 127088 125936 124784 123632 122481 121329 120177 119025 117874 116722 115570
          114418 113267 112115 110963 109811 108659 107508 106356 105204 104052 102901 101749
          100597 118427 108614 98801.4 88990 83265.9 89054.2 89054.2 89054.2 89054.2 89054.2 89054.2
          89054.2 89054.2 89054.2 89054.2 89054.2 89054.2 89054.2 89054.2 89054.2 89054.2 89062.1 91188.7
          96510.4 97462.9
        </DataArray>
        <DataArray type="Float32" Name="p_gas" NumberOfComponents="1" format="ascii">
          128239 127088 125936 124784 123632 122481 121329 120177 119025 117874 116722 115570
          114418 113267 112115 110963 109811 108659 107508 106356 105204 104052 102901 101749
          100597 118427 108614 100000 100000 100000 100000 100000 100000 100000 100000 100000
          100000 100000 100000 100000 100000 100000 100000 100000 100000 100000 100000 100000
          100000 100000
        </DataArray>
        <DataArray type="Float32" Name="pc" NumberOfComponents="1" format="ascii">
          0 0 0 0 0 0 0 0 0 0 0 0
          0 0 0 0 0 0 0 0 0 0 0 0
          0 0 0 1198.58 11010 16734.1 10945.8 10945.8 10945.8 10945.8 10945.8 10945.8
          10945.8 10945.8 10945.8 10945.8 10945.8 10945.8 10945.8 10945.8 10945.8 10945.8 10937.9 8811.34
          3489.6 2537.15
        </DataArray>
        <DataArray type="Float32" Name="rho_liq" NumberOfComponents="1" format="ascii">
          1000 1000 1000 1000 1000 1000 1000 1000 1000 1000 1000 1000
          1000 1000 1000 1000 1000 1000 1000 1000 1000 1000 1000 1000
          1000 1000 1000 1000 1000 1000 1000 1000 1000 1000 1000 1000
          1000 1000 1000 1000 1000 1000 1000 1000 1000 1000 1000 1000
          1000 1000
        </DataArray>
        <DataArray type="Float32" Name="mob_liq" NumberOfComponents="1" format="ascii">
          1000 1000 1000 1000 1000 1000 1000 1000 1000 1000 1000 1000
          1000 1000 1000 1000 1000 1000 1000 1000 1000 1000 1000 1000
          1000 1000 1000 7.74244 1.18435e-05 0 0 0 0 0 0 0
          0 0 0 0 0 0 0 0 0 0 1.08034e-10 0.000295819
          0.0268163 0.0993225
        </DataArray>
        <DataArray type="Float32" Name="kr_liq" NumberOfComponents="1" format="ascii">
          1 1 1 1 1 1 1 1 1 1 1 1
          1 1 1 1 1 1 1 1 1 1 1 1
          1 1 1 0.00774244 1.18435e-08 0 0 0 0 0 0 0
          0 0 0 0 0 0 0 0 0 0 1.08034e-13 2.95819e-07
          2.68163e-05 9.93225e-05
        </DataArray>
        <DataArray type="Float32" Name="porosity" NumberOfComponents="1" format="ascii">
          0.43 0.43 0.43 0.43 0.43 0.43 0.43 0.43 0.43 0.43 0.43 0.43
          0.43 0.43 0.43 0.43 0.43 0.43 0.43 0.43 0.43 0.43 0.43 0.43
          0.43 0.43 0.43 0.43 0.43 0.43 0.46 0.46 0.46 0.46 0.46 0.46
          0.46 0.46 0.46 0.46 0.46 0.46 0.46 0.46 0.46 0.46 0.46 0.46
          0.46 0.46
        </DataArray>
        <DataArray type="Float32" Name="pressure head" NumberOfComponents="1" format="ascii">
          0 0 0 0 0 0 0 0 0 0 0 0
          0 0 0 0 0 0 0 0 0 0 0 0
          0 0 0 -12.2179 -112.233 -170.582 -111.578 -111.578 -111.578 -111.578 -111.578 -111.578
          -111.578 -111.578 -111.578 -111.578 -111.578 -111.578 -111.578 -111.578 -111.578 -111.578 -111.498 -89.82
          -35.5719 -25.8629
        </DataArray>
        <DataArray type="Float32" Name="water content" NumberOfComponents="1" format="ascii">
          0.42957 0.42957 0.42957 0.42957 0.42957 0.42957 0.42957 0.42957 0.42957 0.42957 0.42957 0.42957
          0.42957 0.42957 0.42957 0.42957 0.42957 0.42957 0.42957 0.42957 0.42957 0.42957 0.42957 0.42957
          0.42957 0.42957 0.42957 0.175163 0.048524 0.045 0.13 0.13 0.13 0.13 0.13 0.13
          0.13 0.13 0.13 0.13 0.13 0.13 0.13 0.13 0.13 0.13 0.130006 0.131642
          0.139001 0.144751
        </DataArray>
        <DataArray type="Float32" Name="process rank" NumberOfComponents="1" format="ascii">
          0 0 0 0 0 0 0 0 0 0 0 0
          0 0 0 0 0 0 0 0 0 0 0 0
          0 0 0 0 0 0 0 0 0 0 0 0
          0 0 0 0 0 0 0 0 0 0 0 0
          0 0
        </DataArray>
      </CellData>
      <Points>
        <DataArray type="Float32" Name="Coordinates" NumberOfComponents="3" format="ascii">
          0 0 0 1 0 0 0 1 0 1 1 0
          2 0 0 2 1 0 3 0 0 3 1 0
          4 0 0 4 1 0 5 0 0 5 1 0
          6 0 0 6 1 0 7 0 0 7 1 0
          8 0 0 8 1 0 9 0 0 9 1 0
          10 0 0 10 1 0 11 0 0 11 1 0
          12 0 0 12 1 0 13 0 0 13 1 0
          14 0 0 14 1 0 15 0 0 15 1 0
          16 0 0 16 1 0 17 0 0 17 1 0
          18 0 0 18 1 0 19 0 0 19 1 0
          20 0 0 20 1 0 21 0 0 21 1 0
          22 0 0 22 1 0 23 0 0 23 1 0
          24 0 0 24 1 0 25 0 0 25 1 0
          0 2 0 1 2 0 0 3 0 1 3 0
          0 4 0 1 4 0 0 5 0 1 5 0
          0 6 0 1 6 0 0 7 0 1 7 0
          0 8 0 1 8 0 0 9 0 1 9 0
          0 10 0 1 10 0 0 11 0 1 11 0
          0 12 0 1 12 0 0 13 0 1 13 0
          0 14 0 1 14 0 0 15 0 1 15 0
          0 16 0 1 16 0 0 17 0 1 17 0
          0 18 0 1 18 0 0 19 0 1 19 0
          0 20 0 1 20 0 0 21 0 1 21 0
          0 22 0 1 22 0 0 23 0 1 23 0
          0 24 0 1 24 0 0 25 0 1 25 0
          0 26 0 1 26 0
        </DataArray>
      </Points>
      <Cells>
        <DataArray type="Int32" Name="connectivity" NumberOfComponents="1" format="ascii">
          0 1 3 2 1 4 5 3 4 6 7 5
          6 8 9 7 8 10 11 9 10 12 13 11
          12 14 15 13 14 16 17 15 16 18 19 17
          18 20 21 19 20 22 23 21 22 24 25 23
          24 26 27 25 26 28 29 27 28 30 31 29
          30 32 33 31 32 34 35 33 34 36 37 35
          36 38 39 37 38 40 41 39 40 42 43 41
          42 44 45 43 44 46 47 45 46 48 49 47
          48 50 51 49 2 3 53 52 52 53 55 54
          54 55 57 56 56 57 59 58 58 59 61 60
          60 61 63 62 62 63 65 64 64 65 67 66
          66 67 69 68 68 69 71 70 70 71 73 72
          72 73 75 74 74 75 77 76 76 77 79 78
          78 79 81 80 80 81 83 82 82 83 85 84
          84 85 87 86 86 87 89 88 88 89 91 90
          90 91 93 92 92 93 95 94 94 95 97 96
          96 97 99 98 98 99 101 100
        </DataArray>
        <DataArray type="Int32" Name="offsets" NumberOfComponents="1" format="ascii">
          4 8 12 16 20 24 28 32 36 40 44 48
          52 56 60 64 68 72 76 80 84 88 92 96
          100 104 108 112 116 120 124 128 132 136 140 144
          148 152 156 160 164 168 172 176 180 184 188 192
          196 200
        </DataArray>
        <DataArray type="UInt8" Name="types" NumberOfComponents="1" format="ascii">
          9 9 9 9 9 9 9 9 9 9 9 9
          9 9 9 9 9 9 9 9 9 9 9 9
          9 9 9 9 9 9 9 9 9 9 9 9
          9 9 9 9 9 9 9 9 9 9 9 9
          9 9
        </DataArray>
      </Cells>
    </Piece>
  </UnstructuredGrid>
</VTKFile>
