%!PS-Adobe-2.0 EPSF-2.0
%%Creator: TECPLOT
%%Pages:1
%%BoundingBox: 71 17 721 595
%%DocumentFonts: Helvetica Helvetica-Bold Symbol Times-Roman Times-Bold Times-Italic Times-BoldItalic Courier Courier-Bold
%%EndComments
%%BeginPreview: 128 128 1 128
% ffffffffffffffffffffffffffffffff
% ffffffffffffffffffffffffffffffff
% ffffffffffffffffffffffffffffffff
% ffffffffffffffffffffffffffffffff
% ffffffffffffffffffffffffffffffff
% ffffffffffffffffffffffffffffffff
% ffffffffffffffffffffffffffffffff
% ffffffffffffffffffffffffffffffff
% ffffffffffffffffffffffffffffffff
% ffffffffffffffffffffffffffffffff
% ffffffffffffffffffffffffffffffff
% ffffffffffffffffffffffffffffffff
% ffffffffffffffffffffffffffffffff
% ffffffffffffffffffffffffffffffff
% ffffffffffffffffffffffffffffffff
% ffffffffffffffffffffffffffffffff
% ffffffffffffffffffffffffffffffff
% ffffffffffffffffffffffffffffffff
% ffffffffffffffffffffffffffffffff
% ffffffffffffffffffffffffffffffff
% ffffffffffffffffffffffffffffffff
% ffffffffffffffffffffffffffffffff
% ffffffffffffffffffffffffffffffff
% ffffffffffffffffffffffffffffffff
% ffffffffffffffffffffffffffffffff
% ffffffffffffffffffffffffffffffff
% ffffffffffffffffffffffffffffffff
% ffffffffffffffffffffffffffffffff
% ffffffffffffffffffffffffffffffff
% ffffffffffffffffffffffffffffffff
% ffffffffffffffffffffffffffffffff
% ffffffffffffffffffffffffffffffff
% ffffffffffffffffffffffffffffffff
% ffffffffffffffffffffffffffffffff
% ffffffffffffffffffffffffffffffff
% ffffffffffffffffffffffffffffffff
% ffffffffffffffffffffffffffffffff
% ffffffffffffffffffffffffffffffff
% ffffffffffffffffffffffffffffffff
% ffffffffffffffffffffffffffffffff
% ffffffffffffffffffffffffffffffff
% ffffffffffffffffffffffffffffffff
% ffffffffffffffffffffffffffffffff
% ffffffffffffffffffffffffffffffff
% ffffffffffffffffffffffffffffffff
% ffffffffffffffffffffffffffffffff
% ffffffffffffffffffffffffffffffff
% ffffffffffffffffffffffffffffffff
% ffffffffffffffffffffffffffffffff
% ffffffffffffffffffffffffffffffff
% ffffffffffffffffffffffffffffffff
% ffffffffffffffffffffffffffffffff
% ffffffffffffffffffffffffffffffff
% ffffffffffffffffffffffffffffffff
% ffffffffffffffffffffffffffffffff
% ffffffffffffffffffffffffffffffff
% ffffffffffffffffffffffffffffffff
% ffffffffffffffffffffffffffffffff
% ffffffffffffffffffffffffffffffff
% ffffffffffffffffffffffffffffffff
% ffffffffffffffffffffffffffffffff
% ffffffffffffffffffffffffffffffff
% ffffffffffffffffffffffffffffffff
% ffffffffffffffffffffffffffffffff
% ffffffffffffffffffffffffffffffff
% ffffffffffffffffffffffffffffffff
% ffffffffffffffffffffffffffffffff
% ffffffffffffffffffffffffffffffff
% ffffffffffffffffffffffffffffffff
% ffffffffffffffffffffffffffffffff
% ffffffffffffffffffffffffffffffff
% ffffffffffffffffffffffffffffffff
% ffffffffffffffffffffffffffffffff
% ffffffffffffffffffffffffffffffff
% ffffffffffffffffffffffffffffffff
% ffffffffffffffffffffffffffffffff
% ffffffffffffffffffffffffffffffff
% ffffffffffffffffffffffffffffffff
% ffffffffffffffffffffffffffffffff
% ffffffffffffffffffffffffffffffff
% ffffffffffffffffffffffffffffffff
% ffffffffffffffffffffffffffffffff
% ffffffffffffffffffffffffffffffff
% ffffffffffffffffffffffffffffffff
% ffffffffffffffffffffffffffffffff
% ffffffffffffffffffffffffffffffff
% ffffffffffffffffffffffffffffffff
% ffffffffffffffffffffffffffffffff
% ffffffffffffffffffffffffffffffff
% ffffffffffffffffffffffffffffffff
% ffffffffffffffffffffffffffffffff
% ffffffffffffffffffffffffffffffff
% ffffffffffffffffffffffffffffffff
% ffffffffffffffffffffffffffffffff
% ffffffffffffffffffffffffffffffff
% ffffffffffffffffffffffffffffffff
% ffffffffffffffffffffffffffffffff
% ffffffffffffffffffffffffffffffff
% ffffffffffffffffffffffffffffffff
% ffffffffffffffffffffffffffffffff
% ffffffffffffffffffffffffffffffff
% ffffffffffffffffffffffffffffffff
% ffffffffffffffffffffffffffffffff
% ffffffffffffffffffffffffffffffff
% ffffffffffffffffffffffffffffffff
% ffffffffffffffffffffffffffffffff
% ffffffffffffffffffffffffffffffff
% ffffffffffffffffffffffffffffffff
% ffffffffffffffffffffffffffffffff
% ffffffffffffffffffffffffffffffff
% ffffffffffffffffffffffffffffffff
% ffffffffffffffffffffffffffffffff
% ffffffffffffffffffffffffffffffff
% ffffffffffffffffffffffffffffffff
% ffffffffffffffffffffffffffffffff
% ffffffffffffffffffffffffffffffff
% ffffffffffffffffffffffffffffffff
% ffffffffffffffffffffffffffffffff
% ffffffffffffffffffffffffffffffff
% ffffffffffffffffffffffffffffffff
% ffffffffffffffffffffffffffffffff
% ffffffffffffffffffffffffffffffff
% ffffffffffffffffffffffffffffffff
% ffffffffffffffffffffffffffffffff
% ffffffffffffffffffffffffffffffff
% ffffffffffffffffffffffffffffffff
% ffffffffffffffffffffffffffffffff
% ffffffffffffffffffffffffffffffff
%%EndPreview
/tecplotdict 120 dict def
tecplotdict begin
/ed  {exch def} def
/ftl {findfont exch scalefont setfont} def
/ftr {/ISOLatin1-Times-Roman ftl} def
/ftb {/ISOLatin1-Times-Bold ftl} def
/fti {/ISOLatin1-Times-Italic ftl} def
/ftib {/ISOLatin1-Times-BoldItalic ftl} def
/fcr {/ISOLatin1-Courier ftl} def
/fcb {/ISOLatin1-Courier-Bold ftl} def
/fhn {/ISOLatin1-Helvetica ftl} def
/fhb {/ISOLatin1-Helvetica-Bold ftl} def
/fsy {/Symbol ftl} def
/gs /gsave load def
/gr /grestore load def
/np /newpath load def
/cp /closepath load def
/g /setgray load def
/lc {setlinecap} def
/lj /setlinejoin load def
/x /setrgbcolor load def
/sd /setdash load def
/sw {setlinewidth} def
/cpt /currentpoint load def
/m {moveto} def
/rm /rmoveto load def
/l /lineto load def
/r /rlineto load def
/sf /setflat load def
/s /stroke load def
/q {cpt s m} def
/ro /rotate load def
/sh /show load def
/clp {cp gr gs np m l l l cp clip np cp} def
/dorect
{
/height ed
/width  ed
m
0 height r
width 0 r
0 height neg r
cp
} def
/er {cp np dorect g fill 0 g cp} def
/erc {cp np dorect x fill 0 g cp} def
/br {cp np dorect g cp s} def
/brc {cp np dorect x cp s} def
/ii 0 def
/n 0 def
/CurA 0 def
/Ry 0 def
/Rx 0 def
/CA 0 def
/SA 0 def
/SJ 0 def
/SI 0 def
/bi 0 def
/i 0 def
/ib 0 def
/ig 0 def
/ir 0 def
/ishade 0 def
/bshade 0 def
/dcs
{
m
dup dup dup
-2 div dup
rm
0 r
0 exch r
neg 0 r
cp
} bind def
/pg
{
/size ed
/Ny ed
/Nx ed
/Y2 ed
/X2 ed
/Y1 ed
/X1 ed
Ny 1 gt
{/Dy Y2 Y1 sub Ny 1 sub div def}
{/Dy 0.0 def}
ifelse
Nx 1 gt
{/Dx X2 X1 sub Nx 1 sub div def}
{/Dx 0.0 def}
ifelse
Y1 Dy Y2 Dy 2 div add
{
X1 Dx X2 Dx 2 div add
{
1 index
size 3 1 roll
dcs fill
Dx 0.0 eq
{exit}
if
} for
pop
Dy 0.0 eq
{exit}
if
} for
} bind def
/z
{
/ii ed
rea ii get
gra ii get
bla ii get
} def
/lrgb
{
/ii ed
/blue ed
/green ed
/red ed
bla ii blue put
gra ii green put
rea ii red put
} def
/trace
{
cp np
m
1 1 n 
{
pop
r
} for
cp
} def
/f
{
/ishade ed
/n ed 
s
trace
ishade g fill
} def
/b
{
/bshade ed
/n ed 
m
1 1 n 
{
pop
r
} for
bshade g s
} def
/fb
{
/bshade ed
/ishade ed
/n ed 
s 
n 2 mul 2 add copy
trace
ishade g fill
trace
bshade g s
} def
/c
{
/n ed 
s 
trace
s
} def
/fc
{
/i ed
/n ed 
s 
trace
i z x fill
} def
/fd
{
/ib ed
/ig ed
/ir ed
/n ed 
s 
trace
ir ig ib x fill
} def
/bc
{
/i ed
/n ed 
m
1 1 n 
{
pop
r
} for
i z x s
} def
/fbc
{
/ii ed
/bi ed
/n ed 
s 
n 2 mul 2 add copy
trace
ii z x fill
trace
bi z x s
} def
/fbd
{
/ib ed
/ig ed
/ir ed
/bi ed
/n ed 
s
n 2 mul 2 add copy
trace
ir ig ib x fill
trace
bi z x s
} def
/e
{
/Ry ed
/Rx ed
/CA ed
/SA ed
/SJ ed
/SI ed
/DelX SA cos Rx mul def
/DelY SA sin Ry mul def
/XI SI DelX add def
/YI SJ DelY add def
/OCX DelX def
/OCY DelY def
/N 0 def
SA CA add
CA
SA 360 add
{
/CurA ed
/CX CurA cos Rx mul def
/CY CurA sin Ry mul def
OCX CX sub 
OCY CY sub 
/OCX CX def
/OCY CY def
/N N 1 add def
}
for
XI YI N
} def
%%EndProlog
%%Page:? 1
/getisofont
{
findfont
dup length dict begin
{
1 index /FID ne {def}{pop pop} ifelse
} forall
/Encoding ISOLatin1Encoding def
currentdict
end
} def
/Helvetica             getisofont /ISOLatin1-Helvetica             exch definefont pop
/Helvetica-Bold        getisofont /ISOLatin1-Helvetica-Bold        exch definefont pop
/Helvetica-Oblique     getisofont /ISOLatin1-Helvetica-Oblique     exch definefont pop
/Helvetica-BoldOblique getisofont /ISOLatin1-Helvetica-BoldOblique exch definefont pop
/Times-Roman           getisofont /ISOLatin1-Times-Roman           exch definefont pop
/Times-Bold            getisofont /ISOLatin1-Times-Bold            exch definefont pop
/Times-BoldItalic      getisofont /ISOLatin1-Times-BoldItalic      exch definefont pop
/Times-Italic          getisofont /ISOLatin1-Times-Italic          exch definefont pop
/Courier               getisofont /ISOLatin1-Courier               exch definefont pop
/Courier-Bold          getisofont /ISOLatin1-Courier-Bold          exch definefont pop
/Courier-Oblique       getisofont /ISOLatin1-Courier-Oblique       exch definefont pop
/Courier-BoldOblique   getisofont /ISOLatin1-Courier-BoldOblique   exch definefont pop
5 setmiterlimit
0.025 0.025 scale np
gs
2834 674 2834 23806 28846 23806 28846 674 clp
1 2880 720 25920 23040 er
2879 719 2879 23761 28801 23761 28801 719 clp
6249 3253 6249 20996 25691 20996 25691 3253 clp
0 g
23 sw
0 lc
0 lj
[1 114] 0 sd
6250 3254 m
6250 20995 l
s
7546 3254 m
7546 20995 l
s
8842 3254 m
8842 20995 l
s
10138 3254 m
10138 20995 l
s
11434 3254 m
11434 20995 l
s
12730 3254 m
12730 20995 l
s
14026 3254 m
14026 20995 l
s
15322 3254 m
15322 20995 l
s
16618 3254 m
16618 20995 l
s
17914 3254 m
17914 20995 l
s
19210 3254 m
19210 20995 l
s
20506 3254 m
20506 20995 l
s
21802 3254 m
21802 20995 l
s
23098 3254 m
23098 20995 l
s
24394 3254 m
24394 20995 l
s
25690 3254 m
25690 20995 l
s
2879 719 2879 23761 28801 23761 28801 719 clp
6249 3253 6249 20996 25691 20996 25691 3253 clp
0 g
23 sw
0 lc
0 lj
[1 114] 0 sd
6250 3254 m
25690 3254 l
s
6250 3609 m
25690 3609 l
s
6250 3964 m
25690 3964 l
s
6250 4319 m
25690 4319 l
s
6250 4674 m
25690 4674 l
s
6250 5028 m
25690 5028 l
s
6250 5383 m
25690 5383 l
s
6250 5738 m
25690 5738 l
s
6250 6093 m
25690 6093 l
s
6250 6448 m
25690 6448 l
s
6250 6803 m
25690 6803 l
s
6250 7157 m
25690 7157 l
s
6250 7512 m
25690 7512 l
s
6250 7867 m
25690 7867 l
s
6250 8222 m
25690 8222 l
s
6250 8577 m
25690 8577 l
s
6250 8931 m
25690 8931 l
s
6250 9286 m
25690 9286 l
s
6250 9641 m
25690 9641 l
s
6250 9996 m
25690 9996 l
s
6250 10351 m
25690 10351 l
s
6250 10706 m
25690 10706 l
s
6250 11060 m
25690 11060 l
s
6250 11415 m
25690 11415 l
s
6250 11770 m
25690 11770 l
s
6250 12125 m
25690 12125 l
s
6250 12480 m
25690 12480 l
s
6250 12834 m
25690 12834 l
s
6250 13189 m
25690 13189 l
s
6250 13544 m
25690 13544 l
s
6250 13899 m
25690 13899 l
s
6250 14254 m
25690 14254 l
s
6250 14609 m
25690 14609 l
s
6250 14963 m
25690 14963 l
s
6250 15318 m
25690 15318 l
s
6250 15673 m
25690 15673 l
s
6250 16028 m
25690 16028 l
s
6250 16383 m
25690 16383 l
s
6250 16737 m
25690 16737 l
s
6250 17092 m
25690 17092 l
s
6250 17447 m
25690 17447 l
s
6250 17802 m
25690 17802 l
s
6250 18157 m
25690 18157 l
s
6250 18511 m
25690 18511 l
s
6250 18866 m
25690 18866 l
s
6250 19221 m
25690 19221 l
s
6250 19576 m
25690 19576 l
s
6250 19931 m
25690 19931 l
s
6250 20286 m
25690 20286 l
s
6250 20640 m
25690 20640 l
s
6250 20995 m
25690 20995 l
s
44.175 -46.211 108.166 0.125 108.166 0.124 108.168 0.082 108.166 0.024 108.166 0.023 108.168 0.026 108.166 0.030 108.166 0.030 108.168 7.127
108.166 16.839 108.168 16.839 108.166 39.499 108.166 69.924 108.168 69.924 108.166 69.978 108.166 70.048 108.168 70.049 108.166 79.848 108.166 92.518
108.168 92.518 108.166 117.785 108.166 149.845 108.168 149.845 108.166 149.995 108.166 150.183 108.168 150.182 108.166 160.575 108.166 173.275 108.168 173.275
108.166 195.384 108.167 221.907 108.167 221.907 108.166 222.045 108.167 222.209 108.167 222.208 108.166 227.533 108.167 233.687 108.167 233.688 108.166 243.237
108.167 254.074 108.167 254.073 108.167 254.095 108.166 254.120 108.167 254.119 108.167 250.683 108.166 246.925 108.167 246.925 108.167 241.720 108.166 236.133
108.167 236.132 108.167 236.110 108.166 236.085 108.167 236.086 108.167 226.576 108.167 216.742 108.166 216.742 108.167 204.519 108.167 192.110 108.166 192.110
108.167 192.091 108.167 192.073 108.166 192.074 108.167 181.401 108.167 170.960 108.166 170.960 108.167 159.290 108.167 148.080 108.167 148.080 108.166 148.068
108.167 148.059 108.167 148.062 108.166 137.801 108.167 128.301 108.167 128.298 108.166 118.740 108.167 110.056 108.167 110.056 108.167 110.050 108.166 110.045
108.167 110.045 108.167 101.085 108.166 93.241 108.167 93.241 108.167 86.141 108.166 80.040 108.167 80.040 108.167 80.037 108.166 80.034 108.167 80.034
108.167 74.127 108.167 69.237 108.166 69.237 108.167 65.260 108.167 62.029 108.166 62.029 108.167 62.029 108.167 62.029 108.166 62.029 108.167 56.999
108.167 53.062 108.166 53.062 108.167 50.211 108.167 48.022 108.167 48.021 108.166 48.022 108.167 48.022 108.166 48.021 108.167 44.897 108.166 42.584
108.166 42.584 108.167 41.095 108.166 40.014 108.167 40.014 108.166 40.017 108.166 40.020 108.167 40.020 108.166 37.475 108.166 35.696 108.167 35.696
108.166 34.698 108.167 34.014 108.166 34.014 108.166 34.018 108.167 34.020 108.166 34.020 108.167 32.182 108.166 30.970 108.166 30.970 108.167 30.391
108.166 30.016 108.166 30.016 108.167 30.013 108.166 30.011 108.167 30.011 108.166 28.043 108.166 26.818 108.167 26.818 108.166 26.314 108.167 26.007
108.166 26.007 108.166 26.010 108.167 26.013 108.167 26.013 108.167 24.953 108.167 24.331 108.167 24.331 108.166 24.127 108.167 24.011 108.167 24.011
108.167 24.014 108.166 24.014 108.167 24.011 108.167 16.068 108.167 11.683 108.166 11.686 108.167 10.598 108.167 10.009 108.167 10.009 108.167 10.006
108.166 10.003 108.167 10.003 108.167 13.635 108.167 15.524 108.167 15.523 108.167 15.845 108.167 16.009 108.167 16.009 108.167 16.009 108.167 16.009
108.167 16.009 108.167 150.224 108.167 215.779 108.167 215.779 108.167 221.410 108.167 224.104 108.167 224.104 108.167 224.103 108.167 224.103 108.167 224.102
6283.595 3324.832 180 69 sw
[] 0 sd
0 b
2879 719 2879 23761 28801 23761 28801 719 clp
0 g
92 sw
0 lc
0 lj
[] 0 sd
6250 3254 m
6250 3715 l
s
23 sw
7546 3254 m
7546 3531 l
s
8842 3254 m
8842 3531 l
s
10138 3254 m
10138 3531 l
s
11434 3254 m
11434 3531 l
s
92 sw
12730 3254 m
12730 3715 l
s
23 sw
14026 3254 m
14026 3531 l
s
15322 3254 m
15322 3531 l
s
16618 3254 m
16618 3531 l
s
17914 3254 m
17914 3531 l
s
92 sw
19210 3254 m
19210 3715 l
s
23 sw
20506 3254 m
20506 3531 l
s
21802 3254 m
21802 3531 l
s
23098 3254 m
23098 3531 l
s
24394 3254 m
24394 3531 l
s
92 sw
25690 3254 m
25690 3715 l
s
2 lc
6250 3254 m
25690 3254 l
s
-585 -0 0 564 585 -0 15677 1769 3 5 sw
1 1 fb
829.44 fhb
0 g
15677 1769 m
(X) sh
92 sw
0 lc
6250 3254 m
6710 3254 l
s
23 sw
6250 3609 m
6526 3609 l
s
6250 3964 m
6526 3964 l
s
6250 4319 m
6526 4319 l
s
6250 4674 m
6526 4674 l
s
92 sw
6250 5028 m
6710 5028 l
s
23 sw
6250 5383 m
6526 5383 l
s
6250 5738 m
6526 5738 l
s
6250 6093 m
6526 6093 l
s
6250 6448 m
6526 6448 l
s
92 sw
6250 6803 m
6710 6803 l
s
23 sw
6250 7157 m
6526 7157 l
s
6250 7512 m
6526 7512 l
s
6250 7867 m
6526 7867 l
s
6250 8222 m
6526 8222 l
s
92 sw
6250 8577 m
6710 8577 l
s
23 sw
6250 8931 m
6526 8931 l
s
6250 9286 m
6526 9286 l
s
6250 9641 m
6526 9641 l
s
6250 9996 m
6526 9996 l
s
92 sw
6250 10351 m
6710 10351 l
s
23 sw
6250 10706 m
6526 10706 l
s
6250 11060 m
6526 11060 l
s
6250 11415 m
6526 11415 l
s
6250 11770 m
6526 11770 l
s
92 sw
6250 12125 m
6710 12125 l
s
23 sw
6250 12480 m
6526 12480 l
s
6250 12834 m
6526 12834 l
s
6250 13189 m
6526 13189 l
s
6250 13544 m
6526 13544 l
s
92 sw
6250 13899 m
6710 13899 l
s
23 sw
6250 14254 m
6526 14254 l
s
6250 14609 m
6526 14609 l
s
6250 14963 m
6526 14963 l
s
6250 15318 m
6526 15318 l
s
92 sw
6250 15673 m
6710 15673 l
s
23 sw
6250 16028 m
6526 16028 l
s
6250 16383 m
6526 16383 l
s
6250 16737 m
6526 16737 l
s
6250 17092 m
6526 17092 l
s
92 sw
6250 17447 m
6710 17447 l
s
23 sw
6250 17802 m
6526 17802 l
s
6250 18157 m
6526 18157 l
s
6250 18511 m
6526 18511 l
s
6250 18866 m
6526 18866 l
s
92 sw
6250 19221 m
6710 19221 l
s
23 sw
6250 19576 m
6526 19576 l
s
6250 19931 m
6526 19931 l
s
6250 20286 m
6526 20286 l
s
6250 20640 m
6526 20640 l
s
92 sw
6250 20995 m
6710 20995 l
s
2 lc
6250 3254 m
6250 20995 l
s
0 -1078 -564 -0 0 1078 4694 11586 3 5 sw
1 1 fb
829.44 fhb
0 g
4694 11586 m
gs 90.0 ro
(S) sh
gr
4694 12170 m
gs 90.0 ro
(n) sh
gr
-454 -0 0 548 454 -0 6023 2476 3 1 1 fb
806.4 fhn
0 g
6023 2476 m
(0) sh
-1126 -0 0 548 1126 -0 12167 2476 3 1 1 fb
806.4 fhn
0 g
12167 2476 m
(0) sh
12620 2476 m
(.) sh
12839 2476 m
(1) sh
-1126 -0 0 548 1126 -0 18647 2476 3 1 1 fb
806.4 fhn
0 g
18647 2476 m
(0) sh
19100 2476 m
(.) sh
19319 2476 m
(2) sh
-1126 -0 0 548 1126 -0 25127 2476 3 1 1 fb
806.4 fhn
0 g
25127 2476 m
(0) sh
25580 2476 m
(.) sh
25799 2476 m
(3) sh
-454 -0 0 548 454 -0 5537 2980 3 1 1 fb
806.4 fhn
0 g
5537 2980 m
(0) sh
-1126 -0 0 548 1126 -0 4865 4754 3 1 1 fb
806.4 fhn
0 g
4865 4754 m
(0) sh
5318 4754 m
(.) sh
5537 4754 m
(1) sh
-1126 -0 0 548 1126 -0 4865 6528 3 1 1 fb
806.4 fhn
0 g
4865 6528 m
(0) sh
5318 6528 m
(.) sh
5537 6528 m
(2) sh
-1126 -0 0 548 1126 -0 4865 8302 3 1 1 fb
806.4 fhn
0 g
4865 8302 m
(0) sh
5318 8302 m
(.) sh
5537 8302 m
(3) sh
-1126 -0 0 548 1126 -0 4865 10077 3 1 1 fb
806.4 fhn
0 g
4865 10077 m
(0) sh
5318 10077 m
(.) sh
5537 10077 m
(4) sh
-1126 -0 0 548 1126 -0 4865 11851 3 1 1 fb
806.4 fhn
0 g
4865 11851 m
(0) sh
5318 11851 m
(.) sh
5537 11851 m
(5) sh
-1126 -0 0 548 1126 -0 4865 13625 3 1 1 fb
806.4 fhn
0 g
4865 13625 m
(0) sh
5318 13625 m
(.) sh
5537 13625 m
(6) sh
-1126 -0 0 548 1126 -0 4865 15399 3 1 1 fb
806.4 fhn
0 g
4865 15399 m
(0) sh
5318 15399 m
(.) sh
5537 15399 m
(7) sh
-1126 -0 0 548 1126 -0 4865 17173 3 1 1 fb
806.4 fhn
0 g
4865 17173 m
(0) sh
5318 17173 m
(.) sh
5537 17173 m
(8) sh
-1126 -0 0 548 1126 -0 4865 18947 3 1 1 fb
806.4 fhn
0 g
4865 18947 m
(0) sh
5318 18947 m
(.) sh
5537 18947 m
(9) sh
-454 -0 0 548 454 -0 5537 20721 3 1 1 fb
806.4 fhn
0 g
5537 20721 m
(1) sh
0 2349 6108 -0 0 -2349 19445 10104 3 23 sw
1 0 fb
19398 7709 19398 10150 25599 10150 25599 7709 clp
2879 719 2879 23761 28801 23761 28801 719 clp
806.4 fhb
0 g
24187 8385 m
(S) sh
483.84 fhb
24756 8143 m
(n) sh
69 sw
0 lc
0 lj
[] 0 sd
19954 8627 m
23582 8627 l
s
gr end
showpage
