%!PS-Adobe-2.0 EPSF-2.0
%%Title: segmentsx.eps
%%Creator: fig2dev Version 3.2 Patchlevel 1
%%CreationDate: Tue Mar  6 10:49:40 2001
%%For: holle@ibis (Holger Class,IWS Abt. 2,4739)
%%Orientation: Portrait
%%BoundingBox: 0 0 337 353
%%Pages: 0
%%BeginSetup
%%EndSetup
%%Magnification: 1.0000
%%EndComments
/$F2psDict 200 dict def
$F2psDict begin
$F2psDict /mtrx matrix put
/col-1 {0 setgray} bind def
/col0 {0.000 0.000 0.000 srgb} bind def
/col1 {0.000 0.000 1.000 srgb} bind def
/col2 {0.000 1.000 0.000 srgb} bind def
/col3 {0.000 1.000 1.000 srgb} bind def
/col4 {1.000 0.000 0.000 srgb} bind def
/col5 {1.000 0.000 1.000 srgb} bind def
/col6 {1.000 1.000 0.000 srgb} bind def
/col7 {1.000 1.000 1.000 srgb} bind def
/col8 {0.000 0.000 0.560 srgb} bind def
/col9 {0.000 0.000 0.690 srgb} bind def
/col10 {0.000 0.000 0.820 srgb} bind def
/col11 {0.530 0.810 1.000 srgb} bind def
/col12 {0.000 0.560 0.000 srgb} bind def
/col13 {0.000 0.690 0.000 srgb} bind def
/col14 {0.000 0.820 0.000 srgb} bind def
/col15 {0.000 0.560 0.560 srgb} bind def
/col16 {0.000 0.690 0.690 srgb} bind def
/col17 {0.000 0.820 0.820 srgb} bind def
/col18 {0.560 0.000 0.000 srgb} bind def
/col19 {0.690 0.000 0.000 srgb} bind def
/col20 {0.820 0.000 0.000 srgb} bind def
/col21 {0.560 0.000 0.560 srgb} bind def
/col22 {0.690 0.000 0.690 srgb} bind def
/col23 {0.820 0.000 0.820 srgb} bind def
/col24 {0.500 0.190 0.000 srgb} bind def
/col25 {0.630 0.250 0.000 srgb} bind def
/col26 {0.750 0.380 0.000 srgb} bind def
/col27 {1.000 0.500 0.500 srgb} bind def
/col28 {1.000 0.630 0.630 srgb} bind def
/col29 {1.000 0.750 0.750 srgb} bind def
/col30 {1.000 0.880 0.880 srgb} bind def
/col31 {1.000 0.840 0.000 srgb} bind def

end
save
-83.0 405.0 translate
1 -1 scale

/cp {closepath} bind def
/ef {eofill} bind def
/gr {grestore} bind def
/gs {gsave} bind def
/sa {save} bind def
/rs {restore} bind def
/l {lineto} bind def
/m {moveto} bind def
/rm {rmoveto} bind def
/n {newpath} bind def
/s {stroke} bind def
/sh {show} bind def
/slc {setlinecap} bind def
/slj {setlinejoin} bind def
/slw {setlinewidth} bind def
/srgb {setrgbcolor} bind def
/rot {rotate} bind def
/sc {scale} bind def
/sd {setdash} bind def
/ff {findfont} bind def
/sf {setfont} bind def
/scf {scalefont} bind def
/sw {stringwidth} bind def
/tr {translate} bind def
/tnt {dup dup currentrgbcolor
  4 -2 roll dup 1 exch sub 3 -1 roll mul add
  4 -2 roll dup 1 exch sub 3 -1 roll mul add
  4 -2 roll dup 1 exch sub 3 -1 roll mul add srgb}
  bind def
/shd {dup dup currentrgbcolor 4 -2 roll mul 4 -2 roll mul
  4 -2 roll mul srgb} bind def
/reencdict 12 dict def /ReEncode { reencdict begin
/newcodesandnames exch def /newfontname exch def /basefontname exch def
/basefontdict basefontname findfont def /newfont basefontdict maxlength dict def
basefontdict { exch dup /FID ne { dup /Encoding eq
{ exch dup length array copy newfont 3 1 roll put }
{ exch newfont 3 1 roll put } ifelse } { pop pop } ifelse } forall
newfont /FontName newfontname put newcodesandnames aload pop
128 1 255 { newfont /Encoding get exch /.notdef put } for
newcodesandnames length 2 idiv { newfont /Encoding get 3 1 roll put } repeat
newfontname newfont definefont pop end } def
/isovec [
8#200 /grave 8#201 /acute 8#202 /circumflex 8#203 /tilde
8#204 /macron 8#205 /breve 8#206 /dotaccent 8#207 /dieresis
8#210 /ring 8#211 /cedilla 8#212 /hungarumlaut 8#213 /ogonek 8#214 /caron
8#220 /dotlessi 8#230 /oe 8#231 /OE
8#240 /space 8#241 /exclamdown 8#242 /cent 8#243 /sterling
8#244 /currency 8#245 /yen 8#246 /brokenbar 8#247 /section 8#250 /dieresis
8#251 /copyright 8#252 /ordfeminine 8#253 /guillemotleft 8#254 /logicalnot
8#255 /endash 8#256 /registered 8#257 /macron 8#260 /degree 8#261 /plusminus
8#262 /twosuperior 8#263 /threesuperior 8#264 /acute 8#265 /mu 8#266 /paragraph
8#267 /periodcentered 8#270 /cedilla 8#271 /onesuperior 8#272 /ordmasculine
8#273 /guillemotright 8#274 /onequarter 8#275 /onehalf
8#276 /threequarters 8#277 /questiondown 8#300 /Agrave 8#301 /Aacute
8#302 /Acircumflex 8#303 /Atilde 8#304 /Adieresis 8#305 /Aring
8#306 /AE 8#307 /Ccedilla 8#310 /Egrave 8#311 /Eacute
8#312 /Ecircumflex 8#313 /Edieresis 8#314 /Igrave 8#315 /Iacute
8#316 /Icircumflex 8#317 /Idieresis 8#320 /Eth 8#321 /Ntilde 8#322 /Ograve
8#323 /Oacute 8#324 /Ocircumflex 8#325 /Otilde 8#326 /Odieresis 8#327 /multiply
8#330 /Oslash 8#331 /Ugrave 8#332 /Uacute 8#333 /Ucircumflex
8#334 /Udieresis 8#335 /Yacute 8#336 /Thorn 8#337 /germandbls 8#340 /agrave
8#341 /aacute 8#342 /acircumflex 8#343 /atilde 8#344 /adieresis 8#345 /aring
8#346 /ae 8#347 /ccedilla 8#350 /egrave 8#351 /eacute
8#352 /ecircumflex 8#353 /edieresis 8#354 /igrave 8#355 /iacute
8#356 /icircumflex 8#357 /idieresis 8#360 /eth 8#361 /ntilde 8#362 /ograve
8#363 /oacute 8#364 /ocircumflex 8#365 /otilde 8#366 /odieresis 8#367 /divide
8#370 /oslash 8#371 /ugrave 8#372 /uacute 8#373 /ucircumflex
8#374 /udieresis 8#375 /yacute 8#376 /thorn 8#377 /ydieresis] def
/Helvetica /Helvetica-iso isovec ReEncode
/$F2psBegin {$F2psDict begin /$F2psEnteredState save def} def
/$F2psEnd {$F2psEnteredState restore end} def
%%EndProlog

$F2psBegin
10 setmiterlimit
n -1000 7747 m -1000 -1000 l 7997 -1000 l 7997 7747 l cp clip
 0.06000 0.06000 sc
% Polyline
15.000 slw
n 2175 1800 m 2178 1800 l 2186 1800 l 2198 1800 l 2217 1800 l 2241 1800 l
 2270 1800 l 2301 1800 l 2334 1800 l 2367 1800 l 2398 1800 l
 2428 1800 l 2456 1800 l 2481 1800 l 2504 1800 l 2526 1800 l
 2546 1800 l 2565 1800 l 2583 1800 l 2600 1800 l 2619 1800 l
 2638 1800 l 2657 1800 l 2676 1800 l 2695 1800 l 2715 1800 l
 2735 1800 l 2755 1800 l 2775 1800 l 2795 1800 l 2815 1800 l
 2835 1800 l 2855 1800 l 2874 1800 l 2893 1800 l 2912 1800 l
 2931 1800 l 2950 1800 l 2967 1800 l 2985 1800 l 3004 1800 l
 3023 1800 l 3043 1800 l 3064 1800 l 3085 1800 l 3107 1800 l
 3129 1800 l 3152 1800 l 3174 1800 l 3197 1800 l 3219 1800 l
 3241 1800 l 3263 1800 l 3284 1800 l 3304 1800 l 3324 1800 l
 3343 1800 l 3363 1800 l 3383 1800 l 3404 1800 l 3426 1800 l
 3447 1800 l 3469 1800 l 3491 1800 l 3514 1800 l 3537 1800 l
 3559 1800 l 3581 1800 l 3603 1800 l 3624 1800 l 3645 1800 l
 3665 1800 l 3684 1800 l 3702 1800 l 3720 1800 l 3738 1800 l
 3757 1800 l 3776 1800 l 3796 1800 l 3816 1800 l 3836 1800 l
 3857 1800 l 3877 1800 l 3898 1800 l 3919 1800 l 3939 1800 l
 3959 1800 l 3979 1800 l 3997 1800 l 4015 1800 l 4033 1800 l
 4050 1800 l 4067 1800 l 4085 1800 l 4103 1800 l 4121 1800 l
 4140 1800 l 4158 1800 l 4178 1800 l 4197 1800 l 4215 1800 l
 4233 1800 l 4251 1800 l 4267 1800 l 4283 1800 l 4298 1800 l
 4312 1800 l 4325 1800 l 4342 1800 l 4358 1800 l 4374 1800 l
 4390 1800 l 4405 1800 l 4420 1800 l 4434 1800 l 4447 1800 l
 4458 1800 l 4469 1800 l 4479 1800 l 4487 1800 l 4488 1800 l
 4500 1800 l 4512 1800 l 4524 1801 l 4536 1802 l 4547 1803 l
 4557 1806 l 4566 1809 l 4575 1813 l 4582 1816 l 4589 1821 l
 4597 1827 l 4604 1834 l 4613 1843 l 4621 1852 l 4628 1863 l
 4636 1875 l 4643 1887 l 4650 1900 l 4656 1912 l 4662 1925 l
 4668 1939 l 4674 1955 l 4680 1971 l 4686 1988 l 4691 2004 l
 4697 2020 l 4702 2036 l 4706 2050 l 4709 2063 l 4712 2075 l
 4713 2075 l 4716 2088 l 4718 2101 l 4721 2112 l 4723 2124 l
 4725 2134 l 4727 2144 l 4729 2153 l 4732 2161 l 4734 2168 l
 4738 2175 l 4741 2181 l 4745 2187 l 4750 2193 l 4756 2199 l
 4764 2205 l 4773 2211 l 4784 2216 l 4797 2222 l 4811 2227 l
 4826 2231 l 4844 2234 l 4862 2237 l 4863 2238 l 4878 2240 l
 4895 2241 l 4914 2243 l 4934 2244 l 4955 2246 l 4977 2247 l
 5000 2248 l 5023 2248 l 5046 2249 l 5069 2249 l 5090 2250 l
 5110 2250 l 5129 2250 l 5146 2250 l 5161 2250 l 5175 2250 l
 5198 2250 l 5216 2250 l 5231 2250 l 5241 2250 l 5249 2250 l
 5254 2250 l 5259 2250 l 5263 2250 l 5267 2250 l 5274 2250 l
 5282 2250 l 5291 2250 l 5302 2250 l 5313 2250 l 5325 2250 l
 5338 2250 l 5348 2250 l 5360 2250 l 5372 2250 l 5385 2250 l
 5398 2250 l 5411 2250 l 5423 2250 l 5433 2250 l 5442 2250 l
 5450 2250 l 5458 2250 l 5464 2250 l 5469 2251 l 5473 2252 l
 5477 2253 l 5480 2256 l 5484 2259 l 5488 2263 l 5491 2266 l
 5496 2271 l 5501 2277 l 5507 2284 l 5514 2293 l 5521 2302 l
 5529 2313 l 5536 2325 l 5543 2337 l 5550 2350 l 5553 2356 l
 5556 2362 l 5559 2369 l 5562 2377 l 5565 2386 l 5568 2396 l
 5571 2408 l 5575 2421 l 5578 2437 l 5582 2454 l 5585 2473 l
 5589 2495 l 5593 2518 l 5597 2545 l 5601 2573 l 5605 2604 l
 5609 2637 l 5613 2672 l 5617 2710 l 5621 2750 l 5625 2793 l
 5629 2838 l 5633 2886 l 5638 2938 l 5640 2968 l 5642 3000 l
 5645 3034 l 5648 3068 l 5650 3104 l 5653 3141 l 5656 3180 l
 5659 3220 l 5661 3261 l 5664 3303 l 5667 3346 l 5670 3390 l
 5673 3436 l 5676 3482 l 5680 3529 l 5683 3577 l 5686 3626 l
 5689 3675 l 5692 3724 l 5695 3774 l 5698 3823 l 5701 3873 l
 5704 3923 l 5707 3972 l 5710 4021 l 5713 4069 l 5716 4117 l
 5719 4163 l 5722 4209 l 5724 4254 l 5727 4298 l 5730 4341 l
 5732 4383 l 5734 4423 l 5737 4462 l 5739 4500 l 5741 4537 l
 5743 4572 l 5745 4606 l 5747 4639 l 5748 4670 l 5750 4700 l
 5753 4754 l 5756 4804 l 5758 4851 l 5761 4895 l 5763 4936 l
 5765 4973 l 5767 5008 l 5769 5040 l 5771 5069 l 5773 5096 l
 5775 5120 l 5777 5141 l 5779 5159 l 5781 5176 l 5783 5190 l
 5785 5202 l 5787 5213 l 5789 5222 l 5792 5230 l 5794 5237 l
 5797 5244 l 5800 5250 l 5805 5260 l 5811 5270 l 5819 5280 l
 5827 5290 l 5836 5301 l 5847 5311 l 5859 5322 l 5871 5331 l
 5885 5341 l 5899 5349 l 5914 5357 l 5930 5364 l 5946 5370 l
 5963 5375 l 5978 5379 l 5994 5383 l 6012 5386 l 6031 5389 l
 6050 5391 l 6071 5393 l 6092 5395 l 6114 5397 l 6136 5398 l
 6158 5399 l 6179 5399 l 6200 5400 l 6220 5400 l 6239 5400 l
 6258 5400 l 6275 5400 l 6294 5400 l 6313 5400 l 6332 5400 l
 6351 5400 l 6370 5400 l 6389 5400 l 6407 5400 l 6425 5400 l
 6442 5400 l 6458 5400 l 6473 5400 l 6487 5400 l 6500 5400 l
 6513 5400 l 6527 5400 l 6541 5400 l 6555 5400 l 6569 5400 l
 6584 5400 l 6598 5400 l 6612 5400 l 6626 5400 l 6639 5400 l
 6652 5400 l 6663 5400 l 6675 5400 l 6687 5400 l 6698 5400 l
 6711 5400 l 6723 5400 l 6737 5400 l 6750 5400 l 6763 5400 l
 6777 5400 l 6789 5400 l 6802 5400 l 6813 5400 l 6825 5400 l
 6837 5400 l 6848 5400 l 6861 5400 l 6876 5400 l 6892 5400 l
 6910 5400 l 6928 5400 l 6946 5400 l 6961 5400 l 6970 5400 l
 6974 5400 l 6975 5400 l gs col-1 s gr 
% Polyline
gs  clippath
6704 6240 m 6944 6300 l 6704 6360 l 7005 6360 l 7005 6240 l cp
clip
n 1800 6300 m 6975 6300 l gs col-1 s gr gr

% arrowhead
n 6704 6240 m 6944 6300 l 6704 6360 l  col-1 s
% Polyline
gs  clippath
1740 1171 m 1800 930 l 1860 1171 l 1860 870 l 1740 870 l cp
clip
n 1800 6300 m 1800 900 l gs col-1 s gr gr

% arrowhead
n 1740 1171 m 1800 930 l 1860 1171 l  col-1 s
% Polyline
7.500 slw
n 1725 1800 m 1875 1800 l gs col-1 s gr 
% Polyline
 [60] 0 sd
n 1800 2250 m 2325 2250 l gs col-1 s gr  [] 0 sd
% Polyline
 [60] 0 sd
n 1875 1800 m 2400 1800 l gs col-1 s gr  [] 0 sd
/Helvetica-iso ff 240.00 scf sf
1875 1725 m
gs 1 -1 sc (water) col-1 sh gr
/Helvetica-iso ff 255.00 scf sf
1950 1275 m
gs 1 -1 sc (boiling temperature) col-1 sh gr
/Helvetica-iso ff 255.00 scf sf
1575 4575 m
gs 1 -1 sc  90.0 rot (temperature) col-1 sh gr
/Helvetica-iso ff 240.00 scf sf
1875 2175 m
gs 1 -1 sc (water-NAPL-mixture) col-1 sh gr
/Helvetica-iso ff 255.00 scf sf
2850 4650 m
gs 1 -1 sc (p = const.) col-1 sh gr
/Helvetica-iso ff 255.00 scf sf
4950 2100 m
gs 1 -1 sc (\(iii\)) col-1 sh gr
/Helvetica-iso ff 255.00 scf sf
5775 3525 m
gs 1 -1 sc (\(ii\)) col-1 sh gr
/Helvetica-iso ff 255.00 scf sf
6450 5325 m
gs 1 -1 sc (\(i\)) col-1 sh gr
/Helvetica-iso ff 255.00 scf sf
3375 1725 m
gs 1 -1 sc (\(iv\)) col-1 sh gr
/Helvetica-iso ff 255.00 scf sf
3375 6675 m
gs 1 -1 sc (space coordinate) col-1 sh gr
$F2psEnd
rs
