%!PS-Adobe-2.0 EPSF-2.0
%%Title: segments.eps
%%Creator: fig2dev Version 3.2 Patchlevel 1
%%CreationDate: Tue Mar  6 10:47:30 2001
%%For: holle@ibis (Holger Class,IWS Abt. 2,4739)
%%Orientation: Portrait
%%BoundingBox: 0 0 337 349
%%Pages: 0
%%BeginSetup
%%EndSetup
%%Magnification: 1.0000
%%EndComments
/$F2psDict 200 dict def
$F2psDict begin
$F2psDict /mtrx matrix put
/col-1 {0 setgray} bind def
/col0 {0.000 0.000 0.000 srgb} bind def
/col1 {0.000 0.000 1.000 srgb} bind def
/col2 {0.000 1.000 0.000 srgb} bind def
/col3 {0.000 1.000 1.000 srgb} bind def
/col4 {1.000 0.000 0.000 srgb} bind def
/col5 {1.000 0.000 1.000 srgb} bind def
/col6 {1.000 1.000 0.000 srgb} bind def
/col7 {1.000 1.000 1.000 srgb} bind def
/col8 {0.000 0.000 0.560 srgb} bind def
/col9 {0.000 0.000 0.690 srgb} bind def
/col10 {0.000 0.000 0.820 srgb} bind def
/col11 {0.530 0.810 1.000 srgb} bind def
/col12 {0.000 0.560 0.000 srgb} bind def
/col13 {0.000 0.690 0.000 srgb} bind def
/col14 {0.000 0.820 0.000 srgb} bind def
/col15 {0.000 0.560 0.560 srgb} bind def
/col16 {0.000 0.690 0.690 srgb} bind def
/col17 {0.000 0.820 0.820 srgb} bind def
/col18 {0.560 0.000 0.000 srgb} bind def
/col19 {0.690 0.000 0.000 srgb} bind def
/col20 {0.820 0.000 0.000 srgb} bind def
/col21 {0.560 0.000 0.560 srgb} bind def
/col22 {0.690 0.000 0.690 srgb} bind def
/col23 {0.820 0.000 0.820 srgb} bind def
/col24 {0.500 0.190 0.000 srgb} bind def
/col25 {0.630 0.250 0.000 srgb} bind def
/col26 {0.750 0.380 0.000 srgb} bind def
/col27 {1.000 0.500 0.500 srgb} bind def
/col28 {1.000 0.630 0.630 srgb} bind def
/col29 {1.000 0.750 0.750 srgb} bind def
/col30 {1.000 0.880 0.880 srgb} bind def
/col31 {1.000 0.840 0.000 srgb} bind def

end
save
-83.0 401.0 translate
1 -1 scale

/cp {closepath} bind def
/ef {eofill} bind def
/gr {grestore} bind def
/gs {gsave} bind def
/sa {save} bind def
/rs {restore} bind def
/l {lineto} bind def
/m {moveto} bind def
/rm {rmoveto} bind def
/n {newpath} bind def
/s {stroke} bind def
/sh {show} bind def
/slc {setlinecap} bind def
/slj {setlinejoin} bind def
/slw {setlinewidth} bind def
/srgb {setrgbcolor} bind def
/rot {rotate} bind def
/sc {scale} bind def
/sd {setdash} bind def
/ff {findfont} bind def
/sf {setfont} bind def
/scf {scalefont} bind def
/sw {stringwidth} bind def
/tr {translate} bind def
/tnt {dup dup currentrgbcolor
  4 -2 roll dup 1 exch sub 3 -1 roll mul add
  4 -2 roll dup 1 exch sub 3 -1 roll mul add
  4 -2 roll dup 1 exch sub 3 -1 roll mul add srgb}
  bind def
/shd {dup dup currentrgbcolor 4 -2 roll mul 4 -2 roll mul
  4 -2 roll mul srgb} bind def
/reencdict 12 dict def /ReEncode { reencdict begin
/newcodesandnames exch def /newfontname exch def /basefontname exch def
/basefontdict basefontname findfont def /newfont basefontdict maxlength dict def
basefontdict { exch dup /FID ne { dup /Encoding eq
{ exch dup length array copy newfont 3 1 roll put }
{ exch newfont 3 1 roll put } ifelse } { pop pop } ifelse } forall
newfont /FontName newfontname put newcodesandnames aload pop
128 1 255 { newfont /Encoding get exch /.notdef put } for
newcodesandnames length 2 idiv { newfont /Encoding get 3 1 roll put } repeat
newfontname newfont definefont pop end } def
/isovec [
8#200 /grave 8#201 /acute 8#202 /circumflex 8#203 /tilde
8#204 /macron 8#205 /breve 8#206 /dotaccent 8#207 /dieresis
8#210 /ring 8#211 /cedilla 8#212 /hungarumlaut 8#213 /ogonek 8#214 /caron
8#220 /dotlessi 8#230 /oe 8#231 /OE
8#240 /space 8#241 /exclamdown 8#242 /cent 8#243 /sterling
8#244 /currency 8#245 /yen 8#246 /brokenbar 8#247 /section 8#250 /dieresis
8#251 /copyright 8#252 /ordfeminine 8#253 /guillemotleft 8#254 /logicalnot
8#255 /endash 8#256 /registered 8#257 /macron 8#260 /degree 8#261 /plusminus
8#262 /twosuperior 8#263 /threesuperior 8#264 /acute 8#265 /mu 8#266 /paragraph
8#267 /periodcentered 8#270 /cedilla 8#271 /onesuperior 8#272 /ordmasculine
8#273 /guillemotright 8#274 /onequarter 8#275 /onehalf
8#276 /threequarters 8#277 /questiondown 8#300 /Agrave 8#301 /Aacute
8#302 /Acircumflex 8#303 /Atilde 8#304 /Adieresis 8#305 /Aring
8#306 /AE 8#307 /Ccedilla 8#310 /Egrave 8#311 /Eacute
8#312 /Ecircumflex 8#313 /Edieresis 8#314 /Igrave 8#315 /Iacute
8#316 /Icircumflex 8#317 /Idieresis 8#320 /Eth 8#321 /Ntilde 8#322 /Ograve
8#323 /Oacute 8#324 /Ocircumflex 8#325 /Otilde 8#326 /Odieresis 8#327 /multiply
8#330 /Oslash 8#331 /Ugrave 8#332 /Uacute 8#333 /Ucircumflex
8#334 /Udieresis 8#335 /Yacute 8#336 /Thorn 8#337 /germandbls 8#340 /agrave
8#341 /aacute 8#342 /acircumflex 8#343 /atilde 8#344 /adieresis 8#345 /aring
8#346 /ae 8#347 /ccedilla 8#350 /egrave 8#351 /eacute
8#352 /ecircumflex 8#353 /edieresis 8#354 /igrave 8#355 /iacute
8#356 /icircumflex 8#357 /idieresis 8#360 /eth 8#361 /ntilde 8#362 /ograve
8#363 /oacute 8#364 /ocircumflex 8#365 /otilde 8#366 /odieresis 8#367 /divide
8#370 /oslash 8#371 /ugrave 8#372 /uacute 8#373 /ucircumflex
8#374 /udieresis 8#375 /yacute 8#376 /thorn 8#377 /ydieresis] def
/Helvetica /Helvetica-iso isovec ReEncode
/$F2psBegin {$F2psDict begin /$F2psEnteredState save def} def
/$F2psEnd {$F2psEnteredState restore end} def
%%EndProlog

$F2psBegin
10 setmiterlimit
n -1000 7675 m -1000 -1000 l 7997 -1000 l 7997 7675 l cp clip
 0.06000 0.06000 sc
% Polyline
15.000 slw
gs  clippath
6704 6240 m 6944 6300 l 6704 6360 l 7005 6360 l 7005 6240 l cp
clip
n 1800 6300 m 6975 6300 l gs col-1 s gr gr

% arrowhead
n 6704 6240 m 6944 6300 l 6704 6360 l  col-1 s
% Polyline
gs  clippath
1740 1171 m 1800 930 l 1860 1171 l 1860 870 l 1740 870 l cp
clip
n 1800 6300 m 1800 900 l gs col-1 s gr gr

% arrowhead
n 1740 1171 m 1800 930 l 1860 1171 l  col-1 s
% Polyline
7.500 slw
n 1725 1800 m 1875 1800 l gs col-1 s gr 
% Polyline
 [60] 0 sd
n 1800 2250 m 2325 2250 l gs col-1 s gr  [] 0 sd
% Polyline
 [60] 0 sd
n 1875 1800 m 2400 1800 l gs col-1 s gr  [] 0 sd
% Polyline
15.000 slw
n 1800 5400 m 1802 5400 l 1808 5400 l 1817 5400 l 1832 5400 l 1852 5400 l
 1878 5400 l 1909 5400 l 1944 5400 l 1984 5400 l 2025 5400 l
 2068 5400 l 2112 5400 l 2155 5400 l 2197 5400 l 2238 5400 l
 2277 5400 l 2314 5400 l 2349 5400 l 2382 5400 l 2414 5400 l
 2443 5400 l 2472 5400 l 2499 5400 l 2525 5400 l 2550 5400 l
 2575 5400 l 2600 5400 l 2626 5400 l 2653 5400 l 2679 5400 l
 2706 5400 l 2733 5400 l 2760 5400 l 2788 5400 l 2816 5400 l
 2845 5400 l 2874 5400 l 2903 5400 l 2932 5400 l 2961 5400 l
 2990 5400 l 3019 5400 l 3047 5400 l 3076 5400 l 3104 5400 l
 3131 5400 l 3158 5400 l 3185 5400 l 3211 5400 l 3237 5400 l
 3262 5400 l 3287 5400 l 3313 5400 l 3340 5400 l 3367 5400 l
 3395 5400 l 3424 5400 l 3453 5400 l 3482 5400 l 3512 5400 l
 3542 5400 l 3572 5400 l 3603 5400 l 3633 5400 l 3663 5400 l
 3692 5400 l 3721 5400 l 3749 5400 l 3776 5400 l 3802 5400 l
 3827 5400 l 3850 5400 l 3873 5400 l 3894 5400 l 3914 5400 l
 3932 5400 l 3950 5400 l 3978 5400 l 4004 5400 l 4029 5400 l
 4051 5400 l 4072 5399 l 4092 5399 l 4109 5398 l 4125 5397 l
 4139 5396 l 4152 5395 l 4162 5394 l 4172 5392 l 4180 5390 l
 4188 5388 l 4192 5386 l 4197 5384 l 4201 5381 l 4206 5377 l
 4210 5372 l 4214 5365 l 4219 5356 l 4223 5345 l 4227 5331 l
 4232 5315 l 4236 5295 l 4240 5272 l 4244 5246 l 4248 5217 l
 4252 5184 l 4255 5147 l 4259 5107 l 4262 5064 l 4265 5017 l
 4269 4965 l 4272 4910 l 4275 4850 l 4277 4818 l 4278 4785 l
 4280 4750 l 4281 4714 l 4283 4677 l 4284 4638 l 4286 4598 l
 4288 4556 l 4289 4513 l 4291 4469 l 4293 4423 l 4295 4377 l
 4296 4329 l 4298 4280 l 4300 4230 l 4302 4179 l 4303 4128 l
 4305 4075 l 4307 4023 l 4309 3969 l 4311 3916 l 4313 3862 l
 4314 3809 l 4316 3756 l 4318 3702 l 4320 3650 l 4322 3597 l
 4323 3546 l 4325 3495 l 4327 3445 l 4329 3396 l 4330 3348 l
 4332 3302 l 4334 3256 l 4336 3212 l 4337 3169 l 4339 3127 l
 4341 3087 l 4342 3048 l 4344 3011 l 4345 2975 l 4347 2940 l
 4348 2907 l 4350 2875 l 4352 2827 l 4355 2783 l 4358 2741 l
 4360 2701 l 4363 2664 l 4366 2630 l 4369 2597 l 4373 2567 l
 4377 2539 l 4381 2513 l 4386 2489 l 4390 2467 l 4396 2448 l
 4401 2430 l 4407 2414 l 4414 2401 l 4421 2389 l 4428 2378 l
 4436 2370 l 4444 2362 l 4452 2356 l 4461 2352 l 4471 2348 l
 4481 2345 l 4491 2342 l 4502 2340 l 4513 2339 l 4525 2338 l
 4541 2336 l 4559 2335 l 4577 2333 l 4597 2332 l 4618 2331 l
 4640 2330 l 4664 2329 l 4688 2329 l 4713 2328 l 4738 2327 l
 4764 2327 l 4790 2326 l 4816 2326 l 4841 2326 l 4866 2325 l
 4890 2325 l 4913 2325 l 4935 2325 l 4956 2325 l 4976 2325 l
 4995 2325 l 5013 2325 l 5033 2325 l 5052 2325 l 5070 2325 l
 5088 2324 l 5105 2323 l 5121 2322 l 5136 2320 l 5151 2318 l
 5165 2315 l 5178 2311 l 5190 2306 l 5202 2301 l 5213 2295 l
 5224 2287 l 5234 2280 l 5244 2271 l 5253 2261 l 5263 2250 l
 5272 2238 l 5282 2225 l 5292 2210 l 5303 2194 l 5314 2177 l
 5326 2159 l 5337 2140 l 5349 2120 l 5361 2100 l 5372 2080 l
 5384 2060 l 5395 2041 l 5405 2023 l 5415 2006 l 5425 1990 l
 5434 1975 l 5442 1962 l 5450 1950 l 5458 1938 l 5467 1927 l
 5475 1917 l 5484 1909 l 5493 1901 l 5503 1895 l 5514 1890 l
 5526 1885 l 5540 1882 l 5555 1879 l 5571 1877 l 5588 1876 l
 5607 1876 l 5628 1875 l 5650 1875 l 5675 1875 l 5693 1875 l
 5712 1875 l 5732 1875 l 5754 1875 l 5777 1875 l 5802 1875 l
 5828 1875 l 5855 1875 l 5884 1875 l 5913 1875 l 5944 1875 l
 5975 1875 l 6006 1875 l 6038 1875 l 6070 1875 l 6102 1875 l
 6133 1875 l 6164 1875 l 6195 1875 l 6224 1875 l 6254 1875 l
 6282 1875 l 6310 1875 l 6338 1875 l 6365 1875 l 6391 1875 l
 6418 1875 l 6446 1875 l 6474 1875 l 6502 1875 l 6533 1875 l
 6564 1875 l 6598 1875 l 6633 1875 l 6669 1875 l 6707 1875 l
 6746 1875 l 6784 1875 l 6822 1875 l 6858 1875 l 6890 1875 l
 6917 1875 l 6939 1875 l 6956 1875 l 6966 1875 l 6972 1875 l
 6975 1875 l gs col-1 s gr 
/Helvetica-iso ff 255.00 scf sf
4200 6675 m
gs 1 -1 sc (time) col-1 sh gr
/Helvetica-iso ff 240.00 scf sf
1875 1725 m
gs 1 -1 sc (water) col-1 sh gr
/Helvetica-iso ff 255.00 scf sf
1950 1275 m
gs 1 -1 sc (boiling temperature) col-1 sh gr
/Helvetica-iso ff 240.00 scf sf
1875 2175 m
gs 1 -1 sc (water-NAPL-mixture) col-1 sh gr
/Helvetica-iso ff 255.00 scf sf
1575 4575 m
gs 1 -1 sc  90.0 rot (temperature) col-1 sh gr
/Helvetica-iso ff 255.00 scf sf
3000 5250 m
gs 1 -1 sc (\(i\)) col-1 sh gr
/Helvetica-iso ff 255.00 scf sf
3975 3900 m
gs 1 -1 sc (\(ii\)) col-1 sh gr
/Helvetica-iso ff 255.00 scf sf
4725 2250 m
gs 1 -1 sc (\(iii\)) col-1 sh gr
/Helvetica-iso ff 255.00 scf sf
6075 1800 m
gs 1 -1 sc (\(iv\)) col-1 sh gr
/Helvetica-iso ff 255.00 scf sf
5400 4050 m
gs 1 -1 sc (p = const.) col-1 sh gr
$F2psEnd
rs
