%!PS-Adobe-2.0 EPSF-2.0
%%Creator: TECPLOT
%%Pages:1
%%BoundingBox: 71 17 721 595
%%DocumentFonts: Helvetica Helvetica-Bold Symbol Times-Roman Times-Bold Times-Italic Times-BoldItalic Courier Courier-Bold
%%EndComments
%%BeginPreview: 128 128 1 128
% ffffffffffffffffffffffffffffffff
% ffffffffffffffffffffffffffffffff
% ffffffffffffffffffffffffffffffff
% ffffffffffffffffffffffffffffffff
% ffffffffffffffffffffffffffffffff
% ffffffffffffffffffffffffffffffff
% ffffffffffffffffffffffffffffffff
% ffffffffffffffffffffffffffffffff
% ffffffffffffffffffffffffffffffff
% ffffffffffffffffffffffffffffffff
% ffffffffffffffffffffffffffffffff
% ffffffffffffffffffffffffffffffff
% ffffffffffffffffffffffffffffffff
% ffffffffffffffffffffffffffffffff
% ffffffffffffffffffffffffffffffff
% ffffffffffffffffffffffffffffffff
% ffffffffffffffffffffffffffffffff
% ffffffffffffffffffffffffffffffff
% ffffffffffffffffffffffffffffffff
% ffffffffffffffffffffffffffffffff
% ffffffffffffffffffffffffffffffff
% ffffffffffffffffffffffffffffffff
% ffffffffffffffffffffffffffffffff
% ffffffffffffffffffffffffffffffff
% ffffffffffffffffffffffffffffffff
% ffffffffffffffffffffffffffffffff
% ffffffffffffffffffffffffffffffff
% ffffffffffffffffffffffffffffffff
% ffffffffffffffffffffffffffffffff
% ffffffffffffffffffffffffffffffff
% ffffffffffffffffffffffffffffffff
% ffffffffffffffffffffffffffffffff
% ffffffffffffffffffffffffffffffff
% ffffffffffffffffffffffffffffffff
% ffffffffffffffffffffffffffffffff
% ffffffffffffffffffffffffffffffff
% ffffffffffffffffffffffffffffffff
% ffffffffffffffffffffffffffffffff
% ffffffffffffffffffffffffffffffff
% ffffffffffffffffffffffffffffffff
% ffffffffffffffffffffffffffffffff
% ffffffffffffffffffffffffffffffff
% ffffffffffffffffffffffffffffffff
% ffffffffffffffffffffffffffffffff
% ffffffffffffffffffffffffffffffff
% ffffffffffffffffffffffffffffffff
% ffffffffffffffffffffffffffffffff
% ffffffffffffffffffffffffffffffff
% ffffffffffffffffffffffffffffffff
% ffffffffffffffffffffffffffffffff
% ffffffffffffffffffffffffffffffff
% ffffffffffffffffffffffffffffffff
% ffffffffffffffffffffffffffffffff
% ffffffffffffffffffffffffffffffff
% ffffffffffffffffffffffffffffffff
% ffffffffffffffffffffffffffffffff
% ffffffffffffffffffffffffffffffff
% ffffffffffffffffffffffffffffffff
% ffffffffffffffffffffffffffffffff
% ffffffffffffffffffffffffffffffff
% ffffffffffffffffffffffffffffffff
% ffffffffffffffffffffffffffffffff
% ffffffffffffffffffffffffffffffff
% ffffffffffffffffffffffffffffffff
% ffffffffffffffffffffffffffffffff
% ffffffffffffffffffffffffffffffff
% ffffffffffffffffffffffffffffffff
% ffffffffffffffffffffffffffffffff
% ffffffffffffffffffffffffffffffff
% ffffffffffffffffffffffffffffffff
% ffffffffffffffffffffffffffffffff
% ffffffffffffffffffffffffffffffff
% ffffffffffffffffffffffffffffffff
% ffffffffffffffffffffffffffffffff
% ffffffffffffffffffffffffffffffff
% ffffffffffffffffffffffffffffffff
% ffffffffffffffffffffffffffffffff
% ffffffffffffffffffffffffffffffff
% ffffffffffffffffffffffffffffffff
% ffffffffffffffffffffffffffffffff
% ffffffffffffffffffffffffffffffff
% ffffffffffffffffffffffffffffffff
% ffffffffffffffffffffffffffffffff
% ffffffffffffffffffffffffffffffff
% ffffffffffffffffffffffffffffffff
% ffffffffffffffffffffffffffffffff
% ffffffffffffffffffffffffffffffff
% ffffffffffffffffffffffffffffffff
% ffffffffffffffffffffffffffffffff
% ffffffffffffffffffffffffffffffff
% ffffffffffffffffffffffffffffffff
% ffffffffffffffffffffffffffffffff
% ffffffffffffffffffffffffffffffff
% ffffffffffffffffffffffffffffffff
% ffffffffffffffffffffffffffffffff
% ffffffffffffffffffffffffffffffff
% ffffffffffffffffffffffffffffffff
% ffffffffffffffffffffffffffffffff
% ffffffffffffffffffffffffffffffff
% ffffffffffffffffffffffffffffffff
% ffffffffffffffffffffffffffffffff
% ffffffffffffffffffffffffffffffff
% ffffffffffffffffffffffffffffffff
% ffffffffffffffffffffffffffffffff
% ffffffffffffffffffffffffffffffff
% ffffffffffffffffffffffffffffffff
% ffffffffffffffffffffffffffffffff
% ffffffffffffffffffffffffffffffff
% ffffffffffffffffffffffffffffffff
% ffffffffffffffffffffffffffffffff
% ffffffffffffffffffffffffffffffff
% ffffffffffffffffffffffffffffffff
% ffffffffffffffffffffffffffffffff
% ffffffffffffffffffffffffffffffff
% ffffffffffffffffffffffffffffffff
% ffffffffffffffffffffffffffffffff
% ffffffffffffffffffffffffffffffff
% ffffffffffffffffffffffffffffffff
% ffffffffffffffffffffffffffffffff
% ffffffffffffffffffffffffffffffff
% ffffffffffffffffffffffffffffffff
% ffffffffffffffffffffffffffffffff
% ffffffffffffffffffffffffffffffff
% ffffffffffffffffffffffffffffffff
% ffffffffffffffffffffffffffffffff
% ffffffffffffffffffffffffffffffff
% ffffffffffffffffffffffffffffffff
% ffffffffffffffffffffffffffffffff
%%EndPreview
/tecplotdict 120 dict def
tecplotdict begin
/ed  {exch def} def
/ftl {findfont exch scalefont setfont} def
/ftr {/ISOLatin1-Times-Roman ftl} def
/ftb {/ISOLatin1-Times-Bold ftl} def
/fti {/ISOLatin1-Times-Italic ftl} def
/ftib {/ISOLatin1-Times-BoldItalic ftl} def
/fcr {/ISOLatin1-Courier ftl} def
/fcb {/ISOLatin1-Courier-Bold ftl} def
/fhn {/ISOLatin1-Helvetica ftl} def
/fhb {/ISOLatin1-Helvetica-Bold ftl} def
/fsy {/Symbol ftl} def
/gs /gsave load def
/gr /grestore load def
/np /newpath load def
/cp /closepath load def
/g /setgray load def
/lc {setlinecap} def
/lj /setlinejoin load def
/x /setrgbcolor load def
/sd /setdash load def
/sw {setlinewidth} def
/cpt /currentpoint load def
/m {moveto} def
/rm /rmoveto load def
/l /lineto load def
/r /rlineto load def
/sf /setflat load def
/s /stroke load def
/q {cpt s m} def
/ro /rotate load def
/sh /show load def
/clp {cp gr gs np m l l l cp clip np cp} def
/dorect
{
/height ed
/width  ed
m
0 height r
width 0 r
0 height neg r
cp
} def
/er {cp np dorect g fill 0 g cp} def
/erc {cp np dorect x fill 0 g cp} def
/br {cp np dorect g cp s} def
/brc {cp np dorect x cp s} def
/ii 0 def
/n 0 def
/CurA 0 def
/Ry 0 def
/Rx 0 def
/CA 0 def
/SA 0 def
/SJ 0 def
/SI 0 def
/bi 0 def
/i 0 def
/ib 0 def
/ig 0 def
/ir 0 def
/ishade 0 def
/bshade 0 def
/dcs
{
m
dup dup dup
-2 div dup
rm
0 r
0 exch r
neg 0 r
cp
} bind def
/pg
{
/size ed
/Ny ed
/Nx ed
/Y2 ed
/X2 ed
/Y1 ed
/X1 ed
Ny 1 gt
{/Dy Y2 Y1 sub Ny 1 sub div def}
{/Dy 0.0 def}
ifelse
Nx 1 gt
{/Dx X2 X1 sub Nx 1 sub div def}
{/Dx 0.0 def}
ifelse
Y1 Dy Y2 Dy 2 div add
{
X1 Dx X2 Dx 2 div add
{
1 index
size 3 1 roll
dcs fill
Dx 0.0 eq
{exit}
if
} for
pop
Dy 0.0 eq
{exit}
if
} for
} bind def
/z
{
/ii ed
rea ii get
gra ii get
bla ii get
} def
/lrgb
{
/ii ed
/blue ed
/green ed
/red ed
bla ii blue put
gra ii green put
rea ii red put
} def
/trace
{
cp np
m
1 1 n 
{
pop
r
} for
cp
} def
/f
{
/ishade ed
/n ed 
s
trace
ishade g fill
} def
/b
{
/bshade ed
/n ed 
m
1 1 n 
{
pop
r
} for
bshade g s
} def
/fb
{
/bshade ed
/ishade ed
/n ed 
s 
n 2 mul 2 add copy
trace
ishade g fill
trace
bshade g s
} def
/c
{
/n ed 
s 
trace
s
} def
/fc
{
/i ed
/n ed 
s 
trace
i z x fill
} def
/fd
{
/ib ed
/ig ed
/ir ed
/n ed 
s 
trace
ir ig ib x fill
} def
/bc
{
/i ed
/n ed 
m
1 1 n 
{
pop
r
} for
i z x s
} def
/fbc
{
/ii ed
/bi ed
/n ed 
s 
n 2 mul 2 add copy
trace
ii z x fill
trace
bi z x s
} def
/fbd
{
/ib ed
/ig ed
/ir ed
/bi ed
/n ed 
s
n 2 mul 2 add copy
trace
ir ig ib x fill
trace
bi z x s
} def
/e
{
/Ry ed
/Rx ed
/CA ed
/SA ed
/SJ ed
/SI ed
/DelX SA cos Rx mul def
/DelY SA sin Ry mul def
/XI SI DelX add def
/YI SJ DelY add def
/OCX DelX def
/OCY DelY def
/N 0 def
SA CA add
CA
SA 360 add
{
/CurA ed
/CX CurA cos Rx mul def
/CY CurA sin Ry mul def
OCX CX sub 
OCY CY sub 
/OCX CX def
/OCY CY def
/N N 1 add def
}
for
XI YI N
} def
%%EndProlog
%%Page:? 1
/getisofont
{
findfont
dup length dict begin
{
1 index /FID ne {def}{pop pop} ifelse
} forall
/Encoding ISOLatin1Encoding def
currentdict
end
} def
/Helvetica             getisofont /ISOLatin1-Helvetica             exch definefont pop
/Helvetica-Bold        getisofont /ISOLatin1-Helvetica-Bold        exch definefont pop
/Helvetica-Oblique     getisofont /ISOLatin1-Helvetica-Oblique     exch definefont pop
/Helvetica-BoldOblique getisofont /ISOLatin1-Helvetica-BoldOblique exch definefont pop
/Times-Roman           getisofont /ISOLatin1-Times-Roman           exch definefont pop
/Times-Bold            getisofont /ISOLatin1-Times-Bold            exch definefont pop
/Times-BoldItalic      getisofont /ISOLatin1-Times-BoldItalic      exch definefont pop
/Times-Italic          getisofont /ISOLatin1-Times-Italic          exch definefont pop
/Courier               getisofont /ISOLatin1-Courier               exch definefont pop
/Courier-Bold          getisofont /ISOLatin1-Courier-Bold          exch definefont pop
/Courier-Oblique       getisofont /ISOLatin1-Courier-Oblique       exch definefont pop
/Courier-BoldOblique   getisofont /ISOLatin1-Courier-BoldOblique   exch definefont pop
5 setmiterlimit
0.025 0.025 scale np
gs
2834 674 2834 23806 28846 23806 28846 674 clp
1 2880 720 25920 23040 er
2879 719 2879 23761 28801 23761 28801 719 clp
6249 3253 6249 20996 25691 20996 25691 3253 clp
0 g
23 sw
0 lc
0 lj
[1 114] 0 sd
6250 3254 m
6250 20995 l
s
7546 3254 m
7546 20995 l
s
8842 3254 m
8842 20995 l
s
10138 3254 m
10138 20995 l
s
11434 3254 m
11434 20995 l
s
12730 3254 m
12730 20995 l
s
14026 3254 m
14026 20995 l
s
15322 3254 m
15322 20995 l
s
16618 3254 m
16618 20995 l
s
17914 3254 m
17914 20995 l
s
19210 3254 m
19210 20995 l
s
20506 3254 m
20506 20995 l
s
21802 3254 m
21802 20995 l
s
23098 3254 m
23098 20995 l
s
24394 3254 m
24394 20995 l
s
25690 3254 m
25690 20995 l
s
2879 719 2879 23761 28801 23761 28801 719 clp
6249 3253 6249 20996 25691 20996 25691 3253 clp
0 g
23 sw
0 lc
0 lj
[1 114] 0 sd
6250 3254 m
25690 3254 l
s
6250 3609 m
25690 3609 l
s
6250 3964 m
25690 3964 l
s
6250 4319 m
25690 4319 l
s
6250 4674 m
25690 4674 l
s
6250 5028 m
25690 5028 l
s
6250 5383 m
25690 5383 l
s
6250 5738 m
25690 5738 l
s
6250 6093 m
25690 6093 l
s
6250 6448 m
25690 6448 l
s
6250 6803 m
25690 6803 l
s
6250 7157 m
25690 7157 l
s
6250 7512 m
25690 7512 l
s
6250 7867 m
25690 7867 l
s
6250 8222 m
25690 8222 l
s
6250 8577 m
25690 8577 l
s
6250 8931 m
25690 8931 l
s
6250 9286 m
25690 9286 l
s
6250 9641 m
25690 9641 l
s
6250 9996 m
25690 9996 l
s
6250 10351 m
25690 10351 l
s
6250 10706 m
25690 10706 l
s
6250 11060 m
25690 11060 l
s
6250 11415 m
25690 11415 l
s
6250 11770 m
25690 11770 l
s
6250 12125 m
25690 12125 l
s
6250 12480 m
25690 12480 l
s
6250 12834 m
25690 12834 l
s
6250 13189 m
25690 13189 l
s
6250 13544 m
25690 13544 l
s
6250 13899 m
25690 13899 l
s
6250 14254 m
25690 14254 l
s
6250 14609 m
25690 14609 l
s
6250 14963 m
25690 14963 l
s
6250 15318 m
25690 15318 l
s
6250 15673 m
25690 15673 l
s
6250 16028 m
25690 16028 l
s
6250 16383 m
25690 16383 l
s
6250 16737 m
25690 16737 l
s
6250 17092 m
25690 17092 l
s
6250 17447 m
25690 17447 l
s
6250 17802 m
25690 17802 l
s
6250 18157 m
25690 18157 l
s
6250 18511 m
25690 18511 l
s
6250 18866 m
25690 18866 l
s
6250 19221 m
25690 19221 l
s
6250 19576 m
25690 19576 l
s
6250 19931 m
25690 19931 l
s
6250 20286 m
25690 20286 l
s
6250 20640 m
25690 20640 l
s
6250 20995 m
25690 20995 l
s
515.921 436.267 528.084 1000.601 528.082 1052.625 528.084 1094.658 528.084 1097.971 528.082 1057.253 528.084 980.029 528.083 884.348 528.083 761.507 528.084 651.645
528.083 530.947 528.083 352.914 528.083 60.178 528.084 -416.723 528.083 -785.574 528.083 -896.759 528.084 -817.865 528.083 -659.921 528.083 -366.661 528.083 1153.219
528.084 4522.173 528.083 1264.916 528.084 1184.541 528.083 1262.707 528.084 1371.595 528.083 -0.000 528.084 -0.000 528.084 -0.000 528.083 -0.000 528.083 -0.000
528.084 -0.000 528.083 -0.000 528.083 -0.000 528.083 -0.000 528.083 -0.000 528.083 -0.000 6690.762 3254.400 36 69 sw
[] 0 sd
0 b
515.921 0.194 528.084 -0.002 528.082 -0.000 528.084 -0.000 528.084 -0.000 528.082 0.000 528.084 0.000 528.083 0.000 528.083 -0.000 528.084 -0.000
528.083 -0.000 528.083 -0.000 528.083 -0.000 528.084 0.000 528.083 0.000 528.083 -0.000 528.084 -0.004 528.083 -0.025 528.083 -0.176 528.083 -48.796
528.084 -990.810 528.083 -245.025 528.084 -3.847 528.083 -28.656 528.084 -479.246 528.083 -122.800 528.084 -8.438 528.084 -4.114 528.083 -8.563 528.083 -10.317
528.084 -44.277 528.083 -295.817 528.083 -438.644 528.083 -342.304 528.083 -228.338 528.083 -131.102 6690.762 6774.411 36 [461] 0 sd
0 b
515.921 0.468 528.084 0.110 528.082 0.031 528.084 0.009 528.084 0.004 528.082 0.003 528.084 0.006 528.083 0.010 528.083 0.014 528.084 0.019
528.083 0.025 528.083 0.031 528.083 0.046 528.084 0.066 528.083 0.064 528.083 -0.070 528.084 -1.384 528.083 -11.182 528.083 -70.583 528.083 -1068.023
528.084 -10545.871 528.083 -1322.037 528.084 -15.879 528.083 -20.494 528.084 -2663.307 528.083 -1469.613 528.084 -59.664 528.084 -2.632 528.083 -0.192 528.083 -0.014
528.084 -0.000 528.083 -0.000 528.083 -0.000 528.083 -0.000 528.083 -0.000 528.083 -0.000 6690.762 20994.739 36 [461 184 92 184] 0 sd
0 b
515.921 0.165 528.084 0.038 528.082 0.011 528.084 0.003 528.084 0.001 528.082 0.001 528.084 0.002 528.083 0.004 528.083 0.005 528.084 0.007
528.083 0.008 528.083 0.011 528.083 0.016 528.084 0.023 528.083 0.022 528.083 -0.024 528.084 -0.476 528.083 -3.844 528.083 -24.208 528.083 -355.172
528.084 -3262.356 528.083 -393.244 528.084 -4.548 528.083 21.858 528.084 2996.880 528.083 1196.588 528.084 0.093 528.084 0.000 528.083 -0.000 528.083 -0.000
528.084 -0.000 528.083 -0.000 528.083 -0.000 528.083 -0.000 528.083 -0.000 528.083 -0.000 6690.762 3254.400 36 [422 115 77 115 77 115] 0 sd
0 b
2879 719 2879 23761 28801 23761 28801 719 clp
0 g
92 sw
0 lc
0 lj
[] 0 sd
6250 3254 m
6250 3715 l
s
23 sw
7546 3254 m
7546 3531 l
s
8842 3254 m
8842 3531 l
s
10138 3254 m
10138 3531 l
s
11434 3254 m
11434 3531 l
s
92 sw
12730 3254 m
12730 3715 l
s
23 sw
14026 3254 m
14026 3531 l
s
15322 3254 m
15322 3531 l
s
16618 3254 m
16618 3531 l
s
17914 3254 m
17914 3531 l
s
92 sw
19210 3254 m
19210 3715 l
s
23 sw
20506 3254 m
20506 3531 l
s
21802 3254 m
21802 3531 l
s
23098 3254 m
23098 3531 l
s
24394 3254 m
24394 3531 l
s
92 sw
25690 3254 m
25690 3715 l
s
2 lc
6250 3254 m
25690 3254 l
s
-585 -0 0 564 585 -0 15677 1769 3 5 sw
1 1 fb
829.44 fhb
0 g
15677 1769 m
(X) sh
92 sw
0 lc
6250 3254 m
6710 3254 l
s
23 sw
6250 3609 m
6526 3609 l
s
6250 3964 m
6526 3964 l
s
6250 4319 m
6526 4319 l
s
6250 4674 m
6526 4674 l
s
92 sw
6250 5028 m
6710 5028 l
s
23 sw
6250 5383 m
6526 5383 l
s
6250 5738 m
6526 5738 l
s
6250 6093 m
6526 6093 l
s
6250 6448 m
6526 6448 l
s
92 sw
6250 6803 m
6710 6803 l
s
23 sw
6250 7157 m
6526 7157 l
s
6250 7512 m
6526 7512 l
s
6250 7867 m
6526 7867 l
s
6250 8222 m
6526 8222 l
s
92 sw
6250 8577 m
6710 8577 l
s
23 sw
6250 8931 m
6526 8931 l
s
6250 9286 m
6526 9286 l
s
6250 9641 m
6526 9641 l
s
6250 9996 m
6526 9996 l
s
92 sw
6250 10351 m
6710 10351 l
s
23 sw
6250 10706 m
6526 10706 l
s
6250 11060 m
6526 11060 l
s
6250 11415 m
6526 11415 l
s
6250 11770 m
6526 11770 l
s
92 sw
6250 12125 m
6710 12125 l
s
23 sw
6250 12480 m
6526 12480 l
s
6250 12834 m
6526 12834 l
s
6250 13189 m
6526 13189 l
s
6250 13544 m
6526 13544 l
s
92 sw
6250 13899 m
6710 13899 l
s
23 sw
6250 14254 m
6526 14254 l
s
6250 14609 m
6526 14609 l
s
6250 14963 m
6526 14963 l
s
6250 15318 m
6526 15318 l
s
92 sw
6250 15673 m
6710 15673 l
s
23 sw
6250 16028 m
6526 16028 l
s
6250 16383 m
6526 16383 l
s
6250 16737 m
6526 16737 l
s
6250 17092 m
6526 17092 l
s
92 sw
6250 17447 m
6710 17447 l
s
23 sw
6250 17802 m
6526 17802 l
s
6250 18157 m
6526 18157 l
s
6250 18511 m
6526 18511 l
s
6250 18866 m
6526 18866 l
s
92 sw
6250 19221 m
6710 19221 l
s
23 sw
6250 19576 m
6526 19576 l
s
6250 19931 m
6526 19931 l
s
6250 20286 m
6526 20286 l
s
6250 20640 m
6526 20640 l
s
92 sw
6250 20995 m
6710 20995 l
s
2 lc
6250 3254 m
6250 20995 l
s
-0 -6907 -564 -0 0 6907 4694 8671 3 5 sw
1 1 fb
829.44 fhb
0 g
4694 8671 m
gs 90.0 ro
(S) sh
gr
4694 9256 m
gs 90.0 ro
(n) sh
gr
4694 9749 m
gs 90.0 ro
(,) sh
gr
4694 10206 m
gs 90.0 ro
(S) sh
gr
4694 10791 m
gs 90.0 ro
(w) sh
gr
4694 11430 m
gs 90.0 ro
(,) sh
gr
4694 11887 m
gs 90.0 ro
(X) sh
gr
4694 12472 m
gs 90.0 ro
(w) sh
gr
4694 13112 m
gs 90.0 ro
(g) sh
gr
4694 13605 m
gs 90.0 ro
(,) sh
gr
4694 14062 m
gs 90.0 ro
(X) sh
gr
4694 14647 m
gs 90.0 ro
(c) sh
gr
4694 15085 m
gs 90.0 ro
(g) sh
gr
-454 -0 0 548 454 -0 6023 2476 3 1 1 fb
806.4 fhn
0 g
6023 2476 m
(0) sh
-1126 -0 0 548 1126 -0 12167 2476 3 1 1 fb
806.4 fhn
0 g
12167 2476 m
(0) sh
12620 2476 m
(.) sh
12839 2476 m
(1) sh
-1126 -0 0 548 1126 -0 18647 2476 3 1 1 fb
806.4 fhn
0 g
18647 2476 m
(0) sh
19100 2476 m
(.) sh
19319 2476 m
(2) sh
-1126 -0 0 548 1126 -0 25127 2476 3 1 1 fb
806.4 fhn
0 g
25127 2476 m
(0) sh
25580 2476 m
(.) sh
25799 2476 m
(3) sh
-454 -0 0 548 454 -0 5537 2980 3 1 1 fb
806.4 fhn
0 g
5537 2980 m
(0) sh
-1126 -0 0 548 1126 -0 4865 4754 3 1 1 fb
806.4 fhn
0 g
4865 4754 m
(0) sh
5318 4754 m
(.) sh
5537 4754 m
(1) sh
-1126 -0 0 548 1126 -0 4865 6528 3 1 1 fb
806.4 fhn
0 g
4865 6528 m
(0) sh
5318 6528 m
(.) sh
5537 6528 m
(2) sh
-1126 -0 0 548 1126 -0 4865 8302 3 1 1 fb
806.4 fhn
0 g
4865 8302 m
(0) sh
5318 8302 m
(.) sh
5537 8302 m
(3) sh
-1126 -0 0 548 1126 -0 4865 10077 3 1 1 fb
806.4 fhn
0 g
4865 10077 m
(0) sh
5318 10077 m
(.) sh
5537 10077 m
(4) sh
-1126 -0 0 548 1126 -0 4865 11851 3 1 1 fb
806.4 fhn
0 g
4865 11851 m
(0) sh
5318 11851 m
(.) sh
5537 11851 m
(5) sh
-1126 -0 0 548 1126 -0 4865 13625 3 1 1 fb
806.4 fhn
0 g
4865 13625 m
(0) sh
5318 13625 m
(.) sh
5537 13625 m
(6) sh
-1126 -0 0 548 1126 -0 4865 15399 3 1 1 fb
806.4 fhn
0 g
4865 15399 m
(0) sh
5318 15399 m
(.) sh
5537 15399 m
(7) sh
-1126 -0 0 548 1126 -0 4865 17173 3 1 1 fb
806.4 fhn
0 g
4865 17173 m
(0) sh
5318 17173 m
(.) sh
5537 17173 m
(8) sh
-1126 -0 0 548 1126 -0 4865 18947 3 1 1 fb
806.4 fhn
0 g
4865 18947 m
(0) sh
5318 18947 m
(.) sh
5537 18947 m
(9) sh
-454 -0 0 548 454 -0 5537 20721 3 1 1 fb
806.4 fhn
0 g
5537 20721 m
(1) sh
0 6024 6385 -0 0 -6024 19421 10127 3 23 sw
1 0 fb
19375 4057 19375 10173 25853 10173 25853 4057 clp
2879 719 2879 23761 28801 23761 28801 719 clp
806.4 fhb
0 g
24187 8385 m
(S) sh
483.84 fhb
24756 8143 m
(n) sh
806.4 fhb
24187 7176 m
(S) sh
483.84 fhb
24756 6934 m
(w) sh
806.4 fhb
24187 5966 m
(x) sh
483.84 fhb
24613 5724 m
(g) sh
24613 6369 m
(w) sh
806.4 fhb
24187 4756 m
(x) sh
483.84 fhb
24613 4514 m
(g) sh
24613 5160 m
(c) sh
69 sw
0 lc
0 lj
[] 0 sd
19953 8627 m
23582 8627 l
s
[461] 0 sd
19953 7418 m
23582 7418 l
s
[461 184 92 184] 0 sd
19953 6208 m
23582 6208 l
s
[422 115 77 115 77 115] 0 sd
19953 4998 m
23582 4998 l
s
gr end
showpage
