%!PS-Adobe-2.0 EPSF-2.0
%%Creator: TECPLOT
%%Pages:1
%%BoundingBox: 71 17 721 595
%%DocumentFonts: Helvetica Helvetica-Bold Symbol Times-Roman Times-Bold Times-Italic Times-BoldItalic Courier Courier-Bold
%%EndComments
%%BeginPreview: 128 128 1 128
% ffffffffffffffffffffffffffffffff
% ffffffffffffffffffffffffffffffff
% ffffffffffffffffffffffffffffffff
% ffffffffffffffffffffffffffffffff
% ffffffffffffffffffffffffffffffff
% ffffffffffffffffffffffffffffffff
% ffffffffffffffffffffffffffffffff
% ffffffffffffffffffffffffffffffff
% ffffffffffffffffffffffffffffffff
% ffffffffffffffffffffffffffffffff
% ffffffffffffffffffffffffffffffff
% ffffffffffffffffffffffffffffffff
% ffffffffffffffffffffffffffffffff
% ffffffffffffffffffffffffffffffff
% ffffffffffffffffffffffffffffffff
% ffffffffffffffffffffffffffffffff
% ffffffffffffffffffffffffffffffff
% ffffffffffffffffffffffffffffffff
% ffffffffffffffffffffffffffffffff
% ffffffffffffffffffffffffffffffff
% ffffffffffffffffffffffffffffffff
% ffffffffffffffffffffffffffffffff
% ffffffffffffffffffffffffffffffff
% ffffffffffffffffffffffffffffffff
% ffffffffffffffffffffffffffffffff
% ffffffffffffffffffffffffffffffff
% ffffffffffffffffffffffffffffffff
% ffffffffffffffffffffffffffffffff
% ffffffffffffffffffffffffffffffff
% ffffffffffffffffffffffffffffffff
% ffffffffffffffffffffffffffffffff
% ffffffffffffffffffffffffffffffff
% ffffffffffffffffffffffffffffffff
% ffffffffffffffffffffffffffffffff
% ffffffffffffffffffffffffffffffff
% ffffffffffffffffffffffffffffffff
% ffffffffffffffffffffffffffffffff
% ffffffffffffffffffffffffffffffff
% ffffffffffffffffffffffffffffffff
% ffffffffffffffffffffffffffffffff
% ffffffffffffffffffffffffffffffff
% ffffffffffffffffffffffffffffffff
% ffffffffffffffffffffffffffffffff
% ffffffffffffffffffffffffffffffff
% ffffffffffffffffffffffffffffffff
% ffffffffffffffffffffffffffffffff
% ffffffffffffffffffffffffffffffff
% ffffffffffffffffffffffffffffffff
% ffffffffffffffffffffffffffffffff
% ffffffffffffffffffffffffffffffff
% ffffffffffffffffffffffffffffffff
% ffffffffffffffffffffffffffffffff
% ffffffffffffffffffffffffffffffff
% ffffffffffffffffffffffffffffffff
% ffffffffffffffffffffffffffffffff
% ffffffffffffffffffffffffffffffff
% ffffffffffffffffffffffffffffffff
% ffffffffffffffffffffffffffffffff
% ffffffffffffffffffffffffffffffff
% ffffffffffffffffffffffffffffffff
% ffffffffffffffffffffffffffffffff
% ffffffffffffffffffffffffffffffff
% ffffffffffffffffffffffffffffffff
% ffffffffffffffffffffffffffffffff
% ffffffffffffffffffffffffffffffff
% ffffffffffffffffffffffffffffffff
% ffffffffffffffffffffffffffffffff
% ffffffffffffffffffffffffffffffff
% ffffffffffffffffffffffffffffffff
% ffffffffffffffffffffffffffffffff
% ffffffffffffffffffffffffffffffff
% ffffffffffffffffffffffffffffffff
% ffffffffffffffffffffffffffffffff
% ffffffffffffffffffffffffffffffff
% ffffffffffffffffffffffffffffffff
% ffffffffffffffffffffffffffffffff
% ffffffffffffffffffffffffffffffff
% ffffffffffffffffffffffffffffffff
% ffffffffffffffffffffffffffffffff
% ffffffffffffffffffffffffffffffff
% ffffffffffffffffffffffffffffffff
% ffffffffffffffffffffffffffffffff
% ffffffffffffffffffffffffffffffff
% ffffffffffffffffffffffffffffffff
% ffffffffffffffffffffffffffffffff
% ffffffffffffffffffffffffffffffff
% ffffffffffffffffffffffffffffffff
% ffffffffffffffffffffffffffffffff
% ffffffffffffffffffffffffffffffff
% ffffffffffffffffffffffffffffffff
% ffffffffffffffffffffffffffffffff
% ffffffffffffffffffffffffffffffff
% ffffffffffffffffffffffffffffffff
% ffffffffffffffffffffffffffffffff
% ffffffffffffffffffffffffffffffff
% ffffffffffffffffffffffffffffffff
% ffffffffffffffffffffffffffffffff
% ffffffffffffffffffffffffffffffff
% ffffffffffffffffffffffffffffffff
% ffffffffffffffffffffffffffffffff
% ffffffffffffffffffffffffffffffff
% ffffffffffffffffffffffffffffffff
% ffffffffffffffffffffffffffffffff
% ffffffffffffffffffffffffffffffff
% ffffffffffffffffffffffffffffffff
% ffffffffffffffffffffffffffffffff
% ffffffffffffffffffffffffffffffff
% ffffffffffffffffffffffffffffffff
% ffffffffffffffffffffffffffffffff
% ffffffffffffffffffffffffffffffff
% ffffffffffffffffffffffffffffffff
% ffffffffffffffffffffffffffffffff
% ffffffffffffffffffffffffffffffff
% ffffffffffffffffffffffffffffffff
% ffffffffffffffffffffffffffffffff
% ffffffffffffffffffffffffffffffff
% ffffffffffffffffffffffffffffffff
% ffffffffffffffffffffffffffffffff
% ffffffffffffffffffffffffffffffff
% ffffffffffffffffffffffffffffffff
% ffffffffffffffffffffffffffffffff
% ffffffffffffffffffffffffffffffff
% ffffffffffffffffffffffffffffffff
% ffffffffffffffffffffffffffffffff
% ffffffffffffffffffffffffffffffff
% ffffffffffffffffffffffffffffffff
% ffffffffffffffffffffffffffffffff
% ffffffffffffffffffffffffffffffff
%%EndPreview
/tecplotdict 120 dict def
tecplotdict begin
/ed  {exch def} def
/ftl {findfont exch scalefont setfont} def
/ftr {/ISOLatin1-Times-Roman ftl} def
/ftb {/ISOLatin1-Times-Bold ftl} def
/fti {/ISOLatin1-Times-Italic ftl} def
/ftib {/ISOLatin1-Times-BoldItalic ftl} def
/fcr {/ISOLatin1-Courier ftl} def
/fcb {/ISOLatin1-Courier-Bold ftl} def
/fhn {/ISOLatin1-Helvetica ftl} def
/fhb {/ISOLatin1-Helvetica-Bold ftl} def
/fsy {/Symbol ftl} def
/gs /gsave load def
/gr /grestore load def
/np /newpath load def
/cp /closepath load def
/g /setgray load def
/lc {setlinecap} def
/lj /setlinejoin load def
/x /setrgbcolor load def
/sd /setdash load def
/sw {setlinewidth} def
/cpt /currentpoint load def
/m {moveto} def
/rm /rmoveto load def
/l /lineto load def
/r /rlineto load def
/sf /setflat load def
/s /stroke load def
/q {cpt s m} def
/ro /rotate load def
/sh /show load def
/clp {cp gr gs np m l l l cp clip np cp} def
/dorect
{
/height ed
/width  ed
m
0 height r
width 0 r
0 height neg r
cp
} def
/er {cp np dorect g fill 0 g cp} def
/erc {cp np dorect x fill 0 g cp} def
/br {cp np dorect g cp s} def
/brc {cp np dorect x cp s} def
/ii 0 def
/n 0 def
/CurA 0 def
/Ry 0 def
/Rx 0 def
/CA 0 def
/SA 0 def
/SJ 0 def
/SI 0 def
/bi 0 def
/i 0 def
/ib 0 def
/ig 0 def
/ir 0 def
/ishade 0 def
/bshade 0 def
/dcs
{
m
dup dup dup
-2 div dup
rm
0 r
0 exch r
neg 0 r
cp
} bind def
/pg
{
/size ed
/Ny ed
/Nx ed
/Y2 ed
/X2 ed
/Y1 ed
/X1 ed
Ny 1 gt
{/Dy Y2 Y1 sub Ny 1 sub div def}
{/Dy 0.0 def}
ifelse
Nx 1 gt
{/Dx X2 X1 sub Nx 1 sub div def}
{/Dx 0.0 def}
ifelse
Y1 Dy Y2 Dy 2 div add
{
X1 Dx X2 Dx 2 div add
{
1 index
size 3 1 roll
dcs fill
Dx 0.0 eq
{exit}
if
} for
pop
Dy 0.0 eq
{exit}
if
} for
} bind def
/z
{
/ii ed
rea ii get
gra ii get
bla ii get
} def
/lrgb
{
/ii ed
/blue ed
/green ed
/red ed
bla ii blue put
gra ii green put
rea ii red put
} def
/trace
{
cp np
m
1 1 n 
{
pop
r
} for
cp
} def
/f
{
/ishade ed
/n ed 
s
trace
ishade g fill
} def
/b
{
/bshade ed
/n ed 
m
1 1 n 
{
pop
r
} for
bshade g s
} def
/fb
{
/bshade ed
/ishade ed
/n ed 
s 
n 2 mul 2 add copy
trace
ishade g fill
trace
bshade g s
} def
/c
{
/n ed 
s 
trace
s
} def
/fc
{
/i ed
/n ed 
s 
trace
i z x fill
} def
/fd
{
/ib ed
/ig ed
/ir ed
/n ed 
s 
trace
ir ig ib x fill
} def
/bc
{
/i ed
/n ed 
m
1 1 n 
{
pop
r
} for
i z x s
} def
/fbc
{
/ii ed
/bi ed
/n ed 
s 
n 2 mul 2 add copy
trace
ii z x fill
trace
bi z x s
} def
/fbd
{
/ib ed
/ig ed
/ir ed
/bi ed
/n ed 
s
n 2 mul 2 add copy
trace
ir ig ib x fill
trace
bi z x s
} def
/e
{
/Ry ed
/Rx ed
/CA ed
/SA ed
/SJ ed
/SI ed
/DelX SA cos Rx mul def
/DelY SA sin Ry mul def
/XI SI DelX add def
/YI SJ DelY add def
/OCX DelX def
/OCY DelY def
/N 0 def
SA CA add
CA
SA 360 add
{
/CurA ed
/CX CurA cos Rx mul def
/CY CurA sin Ry mul def
OCX CX sub 
OCY CY sub 
/OCX CX def
/OCY CY def
/N N 1 add def
}
for
XI YI N
} def
%%EndProlog
%%Page:? 1
/getisofont
{
findfont
dup length dict begin
{
1 index /FID ne {def}{pop pop} ifelse
} forall
/Encoding ISOLatin1Encoding def
currentdict
end
} def
/Helvetica             getisofont /ISOLatin1-Helvetica             exch definefont pop
/Helvetica-Bold        getisofont /ISOLatin1-Helvetica-Bold        exch definefont pop
/Helvetica-Oblique     getisofont /ISOLatin1-Helvetica-Oblique     exch definefont pop
/Helvetica-BoldOblique getisofont /ISOLatin1-Helvetica-BoldOblique exch definefont pop
/Times-Roman           getisofont /ISOLatin1-Times-Roman           exch definefont pop
/Times-Bold            getisofont /ISOLatin1-Times-Bold            exch definefont pop
/Times-BoldItalic      getisofont /ISOLatin1-Times-BoldItalic      exch definefont pop
/Times-Italic          getisofont /ISOLatin1-Times-Italic          exch definefont pop
/Courier               getisofont /ISOLatin1-Courier               exch definefont pop
/Courier-Bold          getisofont /ISOLatin1-Courier-Bold          exch definefont pop
/Courier-Oblique       getisofont /ISOLatin1-Courier-Oblique       exch definefont pop
/Courier-BoldOblique   getisofont /ISOLatin1-Courier-BoldOblique   exch definefont pop
5 setmiterlimit
0.025 0.025 scale np
gs
2834 674 2834 23806 28846 23806 28846 674 clp
1 2880 720 25920 23040 er
2879 719 2879 23761 28801 23761 28801 719 clp
6249 3299 6249 21041 25691 21041 25691 3299 clp
0 g
23 sw
0 lc
0 lj
[1 114] 0 sd
6250 3300 m
6250 21040 l
s
7546 3300 m
7546 21040 l
s
8842 3300 m
8842 21040 l
s
10138 3300 m
10138 21040 l
s
11434 3300 m
11434 21040 l
s
12730 3300 m
12730 21040 l
s
14026 3300 m
14026 21040 l
s
15322 3300 m
15322 21040 l
s
16618 3300 m
16618 21040 l
s
17914 3300 m
17914 21040 l
s
19210 3300 m
19210 21040 l
s
20506 3300 m
20506 21040 l
s
21802 3300 m
21802 21040 l
s
23098 3300 m
23098 21040 l
s
24394 3300 m
24394 21040 l
s
25690 3300 m
25690 21040 l
s
2879 719 2879 23761 28801 23761 28801 719 clp
6249 3299 6249 21041 25691 21041 25691 3299 clp
0 g
23 sw
0 lc
0 lj
[1 114] 0 sd
6250 3300 m
25690 3300 l
s
6250 3638 m
25690 3638 l
s
6250 3976 m
25690 3976 l
s
6250 4313 m
25690 4313 l
s
6250 4651 m
25690 4651 l
s
6250 4989 m
25690 4989 l
s
6250 5327 m
25690 5327 l
s
6250 5665 m
25690 5665 l
s
6250 6003 m
25690 6003 l
s
6250 6341 m
25690 6341 l
s
6250 6679 m
25690 6679 l
s
6250 7017 m
25690 7017 l
s
6250 7355 m
25690 7355 l
s
6250 7693 m
25690 7693 l
s
6250 8031 m
25690 8031 l
s
6250 8368 m
25690 8368 l
s
6250 8706 m
25690 8706 l
s
6250 9044 m
25690 9044 l
s
6250 9382 m
25690 9382 l
s
6250 9720 m
25690 9720 l
s
6250 10058 m
25690 10058 l
s
6250 10396 m
25690 10396 l
s
6250 10734 m
25690 10734 l
s
6250 11072 m
25690 11072 l
s
6250 11410 m
25690 11410 l
s
6250 11748 m
25690 11748 l
s
6250 12086 m
25690 12086 l
s
6250 12424 m
25690 12424 l
s
6250 12761 m
25690 12761 l
s
6250 13099 m
25690 13099 l
s
6250 13437 m
25690 13437 l
s
6250 13775 m
25690 13775 l
s
6250 14113 m
25690 14113 l
s
6250 14451 m
25690 14451 l
s
6250 14789 m
25690 14789 l
s
6250 15127 m
25690 15127 l
s
6250 15465 m
25690 15465 l
s
6250 15803 m
25690 15803 l
s
6250 16141 m
25690 16141 l
s
6250 16479 m
25690 16479 l
s
6250 16816 m
25690 16816 l
s
6250 17154 m
25690 17154 l
s
6250 17492 m
25690 17492 l
s
6250 17830 m
25690 17830 l
s
6250 18168 m
25690 18168 l
s
6250 18506 m
25690 18506 l
s
6250 18844 m
25690 18844 l
s
6250 19182 m
25690 19182 l
s
6250 19520 m
25690 19520 l
s
6250 19858 m
25690 19858 l
s
6250 20196 m
25690 20196 l
s
6250 20534 m
25690 20534 l
s
6250 20872 m
25690 20872 l
s
515.921 -0.106 528.084 -0.103 528.082 -0.273 528.084 -0.108 528.084 -0.088 528.082 -0.000 528.084 -0.062 528.083 0.062 528.083 -0.000 528.084 -0.000
528.083 0.150 528.083 0.108 528.083 0.273 528.084 0.278 528.083 0.371 528.083 -0.423 528.084 -7.884 528.083 -62.695 528.083 -370.910 528.083 -2888.717
528.084 -7974.594 528.083 -470.183 528.084 -8.946 528.083 -9.854 528.084 -809.572 528.083 -430.774 528.084 -19.965 528.084 -4.739 528.083 -3.960 528.083 -3.986
528.084 -4.022 528.083 -3.878 528.083 -4.130 528.083 -4.300 528.083 -4.300 528.083 -4.409 6690.762 20277.678 36 69 sw
[] 0 sd
0 b
515.921 -460.792 528.084 -127.824 528.082 -53.707 528.084 -28.101 528.084 -21.206 528.082 -14.449 528.084 -8.385 528.083 -7.207 528.083 -7.242 528.084 -7.207
528.083 -7.242 528.083 -2.807 528.083 -6.549 528.084 -3.465 528.083 -7.242 528.083 -2.772 528.084 -7.242 528.083 -5.890 528.083 -4.123 528.083 -7.242
528.084 -118.434 528.083 -394.005 528.084 -359.875 528.083 -315.038 528.084 -327.824 528.083 -376.126 528.084 -383.125 528.084 -378.725 528.083 -382.086 528.083 -379.729
528.084 -380.942 528.083 -381.947 528.083 -397.574 528.083 -405.370 528.083 -416.528 528.083 -419.265 6690.762 17022.307 36 [461] 0 sd
0 b
2879 719 2879 23761 28801 23761 28801 719 clp
0 g
92 sw
0 lc
0 lj
[] 0 sd
6250 3300 m
6250 3760 l
s
23 sw
7546 3300 m
7546 3576 l
s
8842 3300 m
8842 3576 l
s
10138 3300 m
10138 3576 l
s
11434 3300 m
11434 3576 l
s
92 sw
12730 3300 m
12730 3760 l
s
23 sw
14026 3300 m
14026 3576 l
s
15322 3300 m
15322 3576 l
s
16618 3300 m
16618 3576 l
s
17914 3300 m
17914 3576 l
s
92 sw
19210 3300 m
19210 3760 l
s
23 sw
20506 3300 m
20506 3576 l
s
21802 3300 m
21802 3576 l
s
23098 3300 m
23098 3576 l
s
24394 3300 m
24394 3576 l
s
92 sw
25690 3300 m
25690 3760 l
s
2 lc
6250 3300 m
25690 3300 l
s
-585 -0 0 564 585 -0 15677 1814 3 5 sw
1 1 fb
829.44 fhb
0 g
15677 1814 m
(X) sh
92 sw
0 lc
6250 3300 m
6710 3300 l
s
23 sw
6250 3638 m
6526 3638 l
s
6250 3976 m
6526 3976 l
s
6250 4313 m
6526 4313 l
s
6250 4651 m
6526 4651 l
s
92 sw
6250 4989 m
6710 4989 l
s
23 sw
6250 5327 m
6526 5327 l
s
6250 5665 m
6526 5665 l
s
6250 6003 m
6526 6003 l
s
6250 6341 m
6526 6341 l
s
92 sw
6250 6679 m
6710 6679 l
s
23 sw
6250 7017 m
6526 7017 l
s
6250 7355 m
6526 7355 l
s
6250 7693 m
6526 7693 l
s
6250 8031 m
6526 8031 l
s
92 sw
6250 8368 m
6710 8368 l
s
23 sw
6250 8706 m
6526 8706 l
s
6250 9044 m
6526 9044 l
s
6250 9382 m
6526 9382 l
s
6250 9720 m
6526 9720 l
s
92 sw
6250 10058 m
6710 10058 l
s
23 sw
6250 10396 m
6526 10396 l
s
6250 10734 m
6526 10734 l
s
6250 11072 m
6526 11072 l
s
6250 11410 m
6526 11410 l
s
92 sw
6250 11748 m
6710 11748 l
s
23 sw
6250 12086 m
6526 12086 l
s
6250 12424 m
6526 12424 l
s
6250 12761 m
6526 12761 l
s
6250 13099 m
6526 13099 l
s
92 sw
6250 13437 m
6710 13437 l
s
23 sw
6250 13775 m
6526 13775 l
s
6250 14113 m
6526 14113 l
s
6250 14451 m
6526 14451 l
s
6250 14789 m
6526 14789 l
s
92 sw
6250 15127 m
6710 15127 l
s
23 sw
6250 15465 m
6526 15465 l
s
6250 15803 m
6526 15803 l
s
6250 16141 m
6526 16141 l
s
6250 16479 m
6526 16479 l
s
92 sw
6250 16816 m
6710 16816 l
s
23 sw
6250 17154 m
6526 17154 l
s
6250 17492 m
6526 17492 l
s
6250 17830 m
6526 17830 l
s
6250 18168 m
6526 18168 l
s
92 sw
6250 18506 m
6710 18506 l
s
23 sw
6250 18844 m
6526 18844 l
s
6250 19182 m
6526 19182 l
s
6250 19520 m
6526 19520 l
s
6250 19858 m
6526 19858 l
s
92 sw
6250 20196 m
6710 20196 l
s
23 sw
6250 20534 m
6526 20534 l
s
6250 20872 m
6526 20872 l
s
92 sw
2 lc
6250 3300 m
6250 21040 l
s
0 -2142 -564 -0 0 2142 4694 11099 3 5 sw
1 1 fb
829.44 fhb
0 g
4694 11099 m
gs 90.0 ro
(T) sh
gr
4694 11848 m
gs 90.0 ro
([) sh
gr
497.664 fhb
4280 12086 m
gs 90.0 ro
(o) sh
gr
829.44 fhb
4694 12382 m
gs 90.0 ro
(C) sh
gr
4694 13003 m
gs 90.0 ro
(]) sh
gr
92 sw
0 lc
25230 3300 m
25690 3300 l
s
23 sw
25414 4187 m
25690 4187 l
s
25414 5074 m
25690 5074 l
s
25414 5961 m
25690 5961 l
s
25414 6848 m
25690 6848 l
s
92 sw
25230 7735 m
25690 7735 l
s
23 sw
25414 8622 m
25690 8622 l
s
25414 9509 m
25690 9509 l
s
25414 10396 m
25690 10396 l
s
25414 11283 m
25690 11283 l
s
92 sw
25230 12170 m
25690 12170 l
s
23 sw
25414 13057 m
25690 13057 l
s
25414 13944 m
25690 13944 l
s
25414 14831 m
25690 14831 l
s
25414 15718 m
25690 15718 l
s
92 sw
25230 16605 m
25690 16605 l
s
23 sw
25414 17492 m
25690 17492 l
s
25414 18379 m
25690 18379 l
s
25414 19266 m
25690 19266 l
s
25414 20153 m
25690 20153 l
s
92 sw
25230 21040 m
25690 21040 l
s
2 lc
25690 3300 m
25690 21040 l
s
0 -6491 -564 -0 0 6491 27031 8925 3 5 sw
1 1 fb
829.44 fhb
0 g
27031 12653 m
gs 90.0 ro
(p) sh
gr
497.664 fhb
27280 13146 m
gs 90.0 ro
(g) sh
gr
829.44 fhb
27031 13881 m
gs 90.0 ro
([) sh
gr
27031 14118 m
gs 90.0 ro
(P) sh
gr
27031 14703 m
gs 90.0 ro
(a) sh
gr
27031 15178 m
gs 90.0 ro
(]) sh
gr
-454 -0 0 548 454 -0 6023 2291 3 1 1 fb
806.4 fhn
0 g
6023 2291 m
(0) sh
-1126 -0 0 548 1126 -0 12167 2291 3 1 1 fb
806.4 fhn
0 g
12167 2291 m
(0) sh
12620 2291 m
(.) sh
12839 2291 m
(1) sh
-1126 -0 0 548 1126 -0 18647 2291 3 1 1 fb
806.4 fhn
0 g
18647 2291 m
(0) sh
19100 2291 m
(.) sh
19319 2291 m
(2) sh
-1126 -0 0 548 1126 -0 25127 2291 3 1 1 fb
806.4 fhn
0 g
25127 2291 m
(0) sh
25580 2291 m
(.) sh
25799 2291 m
(3) sh
-454 -0 0 548 454 -0 5537 3026 3 1 1 fb
806.4 fhn
0 g
5537 3026 m
(0) sh
-907 -0 0 548 907 -0 5083 4715 3 1 1 fb
806.4 fhn
0 g
5083 4715 m
(1) sh
5537 4715 m
(0) sh
-907 -0 0 548 907 -0 5083 6405 3 1 1 fb
806.4 fhn
0 g
5083 6405 m
(2) sh
5537 6405 m
(0) sh
-907 -0 0 548 907 -0 5083 8094 3 1 1 fb
806.4 fhn
0 g
5083 8094 m
(3) sh
5537 8094 m
(0) sh
-907 -0 0 548 907 -0 5083 9784 3 1 1 fb
806.4 fhn
0 g
5083 9784 m
(4) sh
5537 9784 m
(0) sh
-907 -0 0 548 907 -0 5083 11474 3 1 1 fb
806.4 fhn
0 g
5083 11474 m
(5) sh
5537 11474 m
(0) sh
-907 -0 0 548 907 -0 5083 13163 3 1 1 fb
806.4 fhn
0 g
5083 13163 m
(6) sh
5537 13163 m
(0) sh
-907 -0 0 548 907 -0 5083 14853 3 1 1 fb
806.4 fhn
0 g
5083 14853 m
(7) sh
5537 14853 m
(0) sh
-907 -0 0 548 907 -0 5083 16542 3 1 1 fb
806.4 fhn
0 g
5083 16542 m
(8) sh
5537 16542 m
(0) sh
-907 -0 0 548 907 -0 5083 18232 3 1 1 fb
806.4 fhn
0 g
5083 18232 m
(9) sh
5537 18232 m
(0) sh
-1361 -0 0 548 1361 -0 4630 19922 3 1 1 fb
806.4 fhn
0 g
4630 19922 m
(1) sh
5083 19922 m
(0) sh
5537 19922 m
(0) sh
-2722 -0 0 548 2722 -0 25949 3026 3 1 1 fb
806.4 fhn
0 g
25949 3026 m
(1) sh
26402 3026 m
(0) sh
26856 3026 m
(0) sh
27310 3026 m
(0) sh
27763 3026 m
(0) sh
28217 3026 m
(0) sh
-2722 -0 0 548 2722 -0 25949 7461 3 1 1 fb
806.4 fhn
0 g
25949 7461 m
(1) sh
26402 7461 m
(0) sh
26856 7461 m
(1) sh
27310 7461 m
(0) sh
27763 7461 m
(0) sh
28217 7461 m
(0) sh
-2722 -0 0 548 2722 -0 25949 11896 3 1 1 fb
806.4 fhn
0 g
25949 11896 m
(1) sh
26402 11896 m
(0) sh
26856 11896 m
(2) sh
27310 11896 m
(0) sh
27763 11896 m
(0) sh
28217 11896 m
(0) sh
-2722 -0 0 548 2722 -0 25949 16331 3 1 1 fb
806.4 fhn
0 g
25949 16331 m
(1) sh
26402 16331 m
(0) sh
26856 16331 m
(3) sh
27310 16331 m
(0) sh
27763 16331 m
(0) sh
28217 16331 m
(0) sh
-2722 -0 0 548 2722 -0 25949 20766 3 1 1 fb
806.4 fhn
0 g
25949 20766 m
(1) sh
26402 20766 m
(0) sh
26856 20766 m
(4) sh
27310 20766 m
(0) sh
27763 20766 m
(0) sh
28217 20766 m
(0) sh
0 3540 6001 -0 0 -3540 18413 17614 3 23 sw
1 0 fb
18367 14027 18367 17660 24461 17660 24461 14027 clp
2879 719 2879 23761 28801 23761 28801 719 clp
806.4 fhb
0 g
23147 15904 m
(T) sh
806.4 fhb
23147 14695 m
(p) sh
483.84 fhb
23627 14453 m
(g) sh
69 sw
0 lc
0 lj
[] 0 sd
18914 16146 m
22542 16146 l
s
[461] 0 sd
18914 14936 m
22542 14936 l
s
gr end
showpage
