%!PS-Adobe-2.0 EPSF-2.0
%%Title: Gebiet.fig
%%Creator: fig2dev Version 3.2 Patchlevel 5a
%%CreationDate: Fri Nov 23 14:31:53 2012
%%For: holle@tore ()
%%BoundingBox: 0 0 473 387
%Magnification: 1.0000
%%EndComments
%%BeginProlog
%%BeginProlog
/$F2psDict 200 dict def
$F2psDict begin
$F2psDict /mtrx matrix put
/col-1 {0 setgray} bind def
/col0 {0.000 0.000 0.000 srgb} bind def
/col1 {0.000 0.000 1.000 srgb} bind def
/col2 {0.000 1.000 0.000 srgb} bind def
/col3 {0.000 1.000 1.000 srgb} bind def
/col4 {1.000 0.000 0.000 srgb} bind def
/col5 {1.000 0.000 1.000 srgb} bind def
/col6 {1.000 1.000 0.000 srgb} bind def
/col7 {1.000 1.000 1.000 srgb} bind def
/col8 {0.000 0.000 0.560 srgb} bind def
/col9 {0.000 0.000 0.690 srgb} bind def
/col10 {0.000 0.000 0.820 srgb} bind def
/col11 {0.530 0.810 1.000 srgb} bind def
/col12 {0.000 0.560 0.000 srgb} bind def
/col13 {0.000 0.690 0.000 srgb} bind def
/col14 {0.000 0.820 0.000 srgb} bind def
/col15 {0.000 0.560 0.560 srgb} bind def
/col16 {0.000 0.690 0.690 srgb} bind def
/col17 {0.000 0.820 0.820 srgb} bind def
/col18 {0.560 0.000 0.000 srgb} bind def
/col19 {0.690 0.000 0.000 srgb} bind def
/col20 {0.820 0.000 0.000 srgb} bind def
/col21 {0.560 0.000 0.560 srgb} bind def
/col22 {0.690 0.000 0.690 srgb} bind def
/col23 {0.820 0.000 0.820 srgb} bind def
/col24 {0.500 0.190 0.000 srgb} bind def
/col25 {0.630 0.250 0.000 srgb} bind def
/col26 {0.750 0.380 0.000 srgb} bind def
/col27 {1.000 0.500 0.500 srgb} bind def
/col28 {1.000 0.630 0.630 srgb} bind def
/col29 {1.000 0.750 0.750 srgb} bind def
/col30 {1.000 0.880 0.880 srgb} bind def
/col31 {1.000 0.840 0.000 srgb} bind def

end

/cp {closepath} bind def
/ef {eofill} bind def
/gr {grestore} bind def
/gs {gsave} bind def
/sa {save} bind def
/rs {restore} bind def
/l {lineto} bind def
/m {moveto} bind def
/rm {rmoveto} bind def
/n {newpath} bind def
/s {stroke} bind def
/sh {show} bind def
/slc {setlinecap} bind def
/slj {setlinejoin} bind def
/slw {setlinewidth} bind def
/srgb {setrgbcolor} bind def
/rot {rotate} bind def
/sc {scale} bind def
/sd {setdash} bind def
/ff {findfont} bind def
/sf {setfont} bind def
/scf {scalefont} bind def
/sw {stringwidth} bind def
/tr {translate} bind def
/tnt {dup dup currentrgbcolor
  4 -2 roll dup 1 exch sub 3 -1 roll mul add
  4 -2 roll dup 1 exch sub 3 -1 roll mul add
  4 -2 roll dup 1 exch sub 3 -1 roll mul add srgb}
  bind def
/shd {dup dup currentrgbcolor 4 -2 roll mul 4 -2 roll mul
  4 -2 roll mul srgb} bind def
/$F2psBegin {$F2psDict begin /$F2psEnteredState save def} def
/$F2psEnd {$F2psEnteredState restore end} def

/pageheader {
save
newpath 0 387 moveto 0 0 lineto 473 0 lineto 473 387 lineto closepath clip newpath
-1.9 401.4 translate
1 -1 scale
$F2psBegin
10 setmiterlimit
0 slj 0 slc
 0.06299 0.06299 sc
} bind def
/pagefooter {
$F2psEnd
restore
} bind def
%%EndProlog
pageheader
%
% Fig objects follow
%
% 
% here starts figure with depth 50
% Polyline
0 slj
0 slc
7.500 slw
n 900 1350 m 900 4950 l 5850 4950 l 5850 1350 l
 2250 1350 l gs col0 s gr 
% Polyline
n 900 1350 m
 1620 1350 l gs col0 s gr 
% Polyline
n 900 1080 m 1620 1080 l
 1620 1350 l gs col0 s gr 
% Polyline
n 900 1080 m
 900 1350 l gs col0 s gr 
% Polyline
n 2250 1080 m
 2250 1350 l gs col0 s gr 
% Polyline
n 2250 1080 m 5850 1080 l
 5850 1350 l gs col0 s gr 
% Polyline
n 900 4950 m 900 5220 l 5850 5220 l
 5850 4950 l gs col0 s gr 
% Polyline
n 1125 5220 m
 1350 4950 l gs col0 s gr 
% Polyline
n 1305 5220 m
 1530 4950 l gs col0 s gr 
% Polyline
n 1485 5220 m
 1710 4950 l gs col0 s gr 
% Polyline
n 1665 5220 m
 1890 4950 l gs col0 s gr 
% Polyline
n 1845 5220 m
 2070 4950 l gs col0 s gr 
% Polyline
n 2025 5220 m
 2250 4950 l gs col0 s gr 
% Polyline
n 2205 5220 m
 2430 4950 l gs col0 s gr 
% Polyline
n 2385 5220 m
 2610 4950 l gs col0 s gr 
% Polyline
n 2565 5220 m
 2790 4950 l gs col0 s gr 
% Polyline
n 2745 5220 m
 2970 4950 l gs col0 s gr 
% Polyline
n 2925 5220 m
 3150 4950 l gs col0 s gr 
% Polyline
n 3105 5220 m
 3330 4950 l gs col0 s gr 
% Polyline
n 3285 5220 m
 3510 4950 l gs col0 s gr 
% Polyline
n 3465 5220 m
 3690 4950 l gs col0 s gr 
% Polyline
n 3645 5220 m
 3870 4950 l gs col0 s gr 
% Polyline
n 3825 5220 m
 4050 4950 l gs col0 s gr 
% Polyline
n 4005 5220 m
 4230 4950 l gs col0 s gr 
% Polyline
n 4185 5220 m
 4410 4950 l gs col0 s gr 
% Polyline
n 4365 5220 m
 4590 4950 l gs col0 s gr 
% Polyline
n 4545 5220 m
 4770 4950 l gs col0 s gr 
% Polyline
n 4725 5220 m
 4950 4950 l gs col0 s gr 
% Polyline
n 4905 5220 m
 5130 4950 l gs col0 s gr 
% Polyline
n 5085 5220 m
 5310 4950 l gs col0 s gr 
% Polyline
n 5265 5220 m
 5490 4950 l gs col0 s gr 
% Polyline
n 5445 5220 m
 5670 4950 l gs col0 s gr 
% Polyline
n 5625 5220 m
 5850 4950 l gs col0 s gr 
% Polyline
n 945 5220 m
 1170 4950 l gs col0 s gr 
% Polyline
n 945 1350 m
 1170 1080 l gs col0 s gr 
% Polyline
n 1125 1350 m
 1350 1080 l gs col0 s gr 
% Polyline
n 1305 1350 m
 1530 1080 l gs col0 s gr 
% Polyline
n 2295 1350 m
 2520 1080 l gs col0 s gr 
% Polyline
n 2475 1350 m
 2700 1080 l gs col0 s gr 
% Polyline
n 2655 1350 m
 2880 1080 l gs col0 s gr 
% Polyline
n 2835 1350 m
 3060 1080 l gs col0 s gr 
% Polyline
n 3015 1350 m
 3240 1080 l gs col0 s gr 
% Polyline
n 3195 1350 m
 3420 1080 l gs col0 s gr 
% Polyline
n 3375 1350 m
 3600 1080 l gs col0 s gr 
% Polyline
n 3555 1350 m
 3780 1080 l gs col0 s gr 
% Polyline
n 3735 1350 m
 3960 1080 l gs col0 s gr 
% Polyline
n 3915 1350 m
 4140 1080 l gs col0 s gr 
% Polyline
n 4095 1350 m
 4320 1080 l gs col0 s gr 
% Polyline
n 4275 1350 m
 4500 1080 l gs col0 s gr 
% Polyline
n 4455 1350 m
 4680 1080 l gs col0 s gr 
% Polyline
n 4635 1350 m
 4860 1080 l gs col0 s gr 
% Polyline
n 4815 1350 m
 5040 1080 l gs col0 s gr 
% Polyline
n 4995 1350 m
 5220 1080 l gs col0 s gr 
% Polyline
n 5175 1350 m
 5400 1080 l gs col0 s gr 
% Polyline
n 5355 1350 m
 5580 1080 l gs col0 s gr 
% Polyline
n 5535 1350 m
 5760 1080 l gs col0 s gr 
% Polyline
gs  clippath
1680 763 m 1680 915 l 1740 915 l 1740 763 l 1740 763 l 1710 883 l 1680 763 l cp
eoclip
n 1710 540 m
 1710 900 l gs col0 s gr gr

% arrowhead
n 1680 763 m 1710 883 l 1740 763 l  col0 s
% Polyline
gs  clippath
1770 763 m 1770 915 l 1830 915 l 1830 763 l 1830 763 l 1800 883 l 1770 763 l cp
eoclip
n 1800 540 m
 1800 900 l gs col0 s gr gr

% arrowhead
n 1770 763 m 1800 883 l 1830 763 l  col0 s
% Polyline
gs  clippath
1860 763 m 1860 915 l 1920 915 l 1920 763 l 1920 763 l 1890 883 l 1860 763 l cp
eoclip
n 1890 540 m
 1890 900 l gs col0 s gr gr

% arrowhead
n 1860 763 m 1890 883 l 1920 763 l  col0 s
% Polyline
gs  clippath
1950 763 m 1950 915 l 2010 915 l 2010 763 l 2010 763 l 1980 883 l 1950 763 l cp
eoclip
n 1980 540 m
 1980 900 l gs col0 s gr gr

% arrowhead
n 1950 763 m 1980 883 l 2010 763 l  col0 s
% Polyline
gs  clippath
2040 763 m 2040 915 l 2100 915 l 2100 763 l 2100 763 l 2070 883 l 2040 763 l cp
eoclip
n 2070 540 m
 2070 900 l gs col0 s gr gr

% arrowhead
n 2040 763 m 2070 883 l 2100 763 l  col0 s
% Polyline
gs  clippath
2130 763 m 2130 915 l 2190 915 l 2190 763 l 2190 763 l 2160 883 l 2130 763 l cp
eoclip
n 2160 540 m
 2160 900 l gs col0 s gr gr

% arrowhead
n 2130 763 m 2160 883 l 2190 763 l  col0 s
% Polyline
n 900 3150 m
 5850 3285 l gs col0 s gr 
% Polyline
n 630 4950 m
 765 4950 l gs col0 s gr 
% Polyline
n 630 3150 m
 765 3150 l gs col0 s gr 
% Polyline
n 630 1350 m
 765 1350 l gs col0 s gr 
% Polyline
n 675 1350 m
 675 4950 l gs col0 s gr 
% Polyline
n 900 5400 m
 900 5535 l gs col0 s gr 
% Polyline
n 900 5490 m
 5850 5490 l gs col0 s gr 
% Polyline
n 5850 5400 m
 5850 5535 l gs col0 s gr 
% Polyline
n 6030 3285 m
 6165 3285 l gs col0 s gr 
% Polyline
n 6030 1350 m
 6165 1350 l gs col0 s gr 
% Polyline
n 6030 4950 m
 6165 4950 l gs col0 s gr 
% Polyline
n 6075 1350 m
 6075 4950 l gs col0 s gr 
% Polyline
n 1125 5805 m
 1440 5130 l gs col0 s gr 
% Polyline
n 3465 3015 m
 3240 3150 l gs col0 s gr 
% Polyline
 [15 45] 45 sd
n 900 3285 m
 5850 3465 l gs col0 s gr  [] 0 sd
% Polyline
 [15 45] 45 sd
n 900 3555 m
 5850 3735 l gs col0 s gr  [] 0 sd
% Polyline
 [15 45] 45 sd
n 900 3825 m
 5850 4005 l gs col0 s gr  [] 0 sd
% Polyline
 [15 45] 45 sd
n 900 4050 m
 5850 4230 l gs col0 s gr  [] 0 sd
% Polyline
 [15 45] 45 sd
n 900 4275 m
 5850 4455 l gs col0 s gr  [] 0 sd
% Polyline
 [15 45] 45 sd
n 900 4455 m
 5850 4635 l gs col0 s gr  [] 0 sd
% Polyline
 [15 45] 45 sd
n 900 4635 m
 5850 4815 l gs col0 s gr  [] 0 sd
% Polyline
 [15 45] 45 sd
n 900 4770 m
 5850 4950 l gs col0 s gr  [] 0 sd
% Polyline
n 450 1035 m
 810 1710 l gs col0 s gr 
% Polyline
n 6615 990 m
 5940 2070 l gs col0 s gr 
% Polyline
n 4365 450 m
 3960 1215 l gs col0 s gr 
% Polyline
gs  clippath
1770 763 m 1770 915 l 1830 915 l 1830 763 l 1830 763 l 1800 883 l 1770 763 l cp
eoclip
n 1800 540 m
 1800 900 l gs col0 s gr gr

% arrowhead
n 1770 763 m 1800 883 l 1830 763 l  col0 s
% Polyline
gs  clippath
1950 763 m 1950 915 l 2010 915 l 2010 763 l 2010 763 l 1980 883 l 1950 763 l cp
eoclip
n 1980 540 m
 1980 900 l gs col0 s gr gr

% arrowhead
n 1950 763 m 1980 883 l 2010 763 l  col0 s
% Polyline
gs  clippath
2130 763 m 2130 915 l 2190 915 l 2190 763 l 2190 763 l 2160 883 l 2130 763 l cp
eoclip
n 2160 540 m
 2160 900 l gs col0 s gr gr

% arrowhead
n 2130 763 m 2160 883 l 2190 763 l  col0 s
% Polyline
n 1620 900 m
 900 900 l gs col0 s gr 
% Polyline
n 900 855 m
 900 990 l gs col0 s gr 
% Polyline
n 1620 855 m
 1620 990 l gs col0 s gr 
% Polyline
n 2250 900 m
 5850 900 l gs col0 s gr 
% Polyline
n 2250 855 m
 2250 990 l gs col0 s gr 
% Polyline
n 5850 855 m
 5850 990 l gs col0 s gr 
/Helvetica ff 190.50 scf sf
495 6300 m
gs 1 -1 sc (boundary) col0 sh gr
/Helvetica ff 190.50 scf sf
1395 405 m
gs 1 -1 sc (NAPL infiltration) col0 sh gr
/Helvetica ff 190.50 scf sf
4410 405 m
gs 1 -1 sc (Neumann ) col0 sh gr
/Helvetica ff 190.50 scf sf
4410 585 m
gs 1 -1 sc (boundary) col0 sh gr
/Helvetica ff 190.50 scf sf
6705 945 m
gs 1 -1 sc (Dirichlet) col0 sh gr
/Helvetica ff 190.50 scf sf
6705 1125 m
gs 1 -1 sc (boundary) col0 sh gr
/Helvetica ff 190.50 scf sf
3060 2970 m
gs 1 -1 sc (groundwater table) col0 sh gr
/Helvetica ff 190.50 scf sf
1260 1890 m
gs 1 -1 sc (porous medium) col0 sh gr
/Helvetica ff 190.50 scf sf
270 2205 m
gs 1 -1 sc (5m) col0 sh gr
/Helvetica ff 190.50 scf sf
45 855 m
gs 1 -1 sc (boundary) col0 sh gr
/Helvetica ff 190.50 scf sf
45 675 m
gs 1 -1 sc (Dirichlet) col0 sh gr
/Helvetica ff 190.50 scf sf
270 4050 m
gs 1 -1 sc (5m) col0 sh gr
/Helvetica ff 190.50 scf sf
1125 810 m
gs 1 -1 sc (150m) col0 sh gr
/Helvetica ff 190.50 scf sf
3465 765 m
gs 1 -1 sc (325m) col0 sh gr
/Helvetica ff 190.50 scf sf
6345 2340 m
gs 1 -1 sc (5,5m) col0 sh gr
/Helvetica ff 190.50 scf sf
6435 4050 m
gs 1 -1 sc (4,5m) col0 sh gr
/Helvetica ff 190.50 scf sf
3105 5850 m
gs 1 -1 sc (500m) col0 sh gr
/Helvetica ff 190.50 scf sf
495 6075 m
gs 1 -1 sc (Neumann ) col0 sh gr
% here ends figure;
pagefooter
showpage
%%Trailer
%EOF
